EESchema Schematic File Version 4
EELAYER 30 0
EELAYER END
$Descr A4 11693 8268
encoding utf-8
Sheet 1 1
Title ""
Date ""
Rev ""
Comp ""
Comment1 ""
Comment2 ""
Comment3 ""
Comment4 ""
$EndDescr
Text Notes 7400 7500 0    50   ~ 0
PSU - Voltage Regulator subsystem
Text Notes 8150 7650 0    50   ~ 0
02/06/2021
Text Notes 10800 7100 0    50   ~ 0
LTLCAL001
$Comp
L pspice:CAP C1
U 1 1 60BA5715
P 5300 5000
F 0 "C1" H 5478 5046 50  0000 L CNN
F 1 "10uF" H 5478 4955 50  0000 L CNN
F 2 "Capacitor_THT:CP_Radial_D5.0mm_P2.50mm" H 5300 5000 50  0001 C CNN
F 3 "~" H 5300 5000 50  0001 C CNN
	1    5300 5000
	1    0    0    -1  
$EndComp
$Comp
L pspice:CAP C2
U 1 1 60BA5A69
P 6050 5400
F 0 "C2" H 6228 5446 50  0000 L CNN
F 1 "10uF" H 6228 5355 50  0000 L CNN
F 2 "Capacitor_THT:CP_Radial_D5.0mm_P2.50mm" H 6050 5400 50  0001 C CNN
F 3 "~" H 6050 5400 50  0001 C CNN
	1    6050 5400
	1    0    0    -1  
$EndComp
$Comp
L pspice:CAP C3
U 1 1 60BA5D07
P 7450 5350
F 0 "C3" H 7628 5396 50  0000 L CNN
F 1 "150uF" H 7628 5305 50  0000 L CNN
F 2 "Capacitor_THT:CP_Radial_D7.5mm_P2.50mm" H 7450 5350 50  0001 C CNN
F 3 "~" H 7450 5350 50  0001 C CNN
	1    7450 5350
	1    0    0    -1  
$EndComp
$Comp
L power:GND #PWR01
U 1 1 60BA614C
P 4050 5000
F 0 "#PWR01" H 4050 4750 50  0001 C CNN
F 1 "GND" H 4055 4827 50  0000 C CNN
F 2 "" H 4050 5000 50  0001 C CNN
F 3 "" H 4050 5000 50  0001 C CNN
	1    4050 5000
	1    0    0    -1  
$EndComp
$Comp
L Regulator_Linear:LT1117-3.3 U1
U 1 1 60BA7FCC
P 6050 4600
F 0 "U1" H 6050 4842 50  0000 C CNN
F 1 "LT1117-3.3" H 6050 4751 50  0000 C CNN
F 2 "Package_TO_SOT_THT:TO-220-3_Vertical" H 6050 4600 50  0001 C CNN
F 3 "https://www.analog.com/media/en/technical-documentation/data-sheets/1117fd.pdf" H 6050 4600 50  0001 C CNN
	1    6050 4600
	1    0    0    -1  
$EndComp
$Comp
L Device:R_US R3
U 1 1 60BA8830
P 8150 4950
F 0 "R3" H 8218 4996 50  0000 L CNN
F 1 "Rload - 100kΩ" H 8218 4905 50  0000 L CNN
F 2 "Resistor_THT:R_Axial_DIN0204_L3.6mm_D1.6mm_P2.54mm_Vertical" V 8190 4940 50  0001 C CNN
F 3 "~" H 8150 4950 50  0001 C CNN
	1    8150 4950
	1    0    0    -1  
$EndComp
$Comp
L Device:R_US R1
U 1 1 60BA8D15
P 6800 4750
F 0 "R1" H 6868 4796 50  0000 L CNN
F 1 "633Ω" H 6868 4705 50  0000 L CNN
F 2 "Resistor_THT:R_Axial_DIN0204_L3.6mm_D1.6mm_P2.54mm_Vertical" V 6840 4740 50  0001 C CNN
F 3 "~" H 6800 4750 50  0001 C CNN
	1    6800 4750
	1    0    0    -1  
$EndComp
$Comp
L Simulation_SPICE:DIODE D1
U 1 1 60BAA080
P 6050 3950
F 0 "D1" H 6050 3733 50  0000 C CNN
F 1 "1N4148" H 6050 3824 50  0000 C CNN
F 2 "Diode_THT:D_5W_P10.16mm_Horizontal" H 6050 3950 50  0001 C CNN
F 3 "~" H 6050 3950 50  0001 C CNN
F 4 "Y" H 6050 3950 50  0001 L CNN "Spice_Netlist_Enabled"
F 5 "D" H 6050 3950 50  0001 L CNN "Spice_Primitive"
	1    6050 3950
	-1   0    0    1   
$EndComp
$Comp
L Device:R_US R2
U 1 1 60BAA700
P 6800 5250
F 0 "R2" H 6868 5296 50  0000 L CNN
F 1 "1kΩ" H 6868 5205 50  0000 L CNN
F 2 "Resistor_THT:R_Axial_DIN0204_L3.6mm_D1.6mm_P2.54mm_Vertical" V 6840 5240 50  0001 C CNN
F 3 "~" H 6800 5250 50  0001 C CNN
	1    6800 5250
	1    0    0    -1  
$EndComp
$Comp
L Device:Battery BT1
U 1 1 60BB42D0
P 4050 4800
F 0 "BT1" H 4158 4846 50  0000 L CNN
F 1 "Vin-5V-USB-microB" H 4158 4755 50  0000 L CNN
F 2 "Connector_Molex:Molex_CLIK-Mate_502382-0270_1x02-1MP_P1.25mm_Vertical" V 4050 4860 50  0001 C CNN
F 3 "~" V 4050 4860 50  0001 C CNN
	1    4050 4800
	1    0    0    -1  
$EndComp
$Comp
L power:GND #PWR02
U 1 1 60BB7F76
P 5300 5250
F 0 "#PWR02" H 5300 5000 50  0001 C CNN
F 1 "GND" H 5300 5100 50  0000 C CNN
F 2 "" H 5300 5250 50  0001 C CNN
F 3 "" H 5300 5250 50  0001 C CNN
	1    5300 5250
	1    0    0    -1  
$EndComp
$Comp
L power:GND #PWR05
U 1 1 60BBC6F6
P 7450 5600
F 0 "#PWR05" H 7450 5350 50  0001 C CNN
F 1 "GND" H 7455 5427 50  0000 C CNN
F 2 "" H 7450 5600 50  0001 C CNN
F 3 "" H 7450 5600 50  0001 C CNN
	1    7450 5600
	1    0    0    -1  
$EndComp
$Comp
L power:GND #PWR03
U 1 1 60BC3DAC
P 6050 5650
F 0 "#PWR03" H 6050 5400 50  0001 C CNN
F 1 "GND" H 6055 5477 50  0000 C CNN
F 2 "" H 6050 5650 50  0001 C CNN
F 3 "" H 6050 5650 50  0001 C CNN
	1    6050 5650
	1    0    0    -1  
$EndComp
$Comp
L power:GND #PWR04
U 1 1 60BD6985
P 6800 5400
F 0 "#PWR04" H 6800 5150 50  0001 C CNN
F 1 "GND" H 6805 5227 50  0000 C CNN
F 2 "" H 6800 5400 50  0001 C CNN
F 3 "" H 6800 5400 50  0001 C CNN
	1    6800 5400
	1    0    0    -1  
$EndComp
$Comp
L power:GND #PWR06
U 1 1 60BE96F5
P 8150 5100
F 0 "#PWR06" H 8150 4850 50  0001 C CNN
F 1 "GND" H 8155 4927 50  0000 C CNN
F 2 "" H 8150 5100 50  0001 C CNN
F 3 "" H 8150 5100 50  0001 C CNN
	1    8150 5100
	1    0    0    -1  
$EndComp
Wire Wire Line
	6800 4600 6800 3950
Wire Wire Line
	6800 3950 6200 3950
Wire Wire Line
	6800 4600 6350 4600
Connection ~ 6800 4600
Wire Wire Line
	6800 4600 7450 4600
Wire Wire Line
	7450 4600 7450 5100
Wire Wire Line
	7450 4600 8150 4600
Wire Wire Line
	8150 4600 8150 4800
Connection ~ 7450 4600
Wire Wire Line
	5750 4600 5300 4600
Wire Wire Line
	5900 3950 5300 3950
Wire Wire Line
	5300 3950 5300 4600
Connection ~ 5300 4600
Wire Wire Line
	5300 4600 4050 4600
Wire Wire Line
	5300 4600 5300 4750
Wire Wire Line
	6800 4900 6800 5000
Wire Wire Line
	6050 5150 6050 5000
Wire Wire Line
	6050 5000 6800 5000
Connection ~ 6050 5000
Wire Wire Line
	6050 5000 6050 4900
Connection ~ 6800 5000
Wire Wire Line
	6800 5000 6800 5100
$EndSCHEMATC
