(kicad_pcb (version 20171130) (host pcbnew 5.1.10)

  (general
    (thickness 1.6)
    (drawings 7)
    (tracks 38)
    (zones 0)
    (modules 9)
    (nets 5)
  )

  (page A4)
  (layers
    (0 F.Cu signal)
    (31 B.Cu signal)
    (32 B.Adhes user)
    (33 F.Adhes user)
    (34 B.Paste user)
    (35 F.Paste user)
    (36 B.SilkS user)
    (37 F.SilkS user)
    (38 B.Mask user)
    (39 F.Mask user)
    (40 Dwgs.User user)
    (41 Cmts.User user)
    (42 Eco1.User user)
    (43 Eco2.User user)
    (44 Edge.Cuts user)
    (45 Margin user)
    (46 B.CrtYd user)
    (47 F.CrtYd user)
    (48 B.Fab user)
    (49 F.Fab user)
  )

  (setup
    (last_trace_width 0.25)
    (trace_clearance 0.2)
    (zone_clearance 0.508)
    (zone_45_only no)
    (trace_min 0.2)
    (via_size 0.8)
    (via_drill 0.4)
    (via_min_size 0.4)
    (via_min_drill 0.3)
    (uvia_size 0.3)
    (uvia_drill 0.1)
    (uvias_allowed no)
    (uvia_min_size 0.2)
    (uvia_min_drill 0.1)
    (edge_width 0.1)
    (segment_width 0.2)
    (pcb_text_width 0.3)
    (pcb_text_size 1.5 1.5)
    (mod_edge_width 0.15)
    (mod_text_size 1 1)
    (mod_text_width 0.15)
    (pad_size 1.524 1.524)
    (pad_drill 0.762)
    (pad_to_mask_clearance 0)
    (aux_axis_origin 0 0)
    (visible_elements FFFFFF7F)
    (pcbplotparams
      (layerselection 0x010f0_ffffffff)
      (usegerberextensions false)
      (usegerberattributes true)
      (usegerberadvancedattributes true)
      (creategerberjobfile true)
      (excludeedgelayer true)
      (linewidth 0.100000)
      (plotframeref false)
      (viasonmask false)
      (mode 1)
      (useauxorigin false)
      (hpglpennumber 1)
      (hpglpenspeed 20)
      (hpglpendiameter 15.000000)
      (psnegative false)
      (psa4output false)
      (plotreference true)
      (plotvalue true)
      (plotinvisibletext false)
      (padsonsilk false)
      (subtractmaskfromsilk false)
      (outputformat 1)
      (mirror false)
      (drillshape 0)
      (scaleselection 1)
      (outputdirectory ""))
  )

  (net 0 "")
  (net 1 "Net-(BT1-Pad1)")
  (net 2 GND)
  (net 3 "Net-(C2-Pad1)")
  (net 4 "Net-(C3-Pad1)")

  (net_class Default "This is the default net class."
    (clearance 0.2)
    (trace_width 0.25)
    (via_dia 0.8)
    (via_drill 0.4)
    (uvia_dia 0.3)
    (uvia_drill 0.1)
    (add_net GND)
    (add_net "Net-(BT1-Pad1)")
    (add_net "Net-(C2-Pad1)")
    (add_net "Net-(C3-Pad1)")
  )

  (module Connector_Molex:Molex_CLIK-Mate_502382-0270_1x02-1MP_P1.25mm_Vertical (layer F.Cu) (tedit 5B78AD89) (tstamp 60BADDC3)
    (at 179.07 132.08)
    (descr "Molex CLIK-Mate series connector, 502382-0270 (http://www.molex.com/pdm_docs/sd/5023820270_sd.pdf), generated with kicad-footprint-generator")
    (tags "connector Molex CLIK-Mate side entry")
    (path /60BB42D0)
    (attr smd)
    (fp_text reference BT1 (at 0 -4.7) (layer F.SilkS)
      (effects (font (size 1 1) (thickness 0.15)))
    )
    (fp_text value Vin-5V-USB-microB (at 0 4) (layer F.Fab)
      (effects (font (size 1 1) (thickness 0.15)))
    )
    (fp_line (start -0.625 1.242893) (end -0.125 1.95) (layer F.Fab) (width 0.1))
    (fp_line (start -1.125 1.95) (end -0.625 1.242893) (layer F.Fab) (width 0.1))
    (fp_line (start 3.48 -4) (end -3.48 -4) (layer F.CrtYd) (width 0.05))
    (fp_line (start 3.48 3.3) (end 3.48 -4) (layer F.CrtYd) (width 0.05))
    (fp_line (start -3.48 3.3) (end 3.48 3.3) (layer F.CrtYd) (width 0.05))
    (fp_line (start -3.48 -4) (end -3.48 3.3) (layer F.CrtYd) (width 0.05))
    (fp_line (start 2.925 1.95) (end 2.925 -3.5) (layer F.Fab) (width 0.1))
    (fp_line (start -2.925 1.95) (end -2.925 -3.5) (layer F.Fab) (width 0.1))
    (fp_line (start -2.925 -3.5) (end 2.925 -3.5) (layer F.Fab) (width 0.1))
    (fp_line (start 3.035 -3.61) (end 3.035 -3.06) (layer F.SilkS) (width 0.12))
    (fp_line (start -3.035 -3.61) (end 3.035 -3.61) (layer F.SilkS) (width 0.12))
    (fp_line (start -3.035 -3.06) (end -3.035 -3.61) (layer F.SilkS) (width 0.12))
    (fp_line (start 3.035 2.06) (end 1.185 2.06) (layer F.SilkS) (width 0.12))
    (fp_line (start 3.035 0.26) (end 3.035 2.06) (layer F.SilkS) (width 0.12))
    (fp_line (start -1.185 2.06) (end -1.185 2.8) (layer F.SilkS) (width 0.12))
    (fp_line (start -3.035 2.06) (end -1.185 2.06) (layer F.SilkS) (width 0.12))
    (fp_line (start -3.035 0.26) (end -3.035 2.06) (layer F.SilkS) (width 0.12))
    (fp_line (start -2.925 1.95) (end 2.925 1.95) (layer F.Fab) (width 0.1))
    (fp_text user %R (at 0 -0.77) (layer F.Fab)
      (effects (font (size 1 1) (thickness 0.15)))
    )
    (pad 1 smd roundrect (at -0.625 1.95) (size 0.6 1.7) (layers F.Cu F.Paste F.Mask) (roundrect_rratio 0.25)
      (net 1 "Net-(BT1-Pad1)"))
    (pad 2 smd roundrect (at 0.625 1.95) (size 0.6 1.7) (layers F.Cu F.Paste F.Mask) (roundrect_rratio 0.25)
      (net 2 GND))
    (pad MP smd roundrect (at -2.475 -1.4) (size 1 2.8) (layers F.Cu F.Paste F.Mask) (roundrect_rratio 0.25))
    (pad MP smd roundrect (at 2.475 -1.4) (size 1 2.8) (layers F.Cu F.Paste F.Mask) (roundrect_rratio 0.25))
    (model ${KISYS3DMOD}/Connector_Molex.3dshapes/Molex_CLIK-Mate_502382-0270_1x02-1MP_P1.25mm_Vertical.wrl
      (at (xyz 0 0 0))
      (scale (xyz 1 1 1))
      (rotate (xyz 0 0 0))
    )
  )

  (module Capacitor_THT:CP_Radial_D5.0mm_P2.50mm (layer F.Cu) (tedit 5AE50EF0) (tstamp 60BADE47)
    (at 177.8 139.7)
    (descr "CP, Radial series, Radial, pin pitch=2.50mm, , diameter=5mm, Electrolytic Capacitor")
    (tags "CP Radial series Radial pin pitch 2.50mm  diameter 5mm Electrolytic Capacitor")
    (path /60BA5715)
    (fp_text reference C1 (at 1.25 -3.75) (layer F.SilkS)
      (effects (font (size 1 1) (thickness 0.15)))
    )
    (fp_text value 10uF (at 1.25 3.75) (layer F.Fab)
      (effects (font (size 1 1) (thickness 0.15)))
    )
    (fp_line (start -1.304775 -1.725) (end -1.304775 -1.225) (layer F.SilkS) (width 0.12))
    (fp_line (start -1.554775 -1.475) (end -1.054775 -1.475) (layer F.SilkS) (width 0.12))
    (fp_line (start 3.851 -0.284) (end 3.851 0.284) (layer F.SilkS) (width 0.12))
    (fp_line (start 3.811 -0.518) (end 3.811 0.518) (layer F.SilkS) (width 0.12))
    (fp_line (start 3.771 -0.677) (end 3.771 0.677) (layer F.SilkS) (width 0.12))
    (fp_line (start 3.731 -0.805) (end 3.731 0.805) (layer F.SilkS) (width 0.12))
    (fp_line (start 3.691 -0.915) (end 3.691 0.915) (layer F.SilkS) (width 0.12))
    (fp_line (start 3.651 -1.011) (end 3.651 1.011) (layer F.SilkS) (width 0.12))
    (fp_line (start 3.611 -1.098) (end 3.611 1.098) (layer F.SilkS) (width 0.12))
    (fp_line (start 3.571 -1.178) (end 3.571 1.178) (layer F.SilkS) (width 0.12))
    (fp_line (start 3.531 1.04) (end 3.531 1.251) (layer F.SilkS) (width 0.12))
    (fp_line (start 3.531 -1.251) (end 3.531 -1.04) (layer F.SilkS) (width 0.12))
    (fp_line (start 3.491 1.04) (end 3.491 1.319) (layer F.SilkS) (width 0.12))
    (fp_line (start 3.491 -1.319) (end 3.491 -1.04) (layer F.SilkS) (width 0.12))
    (fp_line (start 3.451 1.04) (end 3.451 1.383) (layer F.SilkS) (width 0.12))
    (fp_line (start 3.451 -1.383) (end 3.451 -1.04) (layer F.SilkS) (width 0.12))
    (fp_line (start 3.411 1.04) (end 3.411 1.443) (layer F.SilkS) (width 0.12))
    (fp_line (start 3.411 -1.443) (end 3.411 -1.04) (layer F.SilkS) (width 0.12))
    (fp_line (start 3.371 1.04) (end 3.371 1.5) (layer F.SilkS) (width 0.12))
    (fp_line (start 3.371 -1.5) (end 3.371 -1.04) (layer F.SilkS) (width 0.12))
    (fp_line (start 3.331 1.04) (end 3.331 1.554) (layer F.SilkS) (width 0.12))
    (fp_line (start 3.331 -1.554) (end 3.331 -1.04) (layer F.SilkS) (width 0.12))
    (fp_line (start 3.291 1.04) (end 3.291 1.605) (layer F.SilkS) (width 0.12))
    (fp_line (start 3.291 -1.605) (end 3.291 -1.04) (layer F.SilkS) (width 0.12))
    (fp_line (start 3.251 1.04) (end 3.251 1.653) (layer F.SilkS) (width 0.12))
    (fp_line (start 3.251 -1.653) (end 3.251 -1.04) (layer F.SilkS) (width 0.12))
    (fp_line (start 3.211 1.04) (end 3.211 1.699) (layer F.SilkS) (width 0.12))
    (fp_line (start 3.211 -1.699) (end 3.211 -1.04) (layer F.SilkS) (width 0.12))
    (fp_line (start 3.171 1.04) (end 3.171 1.743) (layer F.SilkS) (width 0.12))
    (fp_line (start 3.171 -1.743) (end 3.171 -1.04) (layer F.SilkS) (width 0.12))
    (fp_line (start 3.131 1.04) (end 3.131 1.785) (layer F.SilkS) (width 0.12))
    (fp_line (start 3.131 -1.785) (end 3.131 -1.04) (layer F.SilkS) (width 0.12))
    (fp_line (start 3.091 1.04) (end 3.091 1.826) (layer F.SilkS) (width 0.12))
    (fp_line (start 3.091 -1.826) (end 3.091 -1.04) (layer F.SilkS) (width 0.12))
    (fp_line (start 3.051 1.04) (end 3.051 1.864) (layer F.SilkS) (width 0.12))
    (fp_line (start 3.051 -1.864) (end 3.051 -1.04) (layer F.SilkS) (width 0.12))
    (fp_line (start 3.011 1.04) (end 3.011 1.901) (layer F.SilkS) (width 0.12))
    (fp_line (start 3.011 -1.901) (end 3.011 -1.04) (layer F.SilkS) (width 0.12))
    (fp_line (start 2.971 1.04) (end 2.971 1.937) (layer F.SilkS) (width 0.12))
    (fp_line (start 2.971 -1.937) (end 2.971 -1.04) (layer F.SilkS) (width 0.12))
    (fp_line (start 2.931 1.04) (end 2.931 1.971) (layer F.SilkS) (width 0.12))
    (fp_line (start 2.931 -1.971) (end 2.931 -1.04) (layer F.SilkS) (width 0.12))
    (fp_line (start 2.891 1.04) (end 2.891 2.004) (layer F.SilkS) (width 0.12))
    (fp_line (start 2.891 -2.004) (end 2.891 -1.04) (layer F.SilkS) (width 0.12))
    (fp_line (start 2.851 1.04) (end 2.851 2.035) (layer F.SilkS) (width 0.12))
    (fp_line (start 2.851 -2.035) (end 2.851 -1.04) (layer F.SilkS) (width 0.12))
    (fp_line (start 2.811 1.04) (end 2.811 2.065) (layer F.SilkS) (width 0.12))
    (fp_line (start 2.811 -2.065) (end 2.811 -1.04) (layer F.SilkS) (width 0.12))
    (fp_line (start 2.771 1.04) (end 2.771 2.095) (layer F.SilkS) (width 0.12))
    (fp_line (start 2.771 -2.095) (end 2.771 -1.04) (layer F.SilkS) (width 0.12))
    (fp_line (start 2.731 1.04) (end 2.731 2.122) (layer F.SilkS) (width 0.12))
    (fp_line (start 2.731 -2.122) (end 2.731 -1.04) (layer F.SilkS) (width 0.12))
    (fp_line (start 2.691 1.04) (end 2.691 2.149) (layer F.SilkS) (width 0.12))
    (fp_line (start 2.691 -2.149) (end 2.691 -1.04) (layer F.SilkS) (width 0.12))
    (fp_line (start 2.651 1.04) (end 2.651 2.175) (layer F.SilkS) (width 0.12))
    (fp_line (start 2.651 -2.175) (end 2.651 -1.04) (layer F.SilkS) (width 0.12))
    (fp_line (start 2.611 1.04) (end 2.611 2.2) (layer F.SilkS) (width 0.12))
    (fp_line (start 2.611 -2.2) (end 2.611 -1.04) (layer F.SilkS) (width 0.12))
    (fp_line (start 2.571 1.04) (end 2.571 2.224) (layer F.SilkS) (width 0.12))
    (fp_line (start 2.571 -2.224) (end 2.571 -1.04) (layer F.SilkS) (width 0.12))
    (fp_line (start 2.531 1.04) (end 2.531 2.247) (layer F.SilkS) (width 0.12))
    (fp_line (start 2.531 -2.247) (end 2.531 -1.04) (layer F.SilkS) (width 0.12))
    (fp_line (start 2.491 1.04) (end 2.491 2.268) (layer F.SilkS) (width 0.12))
    (fp_line (start 2.491 -2.268) (end 2.491 -1.04) (layer F.SilkS) (width 0.12))
    (fp_line (start 2.451 1.04) (end 2.451 2.29) (layer F.SilkS) (width 0.12))
    (fp_line (start 2.451 -2.29) (end 2.451 -1.04) (layer F.SilkS) (width 0.12))
    (fp_line (start 2.411 1.04) (end 2.411 2.31) (layer F.SilkS) (width 0.12))
    (fp_line (start 2.411 -2.31) (end 2.411 -1.04) (layer F.SilkS) (width 0.12))
    (fp_line (start 2.371 1.04) (end 2.371 2.329) (layer F.SilkS) (width 0.12))
    (fp_line (start 2.371 -2.329) (end 2.371 -1.04) (layer F.SilkS) (width 0.12))
    (fp_line (start 2.331 1.04) (end 2.331 2.348) (layer F.SilkS) (width 0.12))
    (fp_line (start 2.331 -2.348) (end 2.331 -1.04) (layer F.SilkS) (width 0.12))
    (fp_line (start 2.291 1.04) (end 2.291 2.365) (layer F.SilkS) (width 0.12))
    (fp_line (start 2.291 -2.365) (end 2.291 -1.04) (layer F.SilkS) (width 0.12))
    (fp_line (start 2.251 1.04) (end 2.251 2.382) (layer F.SilkS) (width 0.12))
    (fp_line (start 2.251 -2.382) (end 2.251 -1.04) (layer F.SilkS) (width 0.12))
    (fp_line (start 2.211 1.04) (end 2.211 2.398) (layer F.SilkS) (width 0.12))
    (fp_line (start 2.211 -2.398) (end 2.211 -1.04) (layer F.SilkS) (width 0.12))
    (fp_line (start 2.171 1.04) (end 2.171 2.414) (layer F.SilkS) (width 0.12))
    (fp_line (start 2.171 -2.414) (end 2.171 -1.04) (layer F.SilkS) (width 0.12))
    (fp_line (start 2.131 1.04) (end 2.131 2.428) (layer F.SilkS) (width 0.12))
    (fp_line (start 2.131 -2.428) (end 2.131 -1.04) (layer F.SilkS) (width 0.12))
    (fp_line (start 2.091 1.04) (end 2.091 2.442) (layer F.SilkS) (width 0.12))
    (fp_line (start 2.091 -2.442) (end 2.091 -1.04) (layer F.SilkS) (width 0.12))
    (fp_line (start 2.051 1.04) (end 2.051 2.455) (layer F.SilkS) (width 0.12))
    (fp_line (start 2.051 -2.455) (end 2.051 -1.04) (layer F.SilkS) (width 0.12))
    (fp_line (start 2.011 1.04) (end 2.011 2.468) (layer F.SilkS) (width 0.12))
    (fp_line (start 2.011 -2.468) (end 2.011 -1.04) (layer F.SilkS) (width 0.12))
    (fp_line (start 1.971 1.04) (end 1.971 2.48) (layer F.SilkS) (width 0.12))
    (fp_line (start 1.971 -2.48) (end 1.971 -1.04) (layer F.SilkS) (width 0.12))
    (fp_line (start 1.93 1.04) (end 1.93 2.491) (layer F.SilkS) (width 0.12))
    (fp_line (start 1.93 -2.491) (end 1.93 -1.04) (layer F.SilkS) (width 0.12))
    (fp_line (start 1.89 1.04) (end 1.89 2.501) (layer F.SilkS) (width 0.12))
    (fp_line (start 1.89 -2.501) (end 1.89 -1.04) (layer F.SilkS) (width 0.12))
    (fp_line (start 1.85 1.04) (end 1.85 2.511) (layer F.SilkS) (width 0.12))
    (fp_line (start 1.85 -2.511) (end 1.85 -1.04) (layer F.SilkS) (width 0.12))
    (fp_line (start 1.81 1.04) (end 1.81 2.52) (layer F.SilkS) (width 0.12))
    (fp_line (start 1.81 -2.52) (end 1.81 -1.04) (layer F.SilkS) (width 0.12))
    (fp_line (start 1.77 1.04) (end 1.77 2.528) (layer F.SilkS) (width 0.12))
    (fp_line (start 1.77 -2.528) (end 1.77 -1.04) (layer F.SilkS) (width 0.12))
    (fp_line (start 1.73 1.04) (end 1.73 2.536) (layer F.SilkS) (width 0.12))
    (fp_line (start 1.73 -2.536) (end 1.73 -1.04) (layer F.SilkS) (width 0.12))
    (fp_line (start 1.69 1.04) (end 1.69 2.543) (layer F.SilkS) (width 0.12))
    (fp_line (start 1.69 -2.543) (end 1.69 -1.04) (layer F.SilkS) (width 0.12))
    (fp_line (start 1.65 1.04) (end 1.65 2.55) (layer F.SilkS) (width 0.12))
    (fp_line (start 1.65 -2.55) (end 1.65 -1.04) (layer F.SilkS) (width 0.12))
    (fp_line (start 1.61 1.04) (end 1.61 2.556) (layer F.SilkS) (width 0.12))
    (fp_line (start 1.61 -2.556) (end 1.61 -1.04) (layer F.SilkS) (width 0.12))
    (fp_line (start 1.57 1.04) (end 1.57 2.561) (layer F.SilkS) (width 0.12))
    (fp_line (start 1.57 -2.561) (end 1.57 -1.04) (layer F.SilkS) (width 0.12))
    (fp_line (start 1.53 1.04) (end 1.53 2.565) (layer F.SilkS) (width 0.12))
    (fp_line (start 1.53 -2.565) (end 1.53 -1.04) (layer F.SilkS) (width 0.12))
    (fp_line (start 1.49 1.04) (end 1.49 2.569) (layer F.SilkS) (width 0.12))
    (fp_line (start 1.49 -2.569) (end 1.49 -1.04) (layer F.SilkS) (width 0.12))
    (fp_line (start 1.45 -2.573) (end 1.45 2.573) (layer F.SilkS) (width 0.12))
    (fp_line (start 1.41 -2.576) (end 1.41 2.576) (layer F.SilkS) (width 0.12))
    (fp_line (start 1.37 -2.578) (end 1.37 2.578) (layer F.SilkS) (width 0.12))
    (fp_line (start 1.33 -2.579) (end 1.33 2.579) (layer F.SilkS) (width 0.12))
    (fp_line (start 1.29 -2.58) (end 1.29 2.58) (layer F.SilkS) (width 0.12))
    (fp_line (start 1.25 -2.58) (end 1.25 2.58) (layer F.SilkS) (width 0.12))
    (fp_line (start -0.633605 -1.3375) (end -0.633605 -0.8375) (layer F.Fab) (width 0.1))
    (fp_line (start -0.883605 -1.0875) (end -0.383605 -1.0875) (layer F.Fab) (width 0.1))
    (fp_circle (center 1.25 0) (end 4 0) (layer F.CrtYd) (width 0.05))
    (fp_circle (center 1.25 0) (end 3.87 0) (layer F.SilkS) (width 0.12))
    (fp_circle (center 1.25 0) (end 3.75 0) (layer F.Fab) (width 0.1))
    (fp_text user %R (at 1.25 0) (layer F.Fab)
      (effects (font (size 1 1) (thickness 0.15)))
    )
    (pad 1 thru_hole rect (at 0 0) (size 1.6 1.6) (drill 0.8) (layers *.Cu *.Mask)
      (net 1 "Net-(BT1-Pad1)"))
    (pad 2 thru_hole circle (at 2.5 0) (size 1.6 1.6) (drill 0.8) (layers *.Cu *.Mask)
      (net 2 GND))
    (model ${KISYS3DMOD}/Capacitor_THT.3dshapes/CP_Radial_D5.0mm_P2.50mm.wrl
      (at (xyz 0 0 0))
      (scale (xyz 1 1 1))
      (rotate (xyz 0 0 0))
    )
  )

  (module Capacitor_THT:CP_Radial_D5.0mm_P2.50mm (layer F.Cu) (tedit 5AE50EF0) (tstamp 60BADECB)
    (at 198.12 134.62)
    (descr "CP, Radial series, Radial, pin pitch=2.50mm, , diameter=5mm, Electrolytic Capacitor")
    (tags "CP Radial series Radial pin pitch 2.50mm  diameter 5mm Electrolytic Capacitor")
    (path /60BA5A69)
    (fp_text reference C2 (at 1.25 -3.75) (layer F.SilkS)
      (effects (font (size 1 1) (thickness 0.15)))
    )
    (fp_text value 10uF (at 1.25 3.75) (layer F.Fab)
      (effects (font (size 1 1) (thickness 0.15)))
    )
    (fp_circle (center 1.25 0) (end 3.75 0) (layer F.Fab) (width 0.1))
    (fp_circle (center 1.25 0) (end 3.87 0) (layer F.SilkS) (width 0.12))
    (fp_circle (center 1.25 0) (end 4 0) (layer F.CrtYd) (width 0.05))
    (fp_line (start -0.883605 -1.0875) (end -0.383605 -1.0875) (layer F.Fab) (width 0.1))
    (fp_line (start -0.633605 -1.3375) (end -0.633605 -0.8375) (layer F.Fab) (width 0.1))
    (fp_line (start 1.25 -2.58) (end 1.25 2.58) (layer F.SilkS) (width 0.12))
    (fp_line (start 1.29 -2.58) (end 1.29 2.58) (layer F.SilkS) (width 0.12))
    (fp_line (start 1.33 -2.579) (end 1.33 2.579) (layer F.SilkS) (width 0.12))
    (fp_line (start 1.37 -2.578) (end 1.37 2.578) (layer F.SilkS) (width 0.12))
    (fp_line (start 1.41 -2.576) (end 1.41 2.576) (layer F.SilkS) (width 0.12))
    (fp_line (start 1.45 -2.573) (end 1.45 2.573) (layer F.SilkS) (width 0.12))
    (fp_line (start 1.49 -2.569) (end 1.49 -1.04) (layer F.SilkS) (width 0.12))
    (fp_line (start 1.49 1.04) (end 1.49 2.569) (layer F.SilkS) (width 0.12))
    (fp_line (start 1.53 -2.565) (end 1.53 -1.04) (layer F.SilkS) (width 0.12))
    (fp_line (start 1.53 1.04) (end 1.53 2.565) (layer F.SilkS) (width 0.12))
    (fp_line (start 1.57 -2.561) (end 1.57 -1.04) (layer F.SilkS) (width 0.12))
    (fp_line (start 1.57 1.04) (end 1.57 2.561) (layer F.SilkS) (width 0.12))
    (fp_line (start 1.61 -2.556) (end 1.61 -1.04) (layer F.SilkS) (width 0.12))
    (fp_line (start 1.61 1.04) (end 1.61 2.556) (layer F.SilkS) (width 0.12))
    (fp_line (start 1.65 -2.55) (end 1.65 -1.04) (layer F.SilkS) (width 0.12))
    (fp_line (start 1.65 1.04) (end 1.65 2.55) (layer F.SilkS) (width 0.12))
    (fp_line (start 1.69 -2.543) (end 1.69 -1.04) (layer F.SilkS) (width 0.12))
    (fp_line (start 1.69 1.04) (end 1.69 2.543) (layer F.SilkS) (width 0.12))
    (fp_line (start 1.73 -2.536) (end 1.73 -1.04) (layer F.SilkS) (width 0.12))
    (fp_line (start 1.73 1.04) (end 1.73 2.536) (layer F.SilkS) (width 0.12))
    (fp_line (start 1.77 -2.528) (end 1.77 -1.04) (layer F.SilkS) (width 0.12))
    (fp_line (start 1.77 1.04) (end 1.77 2.528) (layer F.SilkS) (width 0.12))
    (fp_line (start 1.81 -2.52) (end 1.81 -1.04) (layer F.SilkS) (width 0.12))
    (fp_line (start 1.81 1.04) (end 1.81 2.52) (layer F.SilkS) (width 0.12))
    (fp_line (start 1.85 -2.511) (end 1.85 -1.04) (layer F.SilkS) (width 0.12))
    (fp_line (start 1.85 1.04) (end 1.85 2.511) (layer F.SilkS) (width 0.12))
    (fp_line (start 1.89 -2.501) (end 1.89 -1.04) (layer F.SilkS) (width 0.12))
    (fp_line (start 1.89 1.04) (end 1.89 2.501) (layer F.SilkS) (width 0.12))
    (fp_line (start 1.93 -2.491) (end 1.93 -1.04) (layer F.SilkS) (width 0.12))
    (fp_line (start 1.93 1.04) (end 1.93 2.491) (layer F.SilkS) (width 0.12))
    (fp_line (start 1.971 -2.48) (end 1.971 -1.04) (layer F.SilkS) (width 0.12))
    (fp_line (start 1.971 1.04) (end 1.971 2.48) (layer F.SilkS) (width 0.12))
    (fp_line (start 2.011 -2.468) (end 2.011 -1.04) (layer F.SilkS) (width 0.12))
    (fp_line (start 2.011 1.04) (end 2.011 2.468) (layer F.SilkS) (width 0.12))
    (fp_line (start 2.051 -2.455) (end 2.051 -1.04) (layer F.SilkS) (width 0.12))
    (fp_line (start 2.051 1.04) (end 2.051 2.455) (layer F.SilkS) (width 0.12))
    (fp_line (start 2.091 -2.442) (end 2.091 -1.04) (layer F.SilkS) (width 0.12))
    (fp_line (start 2.091 1.04) (end 2.091 2.442) (layer F.SilkS) (width 0.12))
    (fp_line (start 2.131 -2.428) (end 2.131 -1.04) (layer F.SilkS) (width 0.12))
    (fp_line (start 2.131 1.04) (end 2.131 2.428) (layer F.SilkS) (width 0.12))
    (fp_line (start 2.171 -2.414) (end 2.171 -1.04) (layer F.SilkS) (width 0.12))
    (fp_line (start 2.171 1.04) (end 2.171 2.414) (layer F.SilkS) (width 0.12))
    (fp_line (start 2.211 -2.398) (end 2.211 -1.04) (layer F.SilkS) (width 0.12))
    (fp_line (start 2.211 1.04) (end 2.211 2.398) (layer F.SilkS) (width 0.12))
    (fp_line (start 2.251 -2.382) (end 2.251 -1.04) (layer F.SilkS) (width 0.12))
    (fp_line (start 2.251 1.04) (end 2.251 2.382) (layer F.SilkS) (width 0.12))
    (fp_line (start 2.291 -2.365) (end 2.291 -1.04) (layer F.SilkS) (width 0.12))
    (fp_line (start 2.291 1.04) (end 2.291 2.365) (layer F.SilkS) (width 0.12))
    (fp_line (start 2.331 -2.348) (end 2.331 -1.04) (layer F.SilkS) (width 0.12))
    (fp_line (start 2.331 1.04) (end 2.331 2.348) (layer F.SilkS) (width 0.12))
    (fp_line (start 2.371 -2.329) (end 2.371 -1.04) (layer F.SilkS) (width 0.12))
    (fp_line (start 2.371 1.04) (end 2.371 2.329) (layer F.SilkS) (width 0.12))
    (fp_line (start 2.411 -2.31) (end 2.411 -1.04) (layer F.SilkS) (width 0.12))
    (fp_line (start 2.411 1.04) (end 2.411 2.31) (layer F.SilkS) (width 0.12))
    (fp_line (start 2.451 -2.29) (end 2.451 -1.04) (layer F.SilkS) (width 0.12))
    (fp_line (start 2.451 1.04) (end 2.451 2.29) (layer F.SilkS) (width 0.12))
    (fp_line (start 2.491 -2.268) (end 2.491 -1.04) (layer F.SilkS) (width 0.12))
    (fp_line (start 2.491 1.04) (end 2.491 2.268) (layer F.SilkS) (width 0.12))
    (fp_line (start 2.531 -2.247) (end 2.531 -1.04) (layer F.SilkS) (width 0.12))
    (fp_line (start 2.531 1.04) (end 2.531 2.247) (layer F.SilkS) (width 0.12))
    (fp_line (start 2.571 -2.224) (end 2.571 -1.04) (layer F.SilkS) (width 0.12))
    (fp_line (start 2.571 1.04) (end 2.571 2.224) (layer F.SilkS) (width 0.12))
    (fp_line (start 2.611 -2.2) (end 2.611 -1.04) (layer F.SilkS) (width 0.12))
    (fp_line (start 2.611 1.04) (end 2.611 2.2) (layer F.SilkS) (width 0.12))
    (fp_line (start 2.651 -2.175) (end 2.651 -1.04) (layer F.SilkS) (width 0.12))
    (fp_line (start 2.651 1.04) (end 2.651 2.175) (layer F.SilkS) (width 0.12))
    (fp_line (start 2.691 -2.149) (end 2.691 -1.04) (layer F.SilkS) (width 0.12))
    (fp_line (start 2.691 1.04) (end 2.691 2.149) (layer F.SilkS) (width 0.12))
    (fp_line (start 2.731 -2.122) (end 2.731 -1.04) (layer F.SilkS) (width 0.12))
    (fp_line (start 2.731 1.04) (end 2.731 2.122) (layer F.SilkS) (width 0.12))
    (fp_line (start 2.771 -2.095) (end 2.771 -1.04) (layer F.SilkS) (width 0.12))
    (fp_line (start 2.771 1.04) (end 2.771 2.095) (layer F.SilkS) (width 0.12))
    (fp_line (start 2.811 -2.065) (end 2.811 -1.04) (layer F.SilkS) (width 0.12))
    (fp_line (start 2.811 1.04) (end 2.811 2.065) (layer F.SilkS) (width 0.12))
    (fp_line (start 2.851 -2.035) (end 2.851 -1.04) (layer F.SilkS) (width 0.12))
    (fp_line (start 2.851 1.04) (end 2.851 2.035) (layer F.SilkS) (width 0.12))
    (fp_line (start 2.891 -2.004) (end 2.891 -1.04) (layer F.SilkS) (width 0.12))
    (fp_line (start 2.891 1.04) (end 2.891 2.004) (layer F.SilkS) (width 0.12))
    (fp_line (start 2.931 -1.971) (end 2.931 -1.04) (layer F.SilkS) (width 0.12))
    (fp_line (start 2.931 1.04) (end 2.931 1.971) (layer F.SilkS) (width 0.12))
    (fp_line (start 2.971 -1.937) (end 2.971 -1.04) (layer F.SilkS) (width 0.12))
    (fp_line (start 2.971 1.04) (end 2.971 1.937) (layer F.SilkS) (width 0.12))
    (fp_line (start 3.011 -1.901) (end 3.011 -1.04) (layer F.SilkS) (width 0.12))
    (fp_line (start 3.011 1.04) (end 3.011 1.901) (layer F.SilkS) (width 0.12))
    (fp_line (start 3.051 -1.864) (end 3.051 -1.04) (layer F.SilkS) (width 0.12))
    (fp_line (start 3.051 1.04) (end 3.051 1.864) (layer F.SilkS) (width 0.12))
    (fp_line (start 3.091 -1.826) (end 3.091 -1.04) (layer F.SilkS) (width 0.12))
    (fp_line (start 3.091 1.04) (end 3.091 1.826) (layer F.SilkS) (width 0.12))
    (fp_line (start 3.131 -1.785) (end 3.131 -1.04) (layer F.SilkS) (width 0.12))
    (fp_line (start 3.131 1.04) (end 3.131 1.785) (layer F.SilkS) (width 0.12))
    (fp_line (start 3.171 -1.743) (end 3.171 -1.04) (layer F.SilkS) (width 0.12))
    (fp_line (start 3.171 1.04) (end 3.171 1.743) (layer F.SilkS) (width 0.12))
    (fp_line (start 3.211 -1.699) (end 3.211 -1.04) (layer F.SilkS) (width 0.12))
    (fp_line (start 3.211 1.04) (end 3.211 1.699) (layer F.SilkS) (width 0.12))
    (fp_line (start 3.251 -1.653) (end 3.251 -1.04) (layer F.SilkS) (width 0.12))
    (fp_line (start 3.251 1.04) (end 3.251 1.653) (layer F.SilkS) (width 0.12))
    (fp_line (start 3.291 -1.605) (end 3.291 -1.04) (layer F.SilkS) (width 0.12))
    (fp_line (start 3.291 1.04) (end 3.291 1.605) (layer F.SilkS) (width 0.12))
    (fp_line (start 3.331 -1.554) (end 3.331 -1.04) (layer F.SilkS) (width 0.12))
    (fp_line (start 3.331 1.04) (end 3.331 1.554) (layer F.SilkS) (width 0.12))
    (fp_line (start 3.371 -1.5) (end 3.371 -1.04) (layer F.SilkS) (width 0.12))
    (fp_line (start 3.371 1.04) (end 3.371 1.5) (layer F.SilkS) (width 0.12))
    (fp_line (start 3.411 -1.443) (end 3.411 -1.04) (layer F.SilkS) (width 0.12))
    (fp_line (start 3.411 1.04) (end 3.411 1.443) (layer F.SilkS) (width 0.12))
    (fp_line (start 3.451 -1.383) (end 3.451 -1.04) (layer F.SilkS) (width 0.12))
    (fp_line (start 3.451 1.04) (end 3.451 1.383) (layer F.SilkS) (width 0.12))
    (fp_line (start 3.491 -1.319) (end 3.491 -1.04) (layer F.SilkS) (width 0.12))
    (fp_line (start 3.491 1.04) (end 3.491 1.319) (layer F.SilkS) (width 0.12))
    (fp_line (start 3.531 -1.251) (end 3.531 -1.04) (layer F.SilkS) (width 0.12))
    (fp_line (start 3.531 1.04) (end 3.531 1.251) (layer F.SilkS) (width 0.12))
    (fp_line (start 3.571 -1.178) (end 3.571 1.178) (layer F.SilkS) (width 0.12))
    (fp_line (start 3.611 -1.098) (end 3.611 1.098) (layer F.SilkS) (width 0.12))
    (fp_line (start 3.651 -1.011) (end 3.651 1.011) (layer F.SilkS) (width 0.12))
    (fp_line (start 3.691 -0.915) (end 3.691 0.915) (layer F.SilkS) (width 0.12))
    (fp_line (start 3.731 -0.805) (end 3.731 0.805) (layer F.SilkS) (width 0.12))
    (fp_line (start 3.771 -0.677) (end 3.771 0.677) (layer F.SilkS) (width 0.12))
    (fp_line (start 3.811 -0.518) (end 3.811 0.518) (layer F.SilkS) (width 0.12))
    (fp_line (start 3.851 -0.284) (end 3.851 0.284) (layer F.SilkS) (width 0.12))
    (fp_line (start -1.554775 -1.475) (end -1.054775 -1.475) (layer F.SilkS) (width 0.12))
    (fp_line (start -1.304775 -1.725) (end -1.304775 -1.225) (layer F.SilkS) (width 0.12))
    (fp_text user %R (at 1.25 0) (layer F.Fab)
      (effects (font (size 1 1) (thickness 0.15)))
    )
    (pad 2 thru_hole circle (at 2.5 0) (size 1.6 1.6) (drill 0.8) (layers *.Cu *.Mask)
      (net 2 GND))
    (pad 1 thru_hole rect (at 0 0) (size 1.6 1.6) (drill 0.8) (layers *.Cu *.Mask)
      (net 3 "Net-(C2-Pad1)"))
    (model ${KISYS3DMOD}/Capacitor_THT.3dshapes/CP_Radial_D5.0mm_P2.50mm.wrl
      (at (xyz 0 0 0))
      (scale (xyz 1 1 1))
      (rotate (xyz 0 0 0))
    )
  )

  (module Capacitor_THT:CP_Radial_D7.5mm_P2.50mm (layer F.Cu) (tedit 5AE50EF0) (tstamp 60BADF6E)
    (at 207.01 130.81 180)
    (descr "CP, Radial series, Radial, pin pitch=2.50mm, , diameter=7.5mm, Electrolytic Capacitor")
    (tags "CP Radial series Radial pin pitch 2.50mm  diameter 7.5mm Electrolytic Capacitor")
    (path /60BA5D07)
    (fp_text reference C3 (at 1.25 -5) (layer F.SilkS)
      (effects (font (size 1 1) (thickness 0.15)))
    )
    (fp_text value 150uF (at 1.25 5) (layer F.Fab)
      (effects (font (size 1 1) (thickness 0.15)))
    )
    (fp_line (start -2.517211 -2.55) (end -2.517211 -1.8) (layer F.SilkS) (width 0.12))
    (fp_line (start -2.892211 -2.175) (end -2.142211 -2.175) (layer F.SilkS) (width 0.12))
    (fp_line (start 5.091 -0.441) (end 5.091 0.441) (layer F.SilkS) (width 0.12))
    (fp_line (start 5.051 -0.693) (end 5.051 0.693) (layer F.SilkS) (width 0.12))
    (fp_line (start 5.011 -0.877) (end 5.011 0.877) (layer F.SilkS) (width 0.12))
    (fp_line (start 4.971 -1.028) (end 4.971 1.028) (layer F.SilkS) (width 0.12))
    (fp_line (start 4.931 -1.158) (end 4.931 1.158) (layer F.SilkS) (width 0.12))
    (fp_line (start 4.891 -1.275) (end 4.891 1.275) (layer F.SilkS) (width 0.12))
    (fp_line (start 4.851 -1.381) (end 4.851 1.381) (layer F.SilkS) (width 0.12))
    (fp_line (start 4.811 -1.478) (end 4.811 1.478) (layer F.SilkS) (width 0.12))
    (fp_line (start 4.771 -1.569) (end 4.771 1.569) (layer F.SilkS) (width 0.12))
    (fp_line (start 4.731 -1.654) (end 4.731 1.654) (layer F.SilkS) (width 0.12))
    (fp_line (start 4.691 -1.733) (end 4.691 1.733) (layer F.SilkS) (width 0.12))
    (fp_line (start 4.651 -1.809) (end 4.651 1.809) (layer F.SilkS) (width 0.12))
    (fp_line (start 4.611 -1.881) (end 4.611 1.881) (layer F.SilkS) (width 0.12))
    (fp_line (start 4.571 -1.949) (end 4.571 1.949) (layer F.SilkS) (width 0.12))
    (fp_line (start 4.531 -2.014) (end 4.531 2.014) (layer F.SilkS) (width 0.12))
    (fp_line (start 4.491 -2.077) (end 4.491 2.077) (layer F.SilkS) (width 0.12))
    (fp_line (start 4.451 -2.137) (end 4.451 2.137) (layer F.SilkS) (width 0.12))
    (fp_line (start 4.411 -2.195) (end 4.411 2.195) (layer F.SilkS) (width 0.12))
    (fp_line (start 4.371 -2.25) (end 4.371 2.25) (layer F.SilkS) (width 0.12))
    (fp_line (start 4.331 -2.304) (end 4.331 2.304) (layer F.SilkS) (width 0.12))
    (fp_line (start 4.291 -2.355) (end 4.291 2.355) (layer F.SilkS) (width 0.12))
    (fp_line (start 4.251 -2.405) (end 4.251 2.405) (layer F.SilkS) (width 0.12))
    (fp_line (start 4.211 -2.454) (end 4.211 2.454) (layer F.SilkS) (width 0.12))
    (fp_line (start 4.171 -2.5) (end 4.171 2.5) (layer F.SilkS) (width 0.12))
    (fp_line (start 4.131 -2.546) (end 4.131 2.546) (layer F.SilkS) (width 0.12))
    (fp_line (start 4.091 -2.589) (end 4.091 2.589) (layer F.SilkS) (width 0.12))
    (fp_line (start 4.051 -2.632) (end 4.051 2.632) (layer F.SilkS) (width 0.12))
    (fp_line (start 4.011 -2.673) (end 4.011 2.673) (layer F.SilkS) (width 0.12))
    (fp_line (start 3.971 -2.713) (end 3.971 2.713) (layer F.SilkS) (width 0.12))
    (fp_line (start 3.931 -2.752) (end 3.931 2.752) (layer F.SilkS) (width 0.12))
    (fp_line (start 3.891 -2.79) (end 3.891 2.79) (layer F.SilkS) (width 0.12))
    (fp_line (start 3.851 -2.827) (end 3.851 2.827) (layer F.SilkS) (width 0.12))
    (fp_line (start 3.811 -2.863) (end 3.811 2.863) (layer F.SilkS) (width 0.12))
    (fp_line (start 3.771 -2.898) (end 3.771 2.898) (layer F.SilkS) (width 0.12))
    (fp_line (start 3.731 -2.931) (end 3.731 2.931) (layer F.SilkS) (width 0.12))
    (fp_line (start 3.691 -2.964) (end 3.691 2.964) (layer F.SilkS) (width 0.12))
    (fp_line (start 3.651 -2.996) (end 3.651 2.996) (layer F.SilkS) (width 0.12))
    (fp_line (start 3.611 -3.028) (end 3.611 3.028) (layer F.SilkS) (width 0.12))
    (fp_line (start 3.571 -3.058) (end 3.571 3.058) (layer F.SilkS) (width 0.12))
    (fp_line (start 3.531 1.04) (end 3.531 3.088) (layer F.SilkS) (width 0.12))
    (fp_line (start 3.531 -3.088) (end 3.531 -1.04) (layer F.SilkS) (width 0.12))
    (fp_line (start 3.491 1.04) (end 3.491 3.116) (layer F.SilkS) (width 0.12))
    (fp_line (start 3.491 -3.116) (end 3.491 -1.04) (layer F.SilkS) (width 0.12))
    (fp_line (start 3.451 1.04) (end 3.451 3.144) (layer F.SilkS) (width 0.12))
    (fp_line (start 3.451 -3.144) (end 3.451 -1.04) (layer F.SilkS) (width 0.12))
    (fp_line (start 3.411 1.04) (end 3.411 3.172) (layer F.SilkS) (width 0.12))
    (fp_line (start 3.411 -3.172) (end 3.411 -1.04) (layer F.SilkS) (width 0.12))
    (fp_line (start 3.371 1.04) (end 3.371 3.198) (layer F.SilkS) (width 0.12))
    (fp_line (start 3.371 -3.198) (end 3.371 -1.04) (layer F.SilkS) (width 0.12))
    (fp_line (start 3.331 1.04) (end 3.331 3.224) (layer F.SilkS) (width 0.12))
    (fp_line (start 3.331 -3.224) (end 3.331 -1.04) (layer F.SilkS) (width 0.12))
    (fp_line (start 3.291 1.04) (end 3.291 3.249) (layer F.SilkS) (width 0.12))
    (fp_line (start 3.291 -3.249) (end 3.291 -1.04) (layer F.SilkS) (width 0.12))
    (fp_line (start 3.251 1.04) (end 3.251 3.274) (layer F.SilkS) (width 0.12))
    (fp_line (start 3.251 -3.274) (end 3.251 -1.04) (layer F.SilkS) (width 0.12))
    (fp_line (start 3.211 1.04) (end 3.211 3.297) (layer F.SilkS) (width 0.12))
    (fp_line (start 3.211 -3.297) (end 3.211 -1.04) (layer F.SilkS) (width 0.12))
    (fp_line (start 3.171 1.04) (end 3.171 3.321) (layer F.SilkS) (width 0.12))
    (fp_line (start 3.171 -3.321) (end 3.171 -1.04) (layer F.SilkS) (width 0.12))
    (fp_line (start 3.131 1.04) (end 3.131 3.343) (layer F.SilkS) (width 0.12))
    (fp_line (start 3.131 -3.343) (end 3.131 -1.04) (layer F.SilkS) (width 0.12))
    (fp_line (start 3.091 1.04) (end 3.091 3.365) (layer F.SilkS) (width 0.12))
    (fp_line (start 3.091 -3.365) (end 3.091 -1.04) (layer F.SilkS) (width 0.12))
    (fp_line (start 3.051 1.04) (end 3.051 3.386) (layer F.SilkS) (width 0.12))
    (fp_line (start 3.051 -3.386) (end 3.051 -1.04) (layer F.SilkS) (width 0.12))
    (fp_line (start 3.011 1.04) (end 3.011 3.407) (layer F.SilkS) (width 0.12))
    (fp_line (start 3.011 -3.407) (end 3.011 -1.04) (layer F.SilkS) (width 0.12))
    (fp_line (start 2.971 1.04) (end 2.971 3.427) (layer F.SilkS) (width 0.12))
    (fp_line (start 2.971 -3.427) (end 2.971 -1.04) (layer F.SilkS) (width 0.12))
    (fp_line (start 2.931 1.04) (end 2.931 3.447) (layer F.SilkS) (width 0.12))
    (fp_line (start 2.931 -3.447) (end 2.931 -1.04) (layer F.SilkS) (width 0.12))
    (fp_line (start 2.891 1.04) (end 2.891 3.466) (layer F.SilkS) (width 0.12))
    (fp_line (start 2.891 -3.466) (end 2.891 -1.04) (layer F.SilkS) (width 0.12))
    (fp_line (start 2.851 1.04) (end 2.851 3.484) (layer F.SilkS) (width 0.12))
    (fp_line (start 2.851 -3.484) (end 2.851 -1.04) (layer F.SilkS) (width 0.12))
    (fp_line (start 2.811 1.04) (end 2.811 3.502) (layer F.SilkS) (width 0.12))
    (fp_line (start 2.811 -3.502) (end 2.811 -1.04) (layer F.SilkS) (width 0.12))
    (fp_line (start 2.771 1.04) (end 2.771 3.52) (layer F.SilkS) (width 0.12))
    (fp_line (start 2.771 -3.52) (end 2.771 -1.04) (layer F.SilkS) (width 0.12))
    (fp_line (start 2.731 1.04) (end 2.731 3.536) (layer F.SilkS) (width 0.12))
    (fp_line (start 2.731 -3.536) (end 2.731 -1.04) (layer F.SilkS) (width 0.12))
    (fp_line (start 2.691 1.04) (end 2.691 3.553) (layer F.SilkS) (width 0.12))
    (fp_line (start 2.691 -3.553) (end 2.691 -1.04) (layer F.SilkS) (width 0.12))
    (fp_line (start 2.651 1.04) (end 2.651 3.568) (layer F.SilkS) (width 0.12))
    (fp_line (start 2.651 -3.568) (end 2.651 -1.04) (layer F.SilkS) (width 0.12))
    (fp_line (start 2.611 1.04) (end 2.611 3.584) (layer F.SilkS) (width 0.12))
    (fp_line (start 2.611 -3.584) (end 2.611 -1.04) (layer F.SilkS) (width 0.12))
    (fp_line (start 2.571 1.04) (end 2.571 3.598) (layer F.SilkS) (width 0.12))
    (fp_line (start 2.571 -3.598) (end 2.571 -1.04) (layer F.SilkS) (width 0.12))
    (fp_line (start 2.531 1.04) (end 2.531 3.613) (layer F.SilkS) (width 0.12))
    (fp_line (start 2.531 -3.613) (end 2.531 -1.04) (layer F.SilkS) (width 0.12))
    (fp_line (start 2.491 1.04) (end 2.491 3.626) (layer F.SilkS) (width 0.12))
    (fp_line (start 2.491 -3.626) (end 2.491 -1.04) (layer F.SilkS) (width 0.12))
    (fp_line (start 2.451 1.04) (end 2.451 3.64) (layer F.SilkS) (width 0.12))
    (fp_line (start 2.451 -3.64) (end 2.451 -1.04) (layer F.SilkS) (width 0.12))
    (fp_line (start 2.411 1.04) (end 2.411 3.653) (layer F.SilkS) (width 0.12))
    (fp_line (start 2.411 -3.653) (end 2.411 -1.04) (layer F.SilkS) (width 0.12))
    (fp_line (start 2.371 1.04) (end 2.371 3.665) (layer F.SilkS) (width 0.12))
    (fp_line (start 2.371 -3.665) (end 2.371 -1.04) (layer F.SilkS) (width 0.12))
    (fp_line (start 2.331 1.04) (end 2.331 3.677) (layer F.SilkS) (width 0.12))
    (fp_line (start 2.331 -3.677) (end 2.331 -1.04) (layer F.SilkS) (width 0.12))
    (fp_line (start 2.291 1.04) (end 2.291 3.688) (layer F.SilkS) (width 0.12))
    (fp_line (start 2.291 -3.688) (end 2.291 -1.04) (layer F.SilkS) (width 0.12))
    (fp_line (start 2.251 1.04) (end 2.251 3.699) (layer F.SilkS) (width 0.12))
    (fp_line (start 2.251 -3.699) (end 2.251 -1.04) (layer F.SilkS) (width 0.12))
    (fp_line (start 2.211 1.04) (end 2.211 3.71) (layer F.SilkS) (width 0.12))
    (fp_line (start 2.211 -3.71) (end 2.211 -1.04) (layer F.SilkS) (width 0.12))
    (fp_line (start 2.171 1.04) (end 2.171 3.72) (layer F.SilkS) (width 0.12))
    (fp_line (start 2.171 -3.72) (end 2.171 -1.04) (layer F.SilkS) (width 0.12))
    (fp_line (start 2.131 1.04) (end 2.131 3.729) (layer F.SilkS) (width 0.12))
    (fp_line (start 2.131 -3.729) (end 2.131 -1.04) (layer F.SilkS) (width 0.12))
    (fp_line (start 2.091 1.04) (end 2.091 3.738) (layer F.SilkS) (width 0.12))
    (fp_line (start 2.091 -3.738) (end 2.091 -1.04) (layer F.SilkS) (width 0.12))
    (fp_line (start 2.051 1.04) (end 2.051 3.747) (layer F.SilkS) (width 0.12))
    (fp_line (start 2.051 -3.747) (end 2.051 -1.04) (layer F.SilkS) (width 0.12))
    (fp_line (start 2.011 1.04) (end 2.011 3.755) (layer F.SilkS) (width 0.12))
    (fp_line (start 2.011 -3.755) (end 2.011 -1.04) (layer F.SilkS) (width 0.12))
    (fp_line (start 1.971 1.04) (end 1.971 3.763) (layer F.SilkS) (width 0.12))
    (fp_line (start 1.971 -3.763) (end 1.971 -1.04) (layer F.SilkS) (width 0.12))
    (fp_line (start 1.93 1.04) (end 1.93 3.77) (layer F.SilkS) (width 0.12))
    (fp_line (start 1.93 -3.77) (end 1.93 -1.04) (layer F.SilkS) (width 0.12))
    (fp_line (start 1.89 1.04) (end 1.89 3.777) (layer F.SilkS) (width 0.12))
    (fp_line (start 1.89 -3.777) (end 1.89 -1.04) (layer F.SilkS) (width 0.12))
    (fp_line (start 1.85 1.04) (end 1.85 3.784) (layer F.SilkS) (width 0.12))
    (fp_line (start 1.85 -3.784) (end 1.85 -1.04) (layer F.SilkS) (width 0.12))
    (fp_line (start 1.81 1.04) (end 1.81 3.79) (layer F.SilkS) (width 0.12))
    (fp_line (start 1.81 -3.79) (end 1.81 -1.04) (layer F.SilkS) (width 0.12))
    (fp_line (start 1.77 1.04) (end 1.77 3.795) (layer F.SilkS) (width 0.12))
    (fp_line (start 1.77 -3.795) (end 1.77 -1.04) (layer F.SilkS) (width 0.12))
    (fp_line (start 1.73 1.04) (end 1.73 3.801) (layer F.SilkS) (width 0.12))
    (fp_line (start 1.73 -3.801) (end 1.73 -1.04) (layer F.SilkS) (width 0.12))
    (fp_line (start 1.69 1.04) (end 1.69 3.805) (layer F.SilkS) (width 0.12))
    (fp_line (start 1.69 -3.805) (end 1.69 -1.04) (layer F.SilkS) (width 0.12))
    (fp_line (start 1.65 1.04) (end 1.65 3.81) (layer F.SilkS) (width 0.12))
    (fp_line (start 1.65 -3.81) (end 1.65 -1.04) (layer F.SilkS) (width 0.12))
    (fp_line (start 1.61 1.04) (end 1.61 3.814) (layer F.SilkS) (width 0.12))
    (fp_line (start 1.61 -3.814) (end 1.61 -1.04) (layer F.SilkS) (width 0.12))
    (fp_line (start 1.57 1.04) (end 1.57 3.817) (layer F.SilkS) (width 0.12))
    (fp_line (start 1.57 -3.817) (end 1.57 -1.04) (layer F.SilkS) (width 0.12))
    (fp_line (start 1.53 1.04) (end 1.53 3.82) (layer F.SilkS) (width 0.12))
    (fp_line (start 1.53 -3.82) (end 1.53 -1.04) (layer F.SilkS) (width 0.12))
    (fp_line (start 1.49 1.04) (end 1.49 3.823) (layer F.SilkS) (width 0.12))
    (fp_line (start 1.49 -3.823) (end 1.49 -1.04) (layer F.SilkS) (width 0.12))
    (fp_line (start 1.45 -3.825) (end 1.45 3.825) (layer F.SilkS) (width 0.12))
    (fp_line (start 1.41 -3.827) (end 1.41 3.827) (layer F.SilkS) (width 0.12))
    (fp_line (start 1.37 -3.829) (end 1.37 3.829) (layer F.SilkS) (width 0.12))
    (fp_line (start 1.33 -3.83) (end 1.33 3.83) (layer F.SilkS) (width 0.12))
    (fp_line (start 1.29 -3.83) (end 1.29 3.83) (layer F.SilkS) (width 0.12))
    (fp_line (start 1.25 -3.83) (end 1.25 3.83) (layer F.SilkS) (width 0.12))
    (fp_line (start -1.586233 -2.0125) (end -1.586233 -1.2625) (layer F.Fab) (width 0.1))
    (fp_line (start -1.961233 -1.6375) (end -1.211233 -1.6375) (layer F.Fab) (width 0.1))
    (fp_circle (center 1.25 0) (end 5.25 0) (layer F.CrtYd) (width 0.05))
    (fp_circle (center 1.25 0) (end 5.12 0) (layer F.SilkS) (width 0.12))
    (fp_circle (center 1.25 0) (end 5 0) (layer F.Fab) (width 0.1))
    (fp_text user %R (at 1.25 0) (layer F.Fab)
      (effects (font (size 1 1) (thickness 0.15)))
    )
    (pad 1 thru_hole rect (at 0 0 180) (size 1.6 1.6) (drill 0.8) (layers *.Cu *.Mask)
      (net 4 "Net-(C3-Pad1)"))
    (pad 2 thru_hole circle (at 2.5 0 180) (size 1.6 1.6) (drill 0.8) (layers *.Cu *.Mask)
      (net 2 GND))
    (model ${KISYS3DMOD}/Capacitor_THT.3dshapes/CP_Radial_D7.5mm_P2.50mm.wrl
      (at (xyz 0 0 0))
      (scale (xyz 1 1 1))
      (rotate (xyz 0 0 0))
    )
  )

  (module Diode_THT:D_5W_P10.16mm_Horizontal (layer F.Cu) (tedit 5AE50CD5) (tstamp 60BADF8D)
    (at 195.58 129.54 180)
    (descr "Diode, 5W series, Axial, Horizontal, pin pitch=10.16mm, , length*diameter=8.9*3.7mm^2, , http://www.diodes.com/_files/packages/8686949.gif")
    (tags "Diode 5W series Axial Horizontal pin pitch 10.16mm  length 8.9mm diameter 3.7mm")
    (path /60BAA080)
    (fp_text reference D1 (at 5.08 -2.97) (layer F.SilkS)
      (effects (font (size 1 1) (thickness 0.15)))
    )
    (fp_text value 1N4148 (at 5.08 2.97) (layer F.Fab)
      (effects (font (size 1 1) (thickness 0.15)))
    )
    (fp_line (start 11.81 -2.1) (end -1.65 -2.1) (layer F.CrtYd) (width 0.05))
    (fp_line (start 11.81 2.1) (end 11.81 -2.1) (layer F.CrtYd) (width 0.05))
    (fp_line (start -1.65 2.1) (end 11.81 2.1) (layer F.CrtYd) (width 0.05))
    (fp_line (start -1.65 -2.1) (end -1.65 2.1) (layer F.CrtYd) (width 0.05))
    (fp_line (start 1.845 -1.97) (end 1.845 1.97) (layer F.SilkS) (width 0.12))
    (fp_line (start 2.085 -1.97) (end 2.085 1.97) (layer F.SilkS) (width 0.12))
    (fp_line (start 1.965 -1.97) (end 1.965 1.97) (layer F.SilkS) (width 0.12))
    (fp_line (start 9.65 1.97) (end 9.65 1.64) (layer F.SilkS) (width 0.12))
    (fp_line (start 0.51 1.97) (end 9.65 1.97) (layer F.SilkS) (width 0.12))
    (fp_line (start 0.51 1.64) (end 0.51 1.97) (layer F.SilkS) (width 0.12))
    (fp_line (start 9.65 -1.97) (end 9.65 -1.64) (layer F.SilkS) (width 0.12))
    (fp_line (start 0.51 -1.97) (end 9.65 -1.97) (layer F.SilkS) (width 0.12))
    (fp_line (start 0.51 -1.64) (end 0.51 -1.97) (layer F.SilkS) (width 0.12))
    (fp_line (start 1.865 -1.85) (end 1.865 1.85) (layer F.Fab) (width 0.1))
    (fp_line (start 2.065 -1.85) (end 2.065 1.85) (layer F.Fab) (width 0.1))
    (fp_line (start 1.965 -1.85) (end 1.965 1.85) (layer F.Fab) (width 0.1))
    (fp_line (start 10.16 0) (end 9.53 0) (layer F.Fab) (width 0.1))
    (fp_line (start 0 0) (end 0.63 0) (layer F.Fab) (width 0.1))
    (fp_line (start 9.53 -1.85) (end 0.63 -1.85) (layer F.Fab) (width 0.1))
    (fp_line (start 9.53 1.85) (end 9.53 -1.85) (layer F.Fab) (width 0.1))
    (fp_line (start 0.63 1.85) (end 9.53 1.85) (layer F.Fab) (width 0.1))
    (fp_line (start 0.63 -1.85) (end 0.63 1.85) (layer F.Fab) (width 0.1))
    (fp_text user %R (at 5.7475 0 180) (layer F.Fab)
      (effects (font (size 1 1) (thickness 0.15)))
    )
    (fp_text user K (at 0 -2.4) (layer F.Fab)
      (effects (font (size 1 1) (thickness 0.15)))
    )
    (fp_text user K (at 0 -2.4) (layer F.SilkS)
      (effects (font (size 1 1) (thickness 0.15)))
    )
    (pad 1 thru_hole rect (at 0 0 180) (size 2.8 2.8) (drill 1.4) (layers *.Cu *.Mask)
      (net 4 "Net-(C3-Pad1)"))
    (pad 2 thru_hole oval (at 10.16 0 180) (size 2.8 2.8) (drill 1.4) (layers *.Cu *.Mask)
      (net 1 "Net-(BT1-Pad1)"))
    (model ${KISYS3DMOD}/Diode_THT.3dshapes/D_5W_P10.16mm_Horizontal.wrl
      (at (xyz 0 0 0))
      (scale (xyz 1 1 1))
      (rotate (xyz 0 0 0))
    )
  )

  (module Resistor_THT:R_Axial_DIN0204_L3.6mm_D1.6mm_P2.54mm_Vertical (layer F.Cu) (tedit 5AE5139B) (tstamp 60BADF9C)
    (at 196.85 140.97)
    (descr "Resistor, Axial_DIN0204 series, Axial, Vertical, pin pitch=2.54mm, 0.167W, length*diameter=3.6*1.6mm^2, http://cdn-reichelt.de/documents/datenblatt/B400/1_4W%23YAG.pdf")
    (tags "Resistor Axial_DIN0204 series Axial Vertical pin pitch 2.54mm 0.167W length 3.6mm diameter 1.6mm")
    (path /60BA8D15)
    (fp_text reference R1 (at 1.27 -1.92) (layer F.SilkS)
      (effects (font (size 1 1) (thickness 0.15)))
    )
    (fp_text value 633Ω (at 1.27 1.92) (layer F.Fab)
      (effects (font (size 1 1) (thickness 0.15)))
    )
    (fp_circle (center 0 0) (end 0.8 0) (layer F.Fab) (width 0.1))
    (fp_circle (center 0 0) (end 0.92 0) (layer F.SilkS) (width 0.12))
    (fp_line (start 0 0) (end 2.54 0) (layer F.Fab) (width 0.1))
    (fp_line (start 0.92 0) (end 1.54 0) (layer F.SilkS) (width 0.12))
    (fp_line (start -1.05 -1.05) (end -1.05 1.05) (layer F.CrtYd) (width 0.05))
    (fp_line (start -1.05 1.05) (end 3.49 1.05) (layer F.CrtYd) (width 0.05))
    (fp_line (start 3.49 1.05) (end 3.49 -1.05) (layer F.CrtYd) (width 0.05))
    (fp_line (start 3.49 -1.05) (end -1.05 -1.05) (layer F.CrtYd) (width 0.05))
    (fp_text user %R (at 1.27 -1.92) (layer F.Fab)
      (effects (font (size 1 1) (thickness 0.15)))
    )
    (pad 2 thru_hole oval (at 2.54 0) (size 1.4 1.4) (drill 0.7) (layers *.Cu *.Mask)
      (net 3 "Net-(C2-Pad1)"))
    (pad 1 thru_hole circle (at 0 0) (size 1.4 1.4) (drill 0.7) (layers *.Cu *.Mask)
      (net 4 "Net-(C3-Pad1)"))
    (model ${KISYS3DMOD}/Resistor_THT.3dshapes/R_Axial_DIN0204_L3.6mm_D1.6mm_P2.54mm_Vertical.wrl
      (at (xyz 0 0 0))
      (scale (xyz 1 1 1))
      (rotate (xyz 0 0 0))
    )
  )

  (module Resistor_THT:R_Axial_DIN0204_L3.6mm_D1.6mm_P2.54mm_Vertical (layer F.Cu) (tedit 5AE5139B) (tstamp 60BADFAB)
    (at 190.5 140.97 180)
    (descr "Resistor, Axial_DIN0204 series, Axial, Vertical, pin pitch=2.54mm, 0.167W, length*diameter=3.6*1.6mm^2, http://cdn-reichelt.de/documents/datenblatt/B400/1_4W%23YAG.pdf")
    (tags "Resistor Axial_DIN0204 series Axial Vertical pin pitch 2.54mm 0.167W length 3.6mm diameter 1.6mm")
    (path /60BAA700)
    (fp_text reference R2 (at 1.27 -1.92) (layer F.SilkS)
      (effects (font (size 1 1) (thickness 0.15)))
    )
    (fp_text value 1kΩ (at 1.27 1.92) (layer F.Fab)
      (effects (font (size 1 1) (thickness 0.15)))
    )
    (fp_line (start 3.49 -1.05) (end -1.05 -1.05) (layer F.CrtYd) (width 0.05))
    (fp_line (start 3.49 1.05) (end 3.49 -1.05) (layer F.CrtYd) (width 0.05))
    (fp_line (start -1.05 1.05) (end 3.49 1.05) (layer F.CrtYd) (width 0.05))
    (fp_line (start -1.05 -1.05) (end -1.05 1.05) (layer F.CrtYd) (width 0.05))
    (fp_line (start 0.92 0) (end 1.54 0) (layer F.SilkS) (width 0.12))
    (fp_line (start 0 0) (end 2.54 0) (layer F.Fab) (width 0.1))
    (fp_circle (center 0 0) (end 0.92 0) (layer F.SilkS) (width 0.12))
    (fp_circle (center 0 0) (end 0.8 0) (layer F.Fab) (width 0.1))
    (fp_text user %R (at 1.27 -1.92) (layer F.Fab)
      (effects (font (size 1 1) (thickness 0.15)))
    )
    (pad 1 thru_hole circle (at 0 0 180) (size 1.4 1.4) (drill 0.7) (layers *.Cu *.Mask)
      (net 3 "Net-(C2-Pad1)"))
    (pad 2 thru_hole oval (at 2.54 0 180) (size 1.4 1.4) (drill 0.7) (layers *.Cu *.Mask)
      (net 2 GND))
    (model ${KISYS3DMOD}/Resistor_THT.3dshapes/R_Axial_DIN0204_L3.6mm_D1.6mm_P2.54mm_Vertical.wrl
      (at (xyz 0 0 0))
      (scale (xyz 1 1 1))
      (rotate (xyz 0 0 0))
    )
  )

  (module Resistor_THT:R_Axial_DIN0204_L3.6mm_D1.6mm_P2.54mm_Vertical (layer F.Cu) (tedit 5AE5139B) (tstamp 60BADFBA)
    (at 205.74 138.43 180)
    (descr "Resistor, Axial_DIN0204 series, Axial, Vertical, pin pitch=2.54mm, 0.167W, length*diameter=3.6*1.6mm^2, http://cdn-reichelt.de/documents/datenblatt/B400/1_4W%23YAG.pdf")
    (tags "Resistor Axial_DIN0204 series Axial Vertical pin pitch 2.54mm 0.167W length 3.6mm diameter 1.6mm")
    (path /60BA8830)
    (fp_text reference R3 (at 1.27 -1.92) (layer F.SilkS)
      (effects (font (size 1 1) (thickness 0.15)))
    )
    (fp_text value "Rload - 100kΩ" (at 1.27 1.92) (layer F.Fab)
      (effects (font (size 1 1) (thickness 0.15)))
    )
    (fp_line (start 3.49 -1.05) (end -1.05 -1.05) (layer F.CrtYd) (width 0.05))
    (fp_line (start 3.49 1.05) (end 3.49 -1.05) (layer F.CrtYd) (width 0.05))
    (fp_line (start -1.05 1.05) (end 3.49 1.05) (layer F.CrtYd) (width 0.05))
    (fp_line (start -1.05 -1.05) (end -1.05 1.05) (layer F.CrtYd) (width 0.05))
    (fp_line (start 0.92 0) (end 1.54 0) (layer F.SilkS) (width 0.12))
    (fp_line (start 0 0) (end 2.54 0) (layer F.Fab) (width 0.1))
    (fp_circle (center 0 0) (end 0.92 0) (layer F.SilkS) (width 0.12))
    (fp_circle (center 0 0) (end 0.8 0) (layer F.Fab) (width 0.1))
    (fp_text user %R (at 1.27 -1.92) (layer F.Fab)
      (effects (font (size 1 1) (thickness 0.15)))
    )
    (pad 1 thru_hole circle (at 0 0 180) (size 1.4 1.4) (drill 0.7) (layers *.Cu *.Mask)
      (net 4 "Net-(C3-Pad1)"))
    (pad 2 thru_hole oval (at 2.54 0 180) (size 1.4 1.4) (drill 0.7) (layers *.Cu *.Mask)
      (net 2 GND))
    (model ${KISYS3DMOD}/Resistor_THT.3dshapes/R_Axial_DIN0204_L3.6mm_D1.6mm_P2.54mm_Vertical.wrl
      (at (xyz 0 0 0))
      (scale (xyz 1 1 1))
      (rotate (xyz 0 0 0))
    )
  )

  (module Package_TO_SOT_THT:TO-220-3_Vertical (layer F.Cu) (tedit 5AC8BA0D) (tstamp 60BADFD4)
    (at 193.04 134.62 180)
    (descr "TO-220-3, Vertical, RM 2.54mm, see https://www.vishay.com/docs/66542/to-220-1.pdf")
    (tags "TO-220-3 Vertical RM 2.54mm")
    (path /60BA7FCC)
    (fp_text reference U1 (at 2.54 -4.27) (layer F.SilkS)
      (effects (font (size 1 1) (thickness 0.15)))
    )
    (fp_text value LT1117-3.3 (at 2.54 2.5) (layer F.Fab)
      (effects (font (size 1 1) (thickness 0.15)))
    )
    (fp_line (start 7.79 -3.4) (end -2.71 -3.4) (layer F.CrtYd) (width 0.05))
    (fp_line (start 7.79 1.51) (end 7.79 -3.4) (layer F.CrtYd) (width 0.05))
    (fp_line (start -2.71 1.51) (end 7.79 1.51) (layer F.CrtYd) (width 0.05))
    (fp_line (start -2.71 -3.4) (end -2.71 1.51) (layer F.CrtYd) (width 0.05))
    (fp_line (start 4.391 -3.27) (end 4.391 -1.76) (layer F.SilkS) (width 0.12))
    (fp_line (start 0.69 -3.27) (end 0.69 -1.76) (layer F.SilkS) (width 0.12))
    (fp_line (start -2.58 -1.76) (end 7.66 -1.76) (layer F.SilkS) (width 0.12))
    (fp_line (start 7.66 -3.27) (end 7.66 1.371) (layer F.SilkS) (width 0.12))
    (fp_line (start -2.58 -3.27) (end -2.58 1.371) (layer F.SilkS) (width 0.12))
    (fp_line (start -2.58 1.371) (end 7.66 1.371) (layer F.SilkS) (width 0.12))
    (fp_line (start -2.58 -3.27) (end 7.66 -3.27) (layer F.SilkS) (width 0.12))
    (fp_line (start 4.39 -3.15) (end 4.39 -1.88) (layer F.Fab) (width 0.1))
    (fp_line (start 0.69 -3.15) (end 0.69 -1.88) (layer F.Fab) (width 0.1))
    (fp_line (start -2.46 -1.88) (end 7.54 -1.88) (layer F.Fab) (width 0.1))
    (fp_line (start 7.54 -3.15) (end -2.46 -3.15) (layer F.Fab) (width 0.1))
    (fp_line (start 7.54 1.25) (end 7.54 -3.15) (layer F.Fab) (width 0.1))
    (fp_line (start -2.46 1.25) (end 7.54 1.25) (layer F.Fab) (width 0.1))
    (fp_line (start -2.46 -3.15) (end -2.46 1.25) (layer F.Fab) (width 0.1))
    (fp_text user %R (at 2.54 -4.27) (layer F.Fab)
      (effects (font (size 1 1) (thickness 0.15)))
    )
    (pad 1 thru_hole rect (at 0 0 180) (size 1.905 2) (drill 1.1) (layers *.Cu *.Mask)
      (net 3 "Net-(C2-Pad1)"))
    (pad 2 thru_hole oval (at 2.54 0 180) (size 1.905 2) (drill 1.1) (layers *.Cu *.Mask)
      (net 4 "Net-(C3-Pad1)"))
    (pad 3 thru_hole oval (at 5.08 0 180) (size 1.905 2) (drill 1.1) (layers *.Cu *.Mask)
      (net 1 "Net-(BT1-Pad1)"))
    (model ${KISYS3DMOD}/Package_TO_SOT_THT.3dshapes/TO-220-3_Vertical.wrl
      (at (xyz 0 0 0))
      (scale (xyz 1 1 1))
      (rotate (xyz 0 0 0))
    )
  )

  (gr_line (start 173.99 125.73) (end 210.82 125.73) (layer Edge.Cuts) (width 0.1) (tstamp 60BA47B7))
  (gr_line (start 173.99 143.51) (end 173.99 125.73) (layer Edge.Cuts) (width 0.1))
  (gr_line (start 210.82 143.51) (end 173.99 143.51) (layer Edge.Cuts) (width 0.1))
  (gr_line (start 210.82 125.73) (end 210.82 143.51) (layer Edge.Cuts) (width 0.1))
  (gr_text LTLCAL001 (at 275.59 179.07) (layer F.Cu)
    (effects (font (size 1.5 1.5) (thickness 0.3)))
  )
  (gr_text 04/06/2021 (at 237.49 193.04) (layer F.Cu)
    (effects (font (size 1.5 1.5) (thickness 0.3)))
  )
  (gr_text "PSU - Voltage regulator subsystem 1" (at 209.55 190.5) (layer F.Cu)
    (effects (font (size 1.5 1.5) (thickness 0.3)))
  )

  (segment (start 185.42 132.08) (end 187.96 134.62) (width 0.25) (layer F.Cu) (net 1))
  (segment (start 185.42 129.54) (end 185.42 132.08) (width 0.25) (layer F.Cu) (net 1))
  (segment (start 178.445 133.758232) (end 178.445 134.03) (width 0.25) (layer F.Cu) (net 1))
  (segment (start 179.348242 132.85499) (end 178.445 133.758232) (width 0.25) (layer F.Cu) (net 1))
  (segment (start 182.10501 132.85499) (end 179.348242 132.85499) (width 0.25) (layer F.Cu) (net 1))
  (segment (start 185.42 129.54) (end 182.10501 132.85499) (width 0.25) (layer F.Cu) (net 1))
  (segment (start 177.8 134.675) (end 178.445 134.03) (width 0.25) (layer F.Cu) (net 1))
  (segment (start 177.8 139.7) (end 177.8 134.675) (width 0.25) (layer F.Cu) (net 1))
  (segment (start 179.695 139.095) (end 180.3 139.7) (width 0.25) (layer F.Cu) (net 2))
  (segment (start 179.695 134.03) (end 179.695 139.095) (width 0.25) (layer F.Cu) (net 2))
  (segment (start 193.244999 141.995001) (end 200.62 134.62) (width 0.25) (layer F.Cu) (net 2))
  (segment (start 188.985001 141.995001) (end 193.244999 141.995001) (width 0.25) (layer F.Cu) (net 2))
  (segment (start 187.96 140.97) (end 188.985001 141.995001) (width 0.25) (layer F.Cu) (net 2))
  (segment (start 204.43 130.81) (end 204.51 130.81) (width 0.25) (layer F.Cu) (net 2))
  (segment (start 200.62 134.62) (end 204.43 130.81) (width 0.25) (layer F.Cu) (net 2))
  (segment (start 200.62 135.85) (end 203.2 138.43) (width 0.25) (layer F.Cu) (net 2))
  (segment (start 200.62 134.62) (end 200.62 135.85) (width 0.25) (layer F.Cu) (net 2))
  (segment (start 186.69 139.7) (end 187.96 140.97) (width 0.25) (layer B.Cu) (net 2))
  (segment (start 180.3 139.7) (end 186.69 139.7) (width 0.25) (layer B.Cu) (net 2))
  (segment (start 193.04 134.62) (end 198.12 134.62) (width 0.25) (layer B.Cu) (net 3))
  (segment (start 204.717002 140.97) (end 199.39 140.97) (width 0.25) (layer B.Cu) (net 3))
  (segment (start 206.765001 137.937999) (end 206.765001 138.922001) (width 0.25) (layer B.Cu) (net 3))
  (segment (start 206.232001 137.404999) (end 206.765001 137.937999) (width 0.25) (layer B.Cu) (net 3))
  (segment (start 200.904999 137.404999) (end 206.232001 137.404999) (width 0.25) (layer B.Cu) (net 3))
  (segment (start 206.765001 138.922001) (end 204.717002 140.97) (width 0.25) (layer B.Cu) (net 3))
  (segment (start 198.12 134.62) (end 200.904999 137.404999) (width 0.25) (layer B.Cu) (net 3))
  (segment (start 191.71499 133.29499) (end 193.04 134.62) (width 0.25) (layer B.Cu) (net 3))
  (segment (start 187.430839 133.29499) (end 191.71499 133.29499) (width 0.25) (layer B.Cu) (net 3))
  (segment (start 186.68249 134.043339) (end 187.430839 133.29499) (width 0.25) (layer B.Cu) (net 3))
  (segment (start 186.68249 137.15249) (end 186.68249 134.043339) (width 0.25) (layer B.Cu) (net 3))
  (segment (start 190.5 140.97) (end 186.68249 137.15249) (width 0.25) (layer B.Cu) (net 3))
  (segment (start 205.74 132.08) (end 207.01 130.81) (width 0.25) (layer F.Cu) (net 4))
  (segment (start 205.74 138.43) (end 205.74 132.08) (width 0.25) (layer F.Cu) (net 4))
  (segment (start 195.58 129.54) (end 190.5 134.62) (width 0.25) (layer F.Cu) (net 4))
  (segment (start 197.875001 139.944999) (end 196.85 140.97) (width 0.25) (layer B.Cu) (net 4))
  (segment (start 204.225001 139.944999) (end 197.875001 139.944999) (width 0.25) (layer B.Cu) (net 4))
  (segment (start 205.74 138.43) (end 204.225001 139.944999) (width 0.25) (layer B.Cu) (net 4))
  (segment (start 196.85 140.97) (end 190.5 134.62) (width 0.25) (layer B.Cu) (net 4))

)
