%!PS-Adobe-3.0
%%Creator: PCBNEW
%%CreationDate: Sat Jun 12 09:16:52 2021
%%Title: /home/kalm_421/EEE3088F_Group_7_PCB/raspberrypi_zerow_uhat/EEE3088F_Group_7_PCB-PTH-drl_map.ps
%%Pages: 1
%%PageOrder: Ascend
%%BoundingBox: 0 0 596 842
%%DocumentMedia: A4 595 842 0 () ()
%%Orientation: Landscape
%%EndComments
%%BeginProlog
/line { newpath moveto lineto stroke } bind def
/cir0 { newpath 0 360 arc stroke } bind def
/cir1 { newpath 0 360 arc gsave fill grestore stroke } bind def
/cir2 { newpath 0 360 arc gsave fill grestore stroke } bind def
/arc0 { newpath arc stroke } bind def
/arc1 { newpath 4 index 4 index moveto arc closepath gsave fill
    grestore stroke } bind def
/arc2 { newpath 4 index 4 index moveto arc closepath gsave fill
    grestore stroke } bind def
/poly0 { stroke } bind def
/poly1 { closepath gsave fill grestore stroke } bind def
/poly2 { closepath gsave fill grestore stroke } bind def
/rect0 { rectstroke } bind def
/rect1 { rectfill } bind def
/rect2 { rectfill } bind def
/linemode0 { 0 setlinecap 0 setlinejoin 0 setlinewidth } bind def
/linemode1 { 1 setlinecap 1 setlinejoin } bind def
/dashedline { [200] 100 setdash } bind def
/solidline { [] 0 setdash } bind def
/phantomshow { moveto
    /KicadFont findfont 0.000001 scalefont setfont
    show } bind def
/textshow { gsave
    findfont exch scalefont setfont concat 1 scale 0 0 moveto show
    } bind def
/reencodefont {
  findfont dup length dict begin
  { 1 index /FID ne
    { def }
    { pop pop } ifelse
  } forall
  /Encoding ISOLatin1Encoding def
  currentdict
  end } bind def
/KicadFont /Helvetica reencodefont definefont pop
/KicadFont-Bold /Helvetica-Bold reencodefont definefont pop
/KicadFont-Oblique /Helvetica-Oblique reencodefont definefont pop
/KicadFont-BoldOblique /Helvetica-BoldOblique reencodefont definefont pop
%%EndProlog
%%Page: 1 1
%%BeginPageSetup
gsave
0.0072 0.0072 scale
linemode1
82680 0 translate 90 rotate
150 setlinewidth
%%EndPageSetup
0 0 0 setrgbcolor
177.165 setlinewidth
newpath
24213 40159.5 moveto
23622.5 40159.5 lineto
stroke
0 0 0 setrgbcolor
newpath
92717 40159.5 moveto
93307.5 40159.5 lineto
stroke
0 0 0 setrgbcolor
newpath
96850.8 72049.2 moveto
96850.8 43702.8 lineto
stroke
0 0 0 setrgbcolor
newpath
23622.5 75592.5 moveto
93307.5 75592.5 lineto
stroke
0 0 0 setrgbcolor
newpath
20079.2 43702.8 moveto
20079.2 72049.2 lineto
stroke
0 0 0 setrgbcolor
23622.5 72049.2 3543.31 90 180 arc0
0 0 0 setrgbcolor
23622.5 43702.8 3543.31 180 270 arc0
0 0 0 setrgbcolor
93307.5 43702.8 3543.31 -90 -0 arc0
0 0 0 setrgbcolor
93307.5 72049.2 3543.31 -0 90 arc0
0 0 0 setrgbcolor
newpath
24213 40159.5 moveto
92717 40159.5 lineto
stroke
78.7394 setlinewidth
newpath
23799.6 64372.1 moveto
24626.4 63545.3 lineto
stroke
newpath
24626.4 64372.1 moveto
23799.6 63545.3 lineto
stroke
newpath
23799.6 61372.1 moveto
24626.4 60545.3 lineto
stroke
newpath
24626.4 61372.1 moveto
23799.6 60545.3 lineto
stroke
newpath
41055.6 67372.1 moveto
41882.3 66545.3 lineto
stroke
newpath
41882.3 67372.1 moveto
41055.6 66545.3 lineto
stroke
newpath
43299.6 67372.1 moveto
44126.4 66545.3 lineto
stroke
newpath
44126.4 67372.1 moveto
43299.6 66545.3 lineto
stroke
newpath
44799.6 47872.1 moveto
45626.4 47045.3 lineto
stroke
newpath
45626.4 47872.1 moveto
44799.6 47045.3 lineto
stroke
newpath
44799.6 44872.1 moveto
45626.4 44045.3 lineto
stroke
newpath
45626.4 44872.1 moveto
44799.6 44045.3 lineto
stroke
newpath
47055.6 58372.1 moveto
47882.3 57545.3 lineto
stroke
newpath
47882.3 58372.1 moveto
47055.6 57545.3 lineto
stroke
newpath
47799.6 47116.2 moveto
48626.4 46289.4 lineto
stroke
newpath
48626.4 47116.2 moveto
47799.6 46289.4 lineto
stroke
newpath
47799.6 44872.1 moveto
48626.4 44045.3 lineto
stroke
newpath
48626.4 44872.1 moveto
47799.6 44045.3 lineto
stroke
newpath
48555.6 67372.1 moveto
49382.3 66545.3 lineto
stroke
newpath
49382.3 67372.1 moveto
48555.6 66545.3 lineto
stroke
newpath
49299.6 58372.1 moveto
50126.4 57545.3 lineto
stroke
newpath
50126.4 58372.1 moveto
49299.6 57545.3 lineto
stroke
newpath
50799.6 67372.1 moveto
51626.4 66545.3 lineto
stroke
newpath
51626.4 67372.1 moveto
50799.6 66545.3 lineto
stroke
newpath
54555.6 67372.1 moveto
55382.3 66545.3 lineto
stroke
newpath
55382.3 67372.1 moveto
54555.6 66545.3 lineto
stroke
newpath
56799.6 67372.1 moveto
57626.4 66545.3 lineto
stroke
newpath
57626.4 67372.1 moveto
56799.6 66545.3 lineto
stroke
newpath
59055.6 67372.1 moveto
59882.3 66545.3 lineto
stroke
newpath
59882.3 67372.1 moveto
59055.6 66545.3 lineto
stroke
newpath
61299.6 67372.1 moveto
62126.4 66545.3 lineto
stroke
newpath
62126.4 67372.1 moveto
61299.6 66545.3 lineto
stroke
newpath
65799.6 67372.1 moveto
66626.4 66545.3 lineto
stroke
newpath
66626.4 67372.1 moveto
65799.6 66545.3 lineto
stroke
newpath
65799.6 58372.1 moveto
66626.4 57545.3 lineto
stroke
newpath
66626.4 58372.1 moveto
65799.6 57545.3 lineto
stroke
newpath
68043.7 67372.1 moveto
68870.5 66545.3 lineto
stroke
newpath
68870.5 67372.1 moveto
68043.7 66545.3 lineto
stroke
newpath
68799.6 58372.1 moveto
69626.4 57545.3 lineto
stroke
newpath
69626.4 58372.1 moveto
68799.6 57545.3 lineto
stroke
newpath
68799.6 47872.1 moveto
69626.4 47045.3 lineto
stroke
newpath
69626.4 47872.1 moveto
68799.6 47045.3 lineto
stroke
newpath
68799.6 45628 moveto
69626.4 44801.2 lineto
stroke
newpath
69626.4 45628 moveto
68799.6 44801.2 lineto
stroke
newpath
71799.6 47872.1 moveto
72626.4 47045.3 lineto
stroke
newpath
72626.4 47872.1 moveto
71799.6 47045.3 lineto
stroke
newpath
71799.6 44872.1 moveto
72626.4 44045.3 lineto
stroke
newpath
72626.4 44872.1 moveto
71799.6 44045.3 lineto
stroke
newpath
74799.6 67372.1 moveto
75626.4 66545.3 lineto
stroke
newpath
75626.4 67372.1 moveto
74799.6 66545.3 lineto
stroke
newpath
74799.6 46372.1 moveto
75626.4 45545.3 lineto
stroke
newpath
75626.4 46372.1 moveto
74799.6 45545.3 lineto
stroke
newpath
74799.6 44128 moveto
75626.4 43301.2 lineto
stroke
newpath
75626.4 44128 moveto
74799.6 43301.2 lineto
stroke
newpath
77043.7 67372.1 moveto
77870.5 66545.3 lineto
stroke
newpath
77870.5 67372.1 moveto
77043.7 66545.3 lineto
stroke
newpath
77799.6 46372.1 moveto
78626.4 45545.3 lineto
stroke
newpath
78626.4 46372.1 moveto
77799.6 45545.3 lineto
stroke
newpath
77799.6 43372.1 moveto
78626.4 42545.3 lineto
stroke
newpath
78626.4 43372.1 moveto
77799.6 42545.3 lineto
stroke
newpath
92799.6 64372.1 moveto
93626.4 63545.3 lineto
stroke
newpath
93626.4 64372.1 moveto
92799.6 63545.3 lineto
stroke
newpath
92799.6 61372.1 moveto
93626.4 60545.3 lineto
stroke
newpath
93626.4 61372.1 moveto
92799.6 60545.3 lineto
stroke
31760.3 47458.7 472.441 cir0
34713 47458.7 472.441 cir0
39260.3 50458.7 472.441 cir0
42213 50458.7 472.441 cir0
46713 51958.7 472.441 cir0
49665.8 51958.7 472.441 cir0
67760.3 51958.7 472.441 cir0
70713 51958.7 472.441 cir0
75213 50458.7 472.441 cir0
78165.8 50458.7 472.441 cir0
82713 47458.7 472.441 cir0
85665.8 47458.7 472.441 cir0
newpath
52713 47990.2 moveto
52713 46927.2 lineto
stroke
newpath
52181.5 47458.7 moveto
53244.5 47458.7 lineto
stroke
newpath
52713 44990.2 moveto
52713 43927.2 lineto
stroke
newpath
52181.5 44458.7 moveto
53244.5 44458.7 lineto
stroke
newpath
58713 47990.2 moveto
58713 46927.2 lineto
stroke
newpath
58181.5 47458.7 moveto
59244.5 47458.7 lineto
stroke
newpath
58713 44990.2 moveto
58713 43927.2 lineto
stroke
newpath
58181.5 44458.7 moveto
59244.5 44458.7 lineto
stroke
newpath
64713 47990.2 moveto
64713 46927.2 lineto
stroke
newpath
64181.5 47458.7 moveto
65244.5 47458.7 lineto
stroke
newpath
64713 44990.2 moveto
64713 43927.2 lineto
stroke
newpath
64181.5 44458.7 moveto
65244.5 44458.7 lineto
stroke
newpath
30382.6 72541.1 moveto
30382.6 73376.3 lineto
29547.4 73376.3 lineto
29547.4 72541.1 lineto
30382.6 72541.1 lineto
poly0
newpath
30382.6 69541.1 moveto
30382.6 70376.3 lineto
29547.4 70376.3 lineto
29547.4 69541.1 lineto
30382.6 69541.1 lineto
poly0
newpath
33382.6 72541.1 moveto
33382.6 73376.3 lineto
32547.4 73376.3 lineto
32547.4 72541.1 lineto
33382.6 72541.1 lineto
poly0
newpath
33382.6 69541.1 moveto
33382.6 70376.3 lineto
32547.4 70376.3 lineto
32547.4 69541.1 lineto
33382.6 69541.1 lineto
poly0
newpath
36382.6 72541.1 moveto
36382.6 73376.3 lineto
35547.4 73376.3 lineto
35547.4 72541.1 lineto
36382.6 72541.1 lineto
poly0
newpath
36382.6 69541.1 moveto
36382.6 70376.3 lineto
35547.4 70376.3 lineto
35547.4 69541.1 lineto
36382.6 69541.1 lineto
poly0
newpath
39382.6 72541.1 moveto
39382.6 73376.3 lineto
38547.4 73376.3 lineto
38547.4 72541.1 lineto
39382.6 72541.1 lineto
poly0
newpath
39382.6 69541.1 moveto
39382.6 70376.3 lineto
38547.4 70376.3 lineto
38547.4 69541.1 lineto
39382.6 69541.1 lineto
poly0
newpath
42382.6 72541.1 moveto
42382.6 73376.3 lineto
41547.4 73376.3 lineto
41547.4 72541.1 lineto
42382.6 72541.1 lineto
poly0
newpath
42382.6 69541.1 moveto
42382.6 70376.3 lineto
41547.4 70376.3 lineto
41547.4 69541.1 lineto
42382.6 69541.1 lineto
poly0
newpath
45382.6 72541.1 moveto
45382.6 73376.3 lineto
44547.4 73376.3 lineto
44547.4 72541.1 lineto
45382.6 72541.1 lineto
poly0
newpath
45382.6 69541.1 moveto
45382.6 70376.3 lineto
44547.4 70376.3 lineto
44547.4 69541.1 lineto
45382.6 69541.1 lineto
poly0
newpath
48382.6 72541.1 moveto
48382.6 73376.3 lineto
47547.4 73376.3 lineto
47547.4 72541.1 lineto
48382.6 72541.1 lineto
poly0
newpath
48382.6 69541.1 moveto
48382.6 70376.3 lineto
47547.4 70376.3 lineto
47547.4 69541.1 lineto
48382.6 69541.1 lineto
poly0
newpath
51382.6 72541.1 moveto
51382.6 73376.3 lineto
50547.4 73376.3 lineto
50547.4 72541.1 lineto
51382.6 72541.1 lineto
poly0
newpath
51382.6 69541.1 moveto
51382.6 70376.3 lineto
50547.4 70376.3 lineto
50547.4 69541.1 lineto
51382.6 69541.1 lineto
poly0
newpath
54382.6 72541.1 moveto
54382.6 73376.3 lineto
53547.4 73376.3 lineto
53547.4 72541.1 lineto
54382.6 72541.1 lineto
poly0
newpath
54382.6 69541.1 moveto
54382.6 70376.3 lineto
53547.4 70376.3 lineto
53547.4 69541.1 lineto
54382.6 69541.1 lineto
poly0
newpath
57382.6 72541.1 moveto
57382.6 73376.3 lineto
56547.4 73376.3 lineto
56547.4 72541.1 lineto
57382.6 72541.1 lineto
poly0
newpath
57382.6 69541.1 moveto
57382.6 70376.3 lineto
56547.4 70376.3 lineto
56547.4 69541.1 lineto
57382.6 69541.1 lineto
poly0
newpath
60382.6 72541.1 moveto
60382.6 73376.3 lineto
59547.4 73376.3 lineto
59547.4 72541.1 lineto
60382.6 72541.1 lineto
poly0
newpath
60382.6 69541.1 moveto
60382.6 70376.3 lineto
59547.4 70376.3 lineto
59547.4 69541.1 lineto
60382.6 69541.1 lineto
poly0
newpath
63382.6 72541.1 moveto
63382.6 73376.3 lineto
62547.4 73376.3 lineto
62547.4 72541.1 lineto
63382.6 72541.1 lineto
poly0
newpath
63382.6 69541.1 moveto
63382.6 70376.3 lineto
62547.4 70376.3 lineto
62547.4 69541.1 lineto
63382.6 69541.1 lineto
poly0
newpath
66382.6 72541.1 moveto
66382.6 73376.3 lineto
65547.4 73376.3 lineto
65547.4 72541.1 lineto
66382.6 72541.1 lineto
poly0
newpath
66382.6 69541.1 moveto
66382.6 70376.3 lineto
65547.4 70376.3 lineto
65547.4 69541.1 lineto
66382.6 69541.1 lineto
poly0
newpath
69382.6 72541.1 moveto
69382.6 73376.3 lineto
68547.4 73376.3 lineto
68547.4 72541.1 lineto
69382.6 72541.1 lineto
poly0
newpath
69382.6 69541.1 moveto
69382.6 70376.3 lineto
68547.4 70376.3 lineto
68547.4 69541.1 lineto
69382.6 69541.1 lineto
poly0
newpath
72382.6 72541.1 moveto
72382.6 73376.3 lineto
71547.4 73376.3 lineto
71547.4 72541.1 lineto
72382.6 72541.1 lineto
poly0
newpath
72382.6 69541.1 moveto
72382.6 70376.3 lineto
71547.4 70376.3 lineto
71547.4 69541.1 lineto
72382.6 69541.1 lineto
poly0
newpath
75382.6 72541.1 moveto
75382.6 73376.3 lineto
74547.4 73376.3 lineto
74547.4 72541.1 lineto
75382.6 72541.1 lineto
poly0
newpath
75382.6 69541.1 moveto
75382.6 70376.3 lineto
74547.4 70376.3 lineto
74547.4 69541.1 lineto
75382.6 69541.1 lineto
poly0
newpath
78382.6 72541.1 moveto
78382.6 73376.3 lineto
77547.4 73376.3 lineto
77547.4 72541.1 lineto
78382.6 72541.1 lineto
poly0
newpath
78382.6 69541.1 moveto
78382.6 70376.3 lineto
77547.4 70376.3 lineto
77547.4 69541.1 lineto
78382.6 69541.1 lineto
poly0
newpath
81382.6 72541.1 moveto
81382.6 73376.3 lineto
80547.4 73376.3 lineto
80547.4 72541.1 lineto
81382.6 72541.1 lineto
poly0
newpath
81382.6 69541.1 moveto
81382.6 70376.3 lineto
80547.4 70376.3 lineto
80547.4 69541.1 lineto
81382.6 69541.1 lineto
poly0
newpath
84382.6 72541.1 moveto
84382.6 73376.3 lineto
83547.4 73376.3 lineto
83547.4 72541.1 lineto
84382.6 72541.1 lineto
poly0
newpath
84382.6 69541.1 moveto
84382.6 70376.3 lineto
83547.4 70376.3 lineto
83547.4 69541.1 lineto
84382.6 69541.1 lineto
poly0
newpath
87382.6 72541.1 moveto
87382.6 73376.3 lineto
86547.4 73376.3 lineto
86547.4 72541.1 lineto
87382.6 72541.1 lineto
poly0
newpath
87382.6 69541.1 moveto
87382.6 70376.3 lineto
86547.4 70376.3 lineto
86547.4 69541.1 lineto
87382.6 69541.1 lineto
poly0
newpath
30213 61809.1 moveto
30862.6 62458.7 lineto
30213 63108.3 lineto
29563.4 62458.7 lineto
30213 61809.1 lineto
poly0
newpath
33213 61809.1 moveto
33862.6 62458.7 lineto
33213 63108.3 lineto
32563.4 62458.7 lineto
33213 61809.1 lineto
poly0
newpath
36213 61809.1 moveto
36862.6 62458.7 lineto
36213 63108.3 lineto
35563.4 62458.7 lineto
36213 61809.1 lineto
poly0
newpath
41681.5 63309.1 moveto
42331.1 63958.7 lineto
41681.5 64608.3 lineto
41031.9 63958.7 lineto
41681.5 63309.1 lineto
poly0
newpath
43689.4 63309.1 moveto
44339 63958.7 lineto
43689.4 64608.3 lineto
43039.8 63958.7 lineto
43689.4 63309.1 lineto
poly0
newpath
45697.3 63309.1 moveto
46346.9 63958.7 lineto
45697.3 64608.3 lineto
45047.7 63958.7 lineto
45697.3 63309.1 lineto
poly0
newpath
47705.2 63309.1 moveto
48354.8 63958.7 lineto
47705.2 64608.3 lineto
47055.6 63958.7 lineto
47705.2 63309.1 lineto
poly0
newpath
49713 63309.1 moveto
50362.6 63958.7 lineto
49713 64608.3 lineto
49063.4 63958.7 lineto
49713 63309.1 lineto
poly0
newpath
55181.5 63309.1 moveto
55831.1 63958.7 lineto
55181.5 64608.3 lineto
54531.9 63958.7 lineto
55181.5 63309.1 lineto
poly0
newpath
57189.4 63309.1 moveto
57839 63958.7 lineto
57189.4 64608.3 lineto
56539.8 63958.7 lineto
57189.4 63309.1 lineto
poly0
newpath
59197.3 63309.1 moveto
59846.9 63958.7 lineto
59197.3 64608.3 lineto
58547.7 63958.7 lineto
59197.3 63309.1 lineto
poly0
newpath
61205.2 63309.1 moveto
61854.8 63958.7 lineto
61205.2 64608.3 lineto
60555.6 63958.7 lineto
61205.2 63309.1 lineto
poly0
newpath
63213 63309.1 moveto
63862.6 63958.7 lineto
63213 64608.3 lineto
62563.4 63958.7 lineto
63213 63309.1 lineto
poly0
newpath
68681.5 63309.1 moveto
69331.1 63958.7 lineto
68681.5 64608.3 lineto
68031.9 63958.7 lineto
68681.5 63309.1 lineto
poly0
newpath
70689.4 63309.1 moveto
71339 63958.7 lineto
70689.4 64608.3 lineto
70039.8 63958.7 lineto
70689.4 63309.1 lineto
poly0
newpath
72697.3 63309.1 moveto
73346.9 63958.7 lineto
72697.3 64608.3 lineto
72047.7 63958.7 lineto
72697.3 63309.1 lineto
poly0
newpath
74705.2 63309.1 moveto
75354.8 63958.7 lineto
74705.2 64608.3 lineto
74055.6 63958.7 lineto
74705.2 63309.1 lineto
poly0
newpath
76713 63309.1 moveto
77362.6 63958.7 lineto
76713 64608.3 lineto
76063.4 63958.7 lineto
76713 63309.1 lineto
poly0
newpath
82713 61809.1 moveto
83362.6 62458.7 lineto
82713 63108.3 lineto
82063.4 62458.7 lineto
82713 61809.1 lineto
poly0
newpath
85713 61809.1 moveto
86362.6 62458.7 lineto
85713 63108.3 lineto
85063.4 62458.7 lineto
85713 61809.1 lineto
poly0
newpath
88713 61809.1 moveto
89362.6 62458.7 lineto
88713 63108.3 lineto
88063.4 62458.7 lineto
88713 61809.1 lineto
poly0
newpath
30886.3 57285.4 moveto
32539.8 55631.9 lineto
stroke
newpath
32539.8 57285.4 moveto
30886.3 55631.9 lineto
stroke
31713 56458.7 826.772 cir0
newpath
42886.3 57285.4 moveto
44539.8 55631.9 lineto
stroke
newpath
44539.8 57285.4 moveto
42886.3 55631.9 lineto
stroke
43713 56458.7 826.772 cir0
newpath
72886.3 57285.4 moveto
74539.8 55631.9 lineto
stroke
newpath
74539.8 57285.4 moveto
72886.3 55631.9 lineto
stroke
73713 56458.7 826.772 cir0
newpath
84886.3 57285.4 moveto
86539.8 55631.9 lineto
stroke
newpath
86539.8 57285.4 moveto
84886.3 55631.9 lineto
stroke
85713 56458.7 826.772 cir0
newpath
57709.1 57639.8 moveto
59717 55631.9 lineto
stroke
newpath
59717 57639.8 moveto
57709.1 55631.9 lineto
stroke
newpath
58713 57639.8 moveto
58713 55631.9 lineto
stroke
newpath
57709.1 56635.8 moveto
59717 56635.8 lineto
stroke
newpath
57709.1 52962.6 moveto
59717 50954.7 lineto
stroke
newpath
59717 52962.6 moveto
57709.1 50954.7 lineto
stroke
newpath
58713 52962.6 moveto
58713 50954.7 lineto
stroke
newpath
57709.1 51958.7 moveto
59717 51958.7 lineto
stroke
118.11 setlinewidth
0 0 0 setrgbcolor
0 0 0 setrgbcolor
newpath
21118.3 38237.4 moveto
21118.3 39418.5 lineto
21399.5 39418.5 lineto
21568.2 39362.2 lineto
21680.7 39249.7 lineto
21736.9 39137.2 lineto
21793.2 38912.3 lineto
21793.2 38743.5 lineto
21736.9 38518.6 lineto
21680.7 38406.1 lineto
21568.2 38293.6 lineto
21399.5 38237.4 lineto
21118.3 38237.4 lineto
stroke
newpath
22299.4 38237.4 moveto
22299.4 39024.8 lineto
stroke
newpath
22299.4 38799.8 moveto
22355.6 38912.3 lineto
22411.8 38968.5 lineto
22524.3 39024.8 lineto
22636.8 39024.8 lineto
stroke
newpath
23030.5 38237.4 moveto
23030.5 39024.8 lineto
stroke
newpath
23030.5 39418.5 moveto
22974.3 39362.2 lineto
23030.5 39306 lineto
23086.8 39362.2 lineto
23030.5 39418.5 lineto
23030.5 39306 lineto
stroke
newpath
23761.7 38237.4 moveto
23649.2 38293.6 lineto
23593 38406.1 lineto
23593 39418.5 lineto
stroke
newpath
24380.4 38237.4 moveto
24267.9 38293.6 lineto
24211.6 38406.1 lineto
24211.6 39418.5 lineto
stroke
newpath
25730.2 38237.4 moveto
25730.2 39418.5 lineto
26123.9 38574.8 lineto
26517.6 39418.5 lineto
26517.6 38237.4 lineto
stroke
newpath
27586.2 38237.4 moveto
27586.2 38856 lineto
27530 38968.5 lineto
27417.5 39024.8 lineto
27192.5 39024.8 lineto
27080 38968.5 lineto
stroke
newpath
27586.2 38293.6 moveto
27473.7 38237.4 lineto
27192.5 38237.4 lineto
27080 38293.6 lineto
27023.8 38406.1 lineto
27023.8 38518.6 lineto
27080 38631.1 lineto
27192.5 38687.3 lineto
27473.7 38687.3 lineto
27586.2 38743.5 lineto
stroke
newpath
28148.6 39024.8 moveto
28148.6 37843.7 lineto
stroke
newpath
28148.6 38968.5 moveto
28261.1 39024.8 lineto
28486.1 39024.8 lineto
28598.6 38968.5 lineto
28654.8 38912.3 lineto
28711.1 38799.8 lineto
28711.1 38462.3 lineto
28654.8 38349.8 lineto
28598.6 38293.6 lineto
28486.1 38237.4 lineto
28261.1 38237.4 lineto
28148.6 38293.6 lineto
stroke
newpath
29217.2 38349.8 moveto
29273.5 38293.6 lineto
29217.2 38237.4 lineto
29161 38293.6 lineto
29217.2 38349.8 lineto
29217.2 38237.4 lineto
stroke
newpath
29217.2 38968.5 moveto
29273.5 38912.3 lineto
29217.2 38856 lineto
29161 38912.3 lineto
29217.2 38968.5 lineto
29217.2 38856 lineto
stroke
newpath
19163.8 36704.7 moveto
19990.6 35878 lineto
stroke
newpath
19990.6 36704.7 moveto
19163.8 35878 lineto
stroke
0 0 0 setrgbcolor
0 0 0 setrgbcolor
newpath
21343.2 36938.1 moveto
21455.7 36938.1 lineto
21568.2 36881.9 lineto
21624.4 36825.7 lineto
21680.7 36713.2 lineto
21736.9 36488.2 lineto
21736.9 36207 lineto
21680.7 35982 lineto
21624.4 35869.5 lineto
21568.2 35813.3 lineto
21455.7 35757 lineto
21343.2 35757 lineto
21230.7 35813.3 lineto
21174.5 35869.5 lineto
21118.3 35982 lineto
21062 36207 lineto
21062 36488.2 lineto
21118.3 36713.2 lineto
21174.5 36825.7 lineto
21230.7 36881.9 lineto
21343.2 36938.1 lineto
stroke
newpath
22243.1 35869.5 moveto
22299.4 35813.3 lineto
22243.1 35757 lineto
22186.9 35813.3 lineto
22243.1 35869.5 lineto
22243.1 35757 lineto
stroke
newpath
22693.1 36938.1 moveto
23480.5 36938.1 lineto
22974.3 35757 lineto
stroke
newpath
24155.4 36938.1 moveto
24267.9 36938.1 lineto
24380.4 36881.9 lineto
24436.6 36825.7 lineto
24492.8 36713.2 lineto
24549.1 36488.2 lineto
24549.1 36207 lineto
24492.8 35982 lineto
24436.6 35869.5 lineto
24380.4 35813.3 lineto
24267.9 35757 lineto
24155.4 35757 lineto
24042.9 35813.3 lineto
23986.7 35869.5 lineto
23930.4 35982 lineto
23874.2 36207 lineto
23874.2 36488.2 lineto
23930.4 36713.2 lineto
23986.7 36825.7 lineto
24042.9 36881.9 lineto
24155.4 36938.1 lineto
stroke
newpath
25280.2 36938.1 moveto
25392.7 36938.1 lineto
25505.2 36881.9 lineto
25561.5 36825.7 lineto
25617.7 36713.2 lineto
25673.9 36488.2 lineto
25673.9 36207 lineto
25617.7 35982 lineto
25561.5 35869.5 lineto
25505.2 35813.3 lineto
25392.7 35757 lineto
25280.2 35757 lineto
25167.8 35813.3 lineto
25111.5 35869.5 lineto
25055.3 35982 lineto
24999 36207 lineto
24999 36488.2 lineto
25055.3 36713.2 lineto
25111.5 36825.7 lineto
25167.8 36881.9 lineto
25280.2 36938.1 lineto
stroke
newpath
26180.1 35757 moveto
26180.1 36544.4 lineto
stroke
newpath
26180.1 36432 moveto
26236.4 36488.2 lineto
26348.9 36544.4 lineto
26517.6 36544.4 lineto
26630.1 36488.2 lineto
26686.3 36375.7 lineto
26686.3 35757 lineto
stroke
newpath
26686.3 36375.7 moveto
26742.6 36488.2 lineto
26855 36544.4 lineto
27023.8 36544.4 lineto
27136.3 36488.2 lineto
27192.5 36375.7 lineto
27192.5 35757 lineto
stroke
newpath
27754.9 35757 moveto
27754.9 36544.4 lineto
stroke
newpath
27754.9 36432 moveto
27811.2 36488.2 lineto
27923.7 36544.4 lineto
28092.4 36544.4 lineto
28204.9 36488.2 lineto
28261.1 36375.7 lineto
28261.1 35757 lineto
stroke
newpath
28261.1 36375.7 moveto
28317.4 36488.2 lineto
28429.8 36544.4 lineto
28598.6 36544.4 lineto
28711.1 36488.2 lineto
28767.3 36375.7 lineto
28767.3 35757 lineto
stroke
newpath
31073.3 36994.4 moveto
30060.9 35475.8 lineto
stroke
newpath
32591.8 36938.1 moveto
32704.3 36938.1 lineto
32816.8 36881.9 lineto
32873 36825.7 lineto
32929.3 36713.2 lineto
32985.5 36488.2 lineto
32985.5 36207 lineto
32929.3 35982 lineto
32873 35869.5 lineto
32816.8 35813.3 lineto
32704.3 35757 lineto
32591.8 35757 lineto
32479.3 35813.3 lineto
32423.1 35869.5 lineto
32366.9 35982 lineto
32310.6 36207 lineto
32310.6 36488.2 lineto
32366.9 36713.2 lineto
32423.1 36825.7 lineto
32479.3 36881.9 lineto
32591.8 36938.1 lineto
stroke
newpath
33491.7 35869.5 moveto
33548 35813.3 lineto
33491.7 35757 lineto
33435.5 35813.3 lineto
33491.7 35869.5 lineto
33491.7 35757 lineto
stroke
newpath
34279.1 36938.1 moveto
34391.6 36938.1 lineto
34504.1 36881.9 lineto
34560.3 36825.7 lineto
34616.6 36713.2 lineto
34672.8 36488.2 lineto
34672.8 36207 lineto
34616.6 35982 lineto
34560.3 35869.5 lineto
34504.1 35813.3 lineto
34391.6 35757 lineto
34279.1 35757 lineto
34166.6 35813.3 lineto
34110.4 35869.5 lineto
34054.1 35982 lineto
33997.9 36207 lineto
33997.9 36488.2 lineto
34054.1 36713.2 lineto
34110.4 36825.7 lineto
34166.6 36881.9 lineto
34279.1 36938.1 lineto
stroke
newpath
35122.8 36825.7 moveto
35179 36881.9 lineto
35291.5 36938.1 lineto
35572.7 36938.1 lineto
35685.2 36881.9 lineto
35741.4 36825.7 lineto
35797.7 36713.2 lineto
35797.7 36600.7 lineto
35741.4 36432 lineto
35066.5 35757 lineto
35797.7 35757 lineto
stroke
newpath
36191.4 36938.1 moveto
36978.8 36938.1 lineto
36472.6 35757 lineto
stroke
newpath
37934.9 36938.1 moveto
37709.9 36938.1 lineto
37597.5 36881.9 lineto
37541.2 36825.7 lineto
37428.7 36656.9 lineto
37372.5 36432 lineto
37372.5 35982 lineto
37428.7 35869.5 lineto
37485 35813.3 lineto
37597.5 35757 lineto
37822.4 35757 lineto
37934.9 35813.3 lineto
37991.2 35869.5 lineto
38047.4 35982 lineto
38047.4 36263.2 lineto
37991.2 36375.7 lineto
37934.9 36432 lineto
37822.4 36488.2 lineto
37597.5 36488.2 lineto
37485 36432 lineto
37428.7 36375.7 lineto
37372.5 36263.2 lineto
stroke
newpath
38497.3 36938.1 moveto
38497.3 36713.2 lineto
stroke
newpath
38947.3 36938.1 moveto
38947.3 36713.2 lineto
stroke
newpath
40690.8 35307.1 moveto
40634.6 35363.3 lineto
40522.1 35532.1 lineto
40465.8 35644.6 lineto
40409.6 35813.3 lineto
40353.4 36094.5 lineto
40353.4 36319.5 lineto
40409.6 36600.7 lineto
40465.8 36769.4 lineto
40522.1 36881.9 lineto
40634.6 37050.6 lineto
40690.8 37106.9 lineto
stroke
newpath
41028.3 36938.1 moveto
41759.4 36938.1 lineto
41365.7 36488.2 lineto
41534.5 36488.2 lineto
41646.9 36432 lineto
41703.2 36375.7 lineto
41759.4 36263.2 lineto
41759.4 35982 lineto
41703.2 35869.5 lineto
41646.9 35813.3 lineto
41534.5 35757 lineto
41197 35757 lineto
41084.5 35813.3 lineto
41028.3 35869.5 lineto
stroke
newpath
42209.4 36825.7 moveto
42265.6 36881.9 lineto
42378.1 36938.1 lineto
42659.3 36938.1 lineto
42771.8 36881.9 lineto
42828 36825.7 lineto
42884.3 36713.2 lineto
42884.3 36600.7 lineto
42828 36432 lineto
42153.1 35757 lineto
42884.3 35757 lineto
stroke
newpath
44290.4 35757 moveto
44290.4 36938.1 lineto
stroke
newpath
44796.6 35757 moveto
44796.6 36375.7 lineto
44740.3 36488.2 lineto
44627.8 36544.4 lineto
44459.1 36544.4 lineto
44346.6 36488.2 lineto
44290.4 36432 lineto
stroke
newpath
45527.7 35757 moveto
45415.2 35813.3 lineto
45359 35869.5 lineto
45302.7 35982 lineto
45302.7 36319.5 lineto
45359 36432 lineto
45415.2 36488.2 lineto
45527.7 36544.4 lineto
45696.4 36544.4 lineto
45808.9 36488.2 lineto
45865.2 36432 lineto
45921.4 36319.5 lineto
45921.4 35982 lineto
45865.2 35869.5 lineto
45808.9 35813.3 lineto
45696.4 35757 lineto
45527.7 35757 lineto
stroke
newpath
46596.3 35757 moveto
46483.8 35813.3 lineto
46427.6 35925.8 lineto
46427.6 36938.1 lineto
stroke
newpath
47496.2 35813.3 moveto
47383.7 35757 lineto
47158.8 35757 lineto
47046.3 35813.3 lineto
46990 35925.8 lineto
46990 36375.7 lineto
47046.3 36488.2 lineto
47158.8 36544.4 lineto
47383.7 36544.4 lineto
47496.2 36488.2 lineto
47552.5 36375.7 lineto
47552.5 36263.2 lineto
46990 36150.7 lineto
stroke
newpath
48002.4 35813.3 moveto
48114.9 35757 lineto
48339.9 35757 lineto
48452.3 35813.3 lineto
48508.6 35925.8 lineto
48508.6 35982 lineto
48452.3 36094.5 lineto
48339.9 36150.7 lineto
48171.1 36150.7 lineto
48058.6 36207 lineto
48002.4 36319.5 lineto
48002.4 36375.7 lineto
48058.6 36488.2 lineto
48171.1 36544.4 lineto
48339.9 36544.4 lineto
48452.3 36488.2 lineto
stroke
newpath
48902.3 35307.1 moveto
48958.5 35363.3 lineto
49071 35532.1 lineto
49127.3 35644.6 lineto
49183.5 35813.3 lineto
49239.7 36094.5 lineto
49239.7 36319.5 lineto
49183.5 36600.7 lineto
49127.3 36769.4 lineto
49071 36881.9 lineto
48958.5 37050.6 lineto
48902.3 37106.9 lineto
stroke
19518.1 34732.3 472.441 cir0
0 0 0 setrgbcolor
0 0 0 setrgbcolor
newpath
21343.2 35379.1 moveto
21455.7 35379.1 lineto
21568.2 35322.8 lineto
21624.4 35266.6 lineto
21680.7 35154.1 lineto
21736.9 34929.1 lineto
21736.9 34647.9 lineto
21680.7 34423 lineto
21624.4 34310.5 lineto
21568.2 34254.2 lineto
21455.7 34198 lineto
21343.2 34198 lineto
21230.7 34254.2 lineto
21174.5 34310.5 lineto
21118.3 34423 lineto
21062 34647.9 lineto
21062 34929.1 lineto
21118.3 35154.1 lineto
21174.5 35266.6 lineto
21230.7 35322.8 lineto
21343.2 35379.1 lineto
stroke
newpath
22243.1 34310.5 moveto
22299.4 34254.2 lineto
22243.1 34198 lineto
22186.9 34254.2 lineto
22243.1 34310.5 lineto
22243.1 34198 lineto
stroke
newpath
22974.3 34872.9 moveto
22861.8 34929.1 lineto
22805.5 34985.4 lineto
22749.3 35097.9 lineto
22749.3 35154.1 lineto
22805.5 35266.6 lineto
22861.8 35322.8 lineto
22974.3 35379.1 lineto
23199.3 35379.1 lineto
23311.7 35322.8 lineto
23368 35266.6 lineto
23424.2 35154.1 lineto
23424.2 35097.9 lineto
23368 34985.4 lineto
23311.7 34929.1 lineto
23199.3 34872.9 lineto
22974.3 34872.9 lineto
22861.8 34816.7 lineto
22805.5 34760.4 lineto
22749.3 34647.9 lineto
22749.3 34423 lineto
22805.5 34310.5 lineto
22861.8 34254.2 lineto
22974.3 34198 lineto
23199.3 34198 lineto
23311.7 34254.2 lineto
23368 34310.5 lineto
23424.2 34423 lineto
23424.2 34647.9 lineto
23368 34760.4 lineto
23311.7 34816.7 lineto
23199.3 34872.9 lineto
stroke
newpath
24155.4 35379.1 moveto
24267.9 35379.1 lineto
24380.4 35322.8 lineto
24436.6 35266.6 lineto
24492.8 35154.1 lineto
24549.1 34929.1 lineto
24549.1 34647.9 lineto
24492.8 34423 lineto
24436.6 34310.5 lineto
24380.4 34254.2 lineto
24267.9 34198 lineto
24155.4 34198 lineto
24042.9 34254.2 lineto
23986.7 34310.5 lineto
23930.4 34423 lineto
23874.2 34647.9 lineto
23874.2 34929.1 lineto
23930.4 35154.1 lineto
23986.7 35266.6 lineto
24042.9 35322.8 lineto
24155.4 35379.1 lineto
stroke
newpath
25280.2 35379.1 moveto
25392.7 35379.1 lineto
25505.2 35322.8 lineto
25561.5 35266.6 lineto
25617.7 35154.1 lineto
25673.9 34929.1 lineto
25673.9 34647.9 lineto
25617.7 34423 lineto
25561.5 34310.5 lineto
25505.2 34254.2 lineto
25392.7 34198 lineto
25280.2 34198 lineto
25167.8 34254.2 lineto
25111.5 34310.5 lineto
25055.3 34423 lineto
24999 34647.9 lineto
24999 34929.1 lineto
25055.3 35154.1 lineto
25111.5 35266.6 lineto
25167.8 35322.8 lineto
25280.2 35379.1 lineto
stroke
newpath
26180.1 34198 moveto
26180.1 34985.4 lineto
stroke
newpath
26180.1 34872.9 moveto
26236.4 34929.1 lineto
26348.9 34985.4 lineto
26517.6 34985.4 lineto
26630.1 34929.1 lineto
26686.3 34816.7 lineto
26686.3 34198 lineto
stroke
newpath
26686.3 34816.7 moveto
26742.6 34929.1 lineto
26855 34985.4 lineto
27023.8 34985.4 lineto
27136.3 34929.1 lineto
27192.5 34816.7 lineto
27192.5 34198 lineto
stroke
newpath
27754.9 34198 moveto
27754.9 34985.4 lineto
stroke
newpath
27754.9 34872.9 moveto
27811.2 34929.1 lineto
27923.7 34985.4 lineto
28092.4 34985.4 lineto
28204.9 34929.1 lineto
28261.1 34816.7 lineto
28261.1 34198 lineto
stroke
newpath
28261.1 34816.7 moveto
28317.4 34929.1 lineto
28429.8 34985.4 lineto
28598.6 34985.4 lineto
28711.1 34929.1 lineto
28767.3 34816.7 lineto
28767.3 34198 lineto
stroke
newpath
31073.3 35435.3 moveto
30060.9 33916.8 lineto
stroke
newpath
32591.8 35379.1 moveto
32704.3 35379.1 lineto
32816.8 35322.8 lineto
32873 35266.6 lineto
32929.3 35154.1 lineto
32985.5 34929.1 lineto
32985.5 34647.9 lineto
32929.3 34423 lineto
32873 34310.5 lineto
32816.8 34254.2 lineto
32704.3 34198 lineto
32591.8 34198 lineto
32479.3 34254.2 lineto
32423.1 34310.5 lineto
32366.9 34423 lineto
32310.6 34647.9 lineto
32310.6 34929.1 lineto
32366.9 35154.1 lineto
32423.1 35266.6 lineto
32479.3 35322.8 lineto
32591.8 35379.1 lineto
stroke
newpath
33491.7 34310.5 moveto
33548 34254.2 lineto
33491.7 34198 lineto
33435.5 34254.2 lineto
33491.7 34310.5 lineto
33491.7 34198 lineto
stroke
newpath
34279.1 35379.1 moveto
34391.6 35379.1 lineto
34504.1 35322.8 lineto
34560.3 35266.6 lineto
34616.6 35154.1 lineto
34672.8 34929.1 lineto
34672.8 34647.9 lineto
34616.6 34423 lineto
34560.3 34310.5 lineto
34504.1 34254.2 lineto
34391.6 34198 lineto
34279.1 34198 lineto
34166.6 34254.2 lineto
34110.4 34310.5 lineto
34054.1 34423 lineto
33997.9 34647.9 lineto
33997.9 34929.1 lineto
34054.1 35154.1 lineto
34110.4 35266.6 lineto
34166.6 35322.8 lineto
34279.1 35379.1 lineto
stroke
newpath
35066.5 35379.1 moveto
35797.7 35379.1 lineto
35404 34929.1 lineto
35572.7 34929.1 lineto
35685.2 34872.9 lineto
35741.4 34816.7 lineto
35797.7 34704.2 lineto
35797.7 34423 lineto
35741.4 34310.5 lineto
35685.2 34254.2 lineto
35572.7 34198 lineto
35235.2 34198 lineto
35122.8 34254.2 lineto
35066.5 34310.5 lineto
stroke
newpath
36922.5 34198 moveto
36247.6 34198 lineto
stroke
newpath
36585.1 34198 moveto
36585.1 35379.1 lineto
36472.6 35210.4 lineto
36360.1 35097.9 lineto
36247.6 35041.6 lineto
stroke
newpath
37991.2 35379.1 moveto
37428.7 35379.1 lineto
37372.5 34816.7 lineto
37428.7 34872.9 lineto
37541.2 34929.1 lineto
37822.4 34929.1 lineto
37934.9 34872.9 lineto
37991.2 34816.7 lineto
38047.4 34704.2 lineto
38047.4 34423 lineto
37991.2 34310.5 lineto
37934.9 34254.2 lineto
37822.4 34198 lineto
37541.2 34198 lineto
37428.7 34254.2 lineto
37372.5 34310.5 lineto
stroke
newpath
38497.3 35379.1 moveto
38497.3 35154.1 lineto
stroke
newpath
38947.3 35379.1 moveto
38947.3 35154.1 lineto
stroke
newpath
40690.8 33748 moveto
40634.6 33804.3 lineto
40522.1 33973 lineto
40465.8 34085.5 lineto
40409.6 34254.2 lineto
40353.4 34535.4 lineto
40353.4 34760.4 lineto
40409.6 35041.6 lineto
40465.8 35210.4 lineto
40522.1 35322.8 lineto
40634.6 35491.6 lineto
40690.8 35547.8 lineto
stroke
newpath
41759.4 34198 moveto
41084.5 34198 lineto
stroke
newpath
41422 34198 moveto
41422 35379.1 lineto
41309.5 35210.4 lineto
41197 35097.9 lineto
41084.5 35041.6 lineto
stroke
newpath
42209.4 35266.6 moveto
42265.6 35322.8 lineto
42378.1 35379.1 lineto
42659.3 35379.1 lineto
42771.8 35322.8 lineto
42828 35266.6 lineto
42884.3 35154.1 lineto
42884.3 35041.6 lineto
42828 34872.9 lineto
42153.1 34198 lineto
42884.3 34198 lineto
stroke
newpath
44290.4 34198 moveto
44290.4 35379.1 lineto
stroke
newpath
44796.6 34198 moveto
44796.6 34816.7 lineto
44740.3 34929.1 lineto
44627.8 34985.4 lineto
44459.1 34985.4 lineto
44346.6 34929.1 lineto
44290.4 34872.9 lineto
stroke
newpath
45527.7 34198 moveto
45415.2 34254.2 lineto
45359 34310.5 lineto
45302.7 34423 lineto
45302.7 34760.4 lineto
45359 34872.9 lineto
45415.2 34929.1 lineto
45527.7 34985.4 lineto
45696.4 34985.4 lineto
45808.9 34929.1 lineto
45865.2 34872.9 lineto
45921.4 34760.4 lineto
45921.4 34423 lineto
45865.2 34310.5 lineto
45808.9 34254.2 lineto
45696.4 34198 lineto
45527.7 34198 lineto
stroke
newpath
46596.3 34198 moveto
46483.8 34254.2 lineto
46427.6 34366.7 lineto
46427.6 35379.1 lineto
stroke
newpath
47496.2 34254.2 moveto
47383.7 34198 lineto
47158.8 34198 lineto
47046.3 34254.2 lineto
46990 34366.7 lineto
46990 34816.7 lineto
47046.3 34929.1 lineto
47158.8 34985.4 lineto
47383.7 34985.4 lineto
47496.2 34929.1 lineto
47552.5 34816.7 lineto
47552.5 34704.2 lineto
46990 34591.7 lineto
stroke
newpath
48002.4 34254.2 moveto
48114.9 34198 lineto
48339.9 34198 lineto
48452.3 34254.2 lineto
48508.6 34366.7 lineto
48508.6 34423 lineto
48452.3 34535.4 lineto
48339.9 34591.7 lineto
48171.1 34591.7 lineto
48058.6 34647.9 lineto
48002.4 34760.4 lineto
48002.4 34816.7 lineto
48058.6 34929.1 lineto
48171.1 34985.4 lineto
48339.9 34985.4 lineto
48452.3 34929.1 lineto
stroke
newpath
48902.3 33748 moveto
48958.5 33804.3 lineto
49071 33973 lineto
49127.3 34085.5 lineto
49183.5 34254.2 lineto
49239.7 34535.4 lineto
49239.7 34760.4 lineto
49183.5 35041.6 lineto
49127.3 35210.4 lineto
49071 35322.8 lineto
48958.5 35491.6 lineto
48902.3 35547.8 lineto
stroke
newpath
19459.1 33704.7 moveto
19459.1 32641.7 lineto
stroke
newpath
18927.6 33173.2 moveto
19990.6 33173.2 lineto
stroke
0 0 0 setrgbcolor
0 0 0 setrgbcolor
newpath
21343.2 33820 moveto
21455.7 33820 lineto
21568.2 33763.8 lineto
21624.4 33707.6 lineto
21680.7 33595.1 lineto
21736.9 33370.1 lineto
21736.9 33088.9 lineto
21680.7 32863.9 lineto
21624.4 32751.4 lineto
21568.2 32695.2 lineto
21455.7 32638.9 lineto
21343.2 32638.9 lineto
21230.7 32695.2 lineto
21174.5 32751.4 lineto
21118.3 32863.9 lineto
21062 33088.9 lineto
21062 33370.1 lineto
21118.3 33595.1 lineto
21174.5 33707.6 lineto
21230.7 33763.8 lineto
21343.2 33820 lineto
stroke
newpath
22243.1 32751.4 moveto
22299.4 32695.2 lineto
22243.1 32638.9 lineto
22186.9 32695.2 lineto
22243.1 32751.4 lineto
22243.1 32638.9 lineto
stroke
newpath
22861.8 32638.9 moveto
23086.8 32638.9 lineto
23199.3 32695.2 lineto
23255.5 32751.4 lineto
23368 32920.2 lineto
23424.2 33145.1 lineto
23424.2 33595.1 lineto
23368 33707.6 lineto
23311.7 33763.8 lineto
23199.3 33820 lineto
22974.3 33820 lineto
22861.8 33763.8 lineto
22805.5 33707.6 lineto
22749.3 33595.1 lineto
22749.3 33313.9 lineto
22805.5 33201.4 lineto
22861.8 33145.1 lineto
22974.3 33088.9 lineto
23199.3 33088.9 lineto
23311.7 33145.1 lineto
23368 33201.4 lineto
23424.2 33313.9 lineto
stroke
newpath
24155.4 33820 moveto
24267.9 33820 lineto
24380.4 33763.8 lineto
24436.6 33707.6 lineto
24492.8 33595.1 lineto
24549.1 33370.1 lineto
24549.1 33088.9 lineto
24492.8 32863.9 lineto
24436.6 32751.4 lineto
24380.4 32695.2 lineto
24267.9 32638.9 lineto
24155.4 32638.9 lineto
24042.9 32695.2 lineto
23986.7 32751.4 lineto
23930.4 32863.9 lineto
23874.2 33088.9 lineto
23874.2 33370.1 lineto
23930.4 33595.1 lineto
23986.7 33707.6 lineto
24042.9 33763.8 lineto
24155.4 33820 lineto
stroke
newpath
25280.2 33820 moveto
25392.7 33820 lineto
25505.2 33763.8 lineto
25561.5 33707.6 lineto
25617.7 33595.1 lineto
25673.9 33370.1 lineto
25673.9 33088.9 lineto
25617.7 32863.9 lineto
25561.5 32751.4 lineto
25505.2 32695.2 lineto
25392.7 32638.9 lineto
25280.2 32638.9 lineto
25167.8 32695.2 lineto
25111.5 32751.4 lineto
25055.3 32863.9 lineto
24999 33088.9 lineto
24999 33370.1 lineto
25055.3 33595.1 lineto
25111.5 33707.6 lineto
25167.8 33763.8 lineto
25280.2 33820 lineto
stroke
newpath
26180.1 32638.9 moveto
26180.1 33426.3 lineto
stroke
newpath
26180.1 33313.9 moveto
26236.4 33370.1 lineto
26348.9 33426.3 lineto
26517.6 33426.3 lineto
26630.1 33370.1 lineto
26686.3 33257.6 lineto
26686.3 32638.9 lineto
stroke
newpath
26686.3 33257.6 moveto
26742.6 33370.1 lineto
26855 33426.3 lineto
27023.8 33426.3 lineto
27136.3 33370.1 lineto
27192.5 33257.6 lineto
27192.5 32638.9 lineto
stroke
newpath
27754.9 32638.9 moveto
27754.9 33426.3 lineto
stroke
newpath
27754.9 33313.9 moveto
27811.2 33370.1 lineto
27923.7 33426.3 lineto
28092.4 33426.3 lineto
28204.9 33370.1 lineto
28261.1 33257.6 lineto
28261.1 32638.9 lineto
stroke
newpath
28261.1 33257.6 moveto
28317.4 33370.1 lineto
28429.8 33426.3 lineto
28598.6 33426.3 lineto
28711.1 33370.1 lineto
28767.3 33257.6 lineto
28767.3 32638.9 lineto
stroke
newpath
31073.3 33876.3 moveto
30060.9 32357.7 lineto
stroke
newpath
32591.8 33820 moveto
32704.3 33820 lineto
32816.8 33763.8 lineto
32873 33707.6 lineto
32929.3 33595.1 lineto
32985.5 33370.1 lineto
32985.5 33088.9 lineto
32929.3 32863.9 lineto
32873 32751.4 lineto
32816.8 32695.2 lineto
32704.3 32638.9 lineto
32591.8 32638.9 lineto
32479.3 32695.2 lineto
32423.1 32751.4 lineto
32366.9 32863.9 lineto
32310.6 33088.9 lineto
32310.6 33370.1 lineto
32366.9 33595.1 lineto
32423.1 33707.6 lineto
32479.3 33763.8 lineto
32591.8 33820 lineto
stroke
newpath
33491.7 32751.4 moveto
33548 32695.2 lineto
33491.7 32638.9 lineto
33435.5 32695.2 lineto
33491.7 32751.4 lineto
33491.7 32638.9 lineto
stroke
newpath
34279.1 33820 moveto
34391.6 33820 lineto
34504.1 33763.8 lineto
34560.3 33707.6 lineto
34616.6 33595.1 lineto
34672.8 33370.1 lineto
34672.8 33088.9 lineto
34616.6 32863.9 lineto
34560.3 32751.4 lineto
34504.1 32695.2 lineto
34391.6 32638.9 lineto
34279.1 32638.9 lineto
34166.6 32695.2 lineto
34110.4 32751.4 lineto
34054.1 32863.9 lineto
33997.9 33088.9 lineto
33997.9 33370.1 lineto
34054.1 33595.1 lineto
34110.4 33707.6 lineto
34166.6 33763.8 lineto
34279.1 33820 lineto
stroke
newpath
35066.5 33820 moveto
35797.7 33820 lineto
35404 33370.1 lineto
35572.7 33370.1 lineto
35685.2 33313.9 lineto
35741.4 33257.6 lineto
35797.7 33145.1 lineto
35797.7 32863.9 lineto
35741.4 32751.4 lineto
35685.2 32695.2 lineto
35572.7 32638.9 lineto
35235.2 32638.9 lineto
35122.8 32695.2 lineto
35066.5 32751.4 lineto
stroke
newpath
36866.3 33820 moveto
36303.9 33820 lineto
36247.6 33257.6 lineto
36303.9 33313.9 lineto
36416.3 33370.1 lineto
36697.6 33370.1 lineto
36810 33313.9 lineto
36866.3 33257.6 lineto
36922.5 33145.1 lineto
36922.5 32863.9 lineto
36866.3 32751.4 lineto
36810 32695.2 lineto
36697.6 32638.9 lineto
36416.3 32638.9 lineto
36303.9 32695.2 lineto
36247.6 32751.4 lineto
stroke
newpath
37934.9 33426.3 moveto
37934.9 32638.9 lineto
stroke
newpath
37653.7 33876.3 moveto
37372.5 33032.6 lineto
38103.6 33032.6 lineto
stroke
newpath
38497.3 33820 moveto
38497.3 33595.1 lineto
stroke
newpath
38947.3 33820 moveto
38947.3 33595.1 lineto
stroke
newpath
40690.8 32189 moveto
40634.6 32245.2 lineto
40522.1 32414 lineto
40465.8 32526.4 lineto
40409.6 32695.2 lineto
40353.4 32976.4 lineto
40353.4 33201.4 lineto
40409.6 33482.6 lineto
40465.8 33651.3 lineto
40522.1 33763.8 lineto
40634.6 33932.5 lineto
40690.8 33988.8 lineto
stroke
newpath
41646.9 33820 moveto
41422 33820 lineto
41309.5 33763.8 lineto
41253.2 33707.6 lineto
41140.8 33538.8 lineto
41084.5 33313.9 lineto
41084.5 32863.9 lineto
41140.8 32751.4 lineto
41197 32695.2 lineto
41309.5 32638.9 lineto
41534.5 32638.9 lineto
41646.9 32695.2 lineto
41703.2 32751.4 lineto
41759.4 32863.9 lineto
41759.4 33145.1 lineto
41703.2 33257.6 lineto
41646.9 33313.9 lineto
41534.5 33370.1 lineto
41309.5 33370.1 lineto
41197 33313.9 lineto
41140.8 33257.6 lineto
41084.5 33145.1 lineto
stroke
newpath
43165.5 32638.9 moveto
43165.5 33820 lineto
stroke
newpath
43671.7 32638.9 moveto
43671.7 33257.6 lineto
43615.4 33370.1 lineto
43503 33426.3 lineto
43334.2 33426.3 lineto
43221.7 33370.1 lineto
43165.5 33313.9 lineto
stroke
newpath
44402.8 32638.9 moveto
44290.4 32695.2 lineto
44234.1 32751.4 lineto
44177.9 32863.9 lineto
44177.9 33201.4 lineto
44234.1 33313.9 lineto
44290.4 33370.1 lineto
44402.8 33426.3 lineto
44571.6 33426.3 lineto
44684.1 33370.1 lineto
44740.3 33313.9 lineto
44796.6 33201.4 lineto
44796.6 32863.9 lineto
44740.3 32751.4 lineto
44684.1 32695.2 lineto
44571.6 32638.9 lineto
44402.8 32638.9 lineto
stroke
newpath
45471.5 32638.9 moveto
45359 32695.2 lineto
45302.7 32807.7 lineto
45302.7 33820 lineto
stroke
newpath
46371.4 32695.2 moveto
46258.9 32638.9 lineto
46033.9 32638.9 lineto
45921.4 32695.2 lineto
45865.2 32807.7 lineto
45865.2 33257.6 lineto
45921.4 33370.1 lineto
46033.9 33426.3 lineto
46258.9 33426.3 lineto
46371.4 33370.1 lineto
46427.6 33257.6 lineto
46427.6 33145.1 lineto
45865.2 33032.6 lineto
stroke
newpath
46877.5 32695.2 moveto
46990 32638.9 lineto
47215 32638.9 lineto
47327.5 32695.2 lineto
47383.7 32807.7 lineto
47383.7 32863.9 lineto
47327.5 32976.4 lineto
47215 33032.6 lineto
47046.3 33032.6 lineto
46933.8 33088.9 lineto
46877.5 33201.4 lineto
46877.5 33257.6 lineto
46933.8 33370.1 lineto
47046.3 33426.3 lineto
47215 33426.3 lineto
47327.5 33370.1 lineto
stroke
newpath
47777.4 32189 moveto
47833.7 32245.2 lineto
47946.2 32414 lineto
48002.4 32526.4 lineto
48058.6 32695.2 lineto
48114.9 32976.4 lineto
48114.9 33201.4 lineto
48058.6 33482.6 lineto
48002.4 33651.3 lineto
47946.2 33763.8 lineto
47833.7 33932.5 lineto
47777.4 33988.8 lineto
stroke
newpath
19817.6 31180.9 moveto
19817.6 32016 lineto
18982.5 32016 lineto
18982.5 31180.9 lineto
19817.6 31180.9 lineto
poly0
0 0 0 setrgbcolor
0 0 0 setrgbcolor
newpath
21736.9 31064.1 moveto
21062 31064.1 lineto
stroke
newpath
21399.5 31064.1 moveto
21399.5 32245.2 lineto
21287 32076.5 lineto
21174.5 31964 lineto
21062 31907.8 lineto
stroke
newpath
22243.1 31176.6 moveto
22299.4 31120.4 lineto
22243.1 31064.1 lineto
22186.9 31120.4 lineto
22243.1 31176.6 lineto
22243.1 31064.1 lineto
stroke
newpath
23030.5 32245.2 moveto
23143 32245.2 lineto
23255.5 32189 lineto
23311.7 32132.7 lineto
23368 32020.3 lineto
23424.2 31795.3 lineto
23424.2 31514.1 lineto
23368 31289.1 lineto
23311.7 31176.6 lineto
23255.5 31120.4 lineto
23143 31064.1 lineto
23030.5 31064.1 lineto
22918 31120.4 lineto
22861.8 31176.6 lineto
22805.5 31289.1 lineto
22749.3 31514.1 lineto
22749.3 31795.3 lineto
22805.5 32020.3 lineto
22861.8 32132.7 lineto
22918 32189 lineto
23030.5 32245.2 lineto
stroke
newpath
24155.4 32245.2 moveto
24267.9 32245.2 lineto
24380.4 32189 lineto
24436.6 32132.7 lineto
24492.8 32020.3 lineto
24549.1 31795.3 lineto
24549.1 31514.1 lineto
24492.8 31289.1 lineto
24436.6 31176.6 lineto
24380.4 31120.4 lineto
24267.9 31064.1 lineto
24155.4 31064.1 lineto
24042.9 31120.4 lineto
23986.7 31176.6 lineto
23930.4 31289.1 lineto
23874.2 31514.1 lineto
23874.2 31795.3 lineto
23930.4 32020.3 lineto
23986.7 32132.7 lineto
24042.9 32189 lineto
24155.4 32245.2 lineto
stroke
newpath
25280.2 32245.2 moveto
25392.7 32245.2 lineto
25505.2 32189 lineto
25561.5 32132.7 lineto
25617.7 32020.3 lineto
25673.9 31795.3 lineto
25673.9 31514.1 lineto
25617.7 31289.1 lineto
25561.5 31176.6 lineto
25505.2 31120.4 lineto
25392.7 31064.1 lineto
25280.2 31064.1 lineto
25167.8 31120.4 lineto
25111.5 31176.6 lineto
25055.3 31289.1 lineto
24999 31514.1 lineto
24999 31795.3 lineto
25055.3 32020.3 lineto
25111.5 32132.7 lineto
25167.8 32189 lineto
25280.2 32245.2 lineto
stroke
newpath
26180.1 31064.1 moveto
26180.1 31851.5 lineto
stroke
newpath
26180.1 31739 moveto
26236.4 31795.3 lineto
26348.9 31851.5 lineto
26517.6 31851.5 lineto
26630.1 31795.3 lineto
26686.3 31682.8 lineto
26686.3 31064.1 lineto
stroke
newpath
26686.3 31682.8 moveto
26742.6 31795.3 lineto
26855 31851.5 lineto
27023.8 31851.5 lineto
27136.3 31795.3 lineto
27192.5 31682.8 lineto
27192.5 31064.1 lineto
stroke
newpath
27754.9 31064.1 moveto
27754.9 31851.5 lineto
stroke
newpath
27754.9 31739 moveto
27811.2 31795.3 lineto
27923.7 31851.5 lineto
28092.4 31851.5 lineto
28204.9 31795.3 lineto
28261.1 31682.8 lineto
28261.1 31064.1 lineto
stroke
newpath
28261.1 31682.8 moveto
28317.4 31795.3 lineto
28429.8 31851.5 lineto
28598.6 31851.5 lineto
28711.1 31795.3 lineto
28767.3 31682.8 lineto
28767.3 31064.1 lineto
stroke
newpath
31073.3 32301.5 moveto
30060.9 30782.9 lineto
stroke
newpath
32591.8 32245.2 moveto
32704.3 32245.2 lineto
32816.8 32189 lineto
32873 32132.7 lineto
32929.3 32020.3 lineto
32985.5 31795.3 lineto
32985.5 31514.1 lineto
32929.3 31289.1 lineto
32873 31176.6 lineto
32816.8 31120.4 lineto
32704.3 31064.1 lineto
32591.8 31064.1 lineto
32479.3 31120.4 lineto
32423.1 31176.6 lineto
32366.9 31289.1 lineto
32310.6 31514.1 lineto
32310.6 31795.3 lineto
32366.9 32020.3 lineto
32423.1 32132.7 lineto
32479.3 32189 lineto
32591.8 32245.2 lineto
stroke
newpath
33491.7 31176.6 moveto
33548 31120.4 lineto
33491.7 31064.1 lineto
33435.5 31120.4 lineto
33491.7 31176.6 lineto
33491.7 31064.1 lineto
stroke
newpath
34279.1 32245.2 moveto
34391.6 32245.2 lineto
34504.1 32189 lineto
34560.3 32132.7 lineto
34616.6 32020.3 lineto
34672.8 31795.3 lineto
34672.8 31514.1 lineto
34616.6 31289.1 lineto
34560.3 31176.6 lineto
34504.1 31120.4 lineto
34391.6 31064.1 lineto
34279.1 31064.1 lineto
34166.6 31120.4 lineto
34110.4 31176.6 lineto
34054.1 31289.1 lineto
33997.9 31514.1 lineto
33997.9 31795.3 lineto
34054.1 32020.3 lineto
34110.4 32132.7 lineto
34166.6 32189 lineto
34279.1 32245.2 lineto
stroke
newpath
35066.5 32245.2 moveto
35797.7 32245.2 lineto
35404 31795.3 lineto
35572.7 31795.3 lineto
35685.2 31739 lineto
35741.4 31682.8 lineto
35797.7 31570.3 lineto
35797.7 31289.1 lineto
35741.4 31176.6 lineto
35685.2 31120.4 lineto
35572.7 31064.1 lineto
35235.2 31064.1 lineto
35122.8 31120.4 lineto
35066.5 31176.6 lineto
stroke
newpath
36360.1 31064.1 moveto
36585.1 31064.1 lineto
36697.6 31120.4 lineto
36753.8 31176.6 lineto
36866.3 31345.3 lineto
36922.5 31570.3 lineto
36922.5 32020.3 lineto
36866.3 32132.7 lineto
36810 32189 lineto
36697.6 32245.2 lineto
36472.6 32245.2 lineto
36360.1 32189 lineto
36303.9 32132.7 lineto
36247.6 32020.3 lineto
36247.6 31739 lineto
36303.9 31626.6 lineto
36360.1 31570.3 lineto
36472.6 31514.1 lineto
36697.6 31514.1 lineto
36810 31570.3 lineto
36866.3 31626.6 lineto
36922.5 31739 lineto
stroke
newpath
37934.9 31851.5 moveto
37934.9 31064.1 lineto
stroke
newpath
37653.7 32301.5 moveto
37372.5 31457.8 lineto
38103.6 31457.8 lineto
stroke
newpath
38497.3 32245.2 moveto
38497.3 32020.3 lineto
stroke
newpath
38947.3 32245.2 moveto
38947.3 32020.3 lineto
stroke
newpath
40690.8 30614.2 moveto
40634.6 30670.4 lineto
40522.1 30839.2 lineto
40465.8 30951.6 lineto
40409.6 31120.4 lineto
40353.4 31401.6 lineto
40353.4 31626.6 lineto
40409.6 31907.8 lineto
40465.8 32076.5 lineto
40522.1 32189 lineto
40634.6 32357.7 lineto
40690.8 32414 lineto
stroke
newpath
41646.9 31851.5 moveto
41646.9 31064.1 lineto
stroke
newpath
41365.7 32301.5 moveto
41084.5 31457.8 lineto
41815.7 31457.8 lineto
stroke
newpath
42490.6 32245.2 moveto
42603.1 32245.2 lineto
42715.6 32189 lineto
42771.8 32132.7 lineto
42828 32020.3 lineto
42884.3 31795.3 lineto
42884.3 31514.1 lineto
42828 31289.1 lineto
42771.8 31176.6 lineto
42715.6 31120.4 lineto
42603.1 31064.1 lineto
42490.6 31064.1 lineto
42378.1 31120.4 lineto
42321.9 31176.6 lineto
42265.6 31289.1 lineto
42209.4 31514.1 lineto
42209.4 31795.3 lineto
42265.6 32020.3 lineto
42321.9 32132.7 lineto
42378.1 32189 lineto
42490.6 32245.2 lineto
stroke
newpath
44290.4 31064.1 moveto
44290.4 32245.2 lineto
stroke
newpath
44796.6 31064.1 moveto
44796.6 31682.8 lineto
44740.3 31795.3 lineto
44627.8 31851.5 lineto
44459.1 31851.5 lineto
44346.6 31795.3 lineto
44290.4 31739 lineto
stroke
newpath
45527.7 31064.1 moveto
45415.2 31120.4 lineto
45359 31176.6 lineto
45302.7 31289.1 lineto
45302.7 31626.6 lineto
45359 31739 lineto
45415.2 31795.3 lineto
45527.7 31851.5 lineto
45696.4 31851.5 lineto
45808.9 31795.3 lineto
45865.2 31739 lineto
45921.4 31626.6 lineto
45921.4 31289.1 lineto
45865.2 31176.6 lineto
45808.9 31120.4 lineto
45696.4 31064.1 lineto
45527.7 31064.1 lineto
stroke
newpath
46596.3 31064.1 moveto
46483.8 31120.4 lineto
46427.6 31232.9 lineto
46427.6 32245.2 lineto
stroke
newpath
47496.2 31120.4 moveto
47383.7 31064.1 lineto
47158.8 31064.1 lineto
47046.3 31120.4 lineto
46990 31232.9 lineto
46990 31682.8 lineto
47046.3 31795.3 lineto
47158.8 31851.5 lineto
47383.7 31851.5 lineto
47496.2 31795.3 lineto
47552.5 31682.8 lineto
47552.5 31570.3 lineto
46990 31457.8 lineto
stroke
newpath
48002.4 31120.4 moveto
48114.9 31064.1 lineto
48339.9 31064.1 lineto
48452.3 31120.4 lineto
48508.6 31232.9 lineto
48508.6 31289.1 lineto
48452.3 31401.6 lineto
48339.9 31457.8 lineto
48171.1 31457.8 lineto
48058.6 31514.1 lineto
48002.4 31626.6 lineto
48002.4 31682.8 lineto
48058.6 31795.3 lineto
48171.1 31851.5 lineto
48339.9 31851.5 lineto
48452.3 31795.3 lineto
stroke
newpath
48902.3 30614.2 moveto
48958.5 30670.4 lineto
49071 30839.2 lineto
49127.3 30951.6 lineto
49183.5 31120.4 lineto
49239.7 31401.6 lineto
49239.7 31626.6 lineto
49183.5 31907.8 lineto
49127.3 32076.5 lineto
49071 32189 lineto
48958.5 32357.7 lineto
48902.3 32414 lineto
stroke
newpath
19341 29255.9 moveto
19990.6 29905.5 lineto
19341 30555.1 lineto
18691.4 29905.5 lineto
19341 29255.9 lineto
poly0
0 0 0 setrgbcolor
0 0 0 setrgbcolor
newpath
21736.9 29371.2 moveto
21062 29371.2 lineto
stroke
newpath
21399.5 29371.2 moveto
21399.5 30552.3 lineto
21287 30383.6 lineto
21174.5 30271.1 lineto
21062 30214.9 lineto
stroke
newpath
22243.1 29483.7 moveto
22299.4 29427.5 lineto
22243.1 29371.2 lineto
22186.9 29427.5 lineto
22243.1 29483.7 lineto
22243.1 29371.2 lineto
stroke
newpath
23424.2 29371.2 moveto
22749.3 29371.2 lineto
stroke
newpath
23086.8 29371.2 moveto
23086.8 30552.3 lineto
22974.3 30383.6 lineto
22861.8 30271.1 lineto
22749.3 30214.9 lineto
stroke
newpath
24155.4 30552.3 moveto
24267.9 30552.3 lineto
24380.4 30496.1 lineto
24436.6 30439.8 lineto
24492.8 30327.3 lineto
24549.1 30102.4 lineto
24549.1 29821.2 lineto
24492.8 29596.2 lineto
24436.6 29483.7 lineto
24380.4 29427.5 lineto
24267.9 29371.2 lineto
24155.4 29371.2 lineto
24042.9 29427.5 lineto
23986.7 29483.7 lineto
23930.4 29596.2 lineto
23874.2 29821.2 lineto
23874.2 30102.4 lineto
23930.4 30327.3 lineto
23986.7 30439.8 lineto
24042.9 30496.1 lineto
24155.4 30552.3 lineto
stroke
newpath
25280.2 30552.3 moveto
25392.7 30552.3 lineto
25505.2 30496.1 lineto
25561.5 30439.8 lineto
25617.7 30327.3 lineto
25673.9 30102.4 lineto
25673.9 29821.2 lineto
25617.7 29596.2 lineto
25561.5 29483.7 lineto
25505.2 29427.5 lineto
25392.7 29371.2 lineto
25280.2 29371.2 lineto
25167.8 29427.5 lineto
25111.5 29483.7 lineto
25055.3 29596.2 lineto
24999 29821.2 lineto
24999 30102.4 lineto
25055.3 30327.3 lineto
25111.5 30439.8 lineto
25167.8 30496.1 lineto
25280.2 30552.3 lineto
stroke
newpath
26180.1 29371.2 moveto
26180.1 30158.6 lineto
stroke
newpath
26180.1 30046.1 moveto
26236.4 30102.4 lineto
26348.9 30158.6 lineto
26517.6 30158.6 lineto
26630.1 30102.4 lineto
26686.3 29989.9 lineto
26686.3 29371.2 lineto
stroke
newpath
26686.3 29989.9 moveto
26742.6 30102.4 lineto
26855 30158.6 lineto
27023.8 30158.6 lineto
27136.3 30102.4 lineto
27192.5 29989.9 lineto
27192.5 29371.2 lineto
stroke
newpath
27754.9 29371.2 moveto
27754.9 30158.6 lineto
stroke
newpath
27754.9 30046.1 moveto
27811.2 30102.4 lineto
27923.7 30158.6 lineto
28092.4 30158.6 lineto
28204.9 30102.4 lineto
28261.1 29989.9 lineto
28261.1 29371.2 lineto
stroke
newpath
28261.1 29989.9 moveto
28317.4 30102.4 lineto
28429.8 30158.6 lineto
28598.6 30158.6 lineto
28711.1 30102.4 lineto
28767.3 29989.9 lineto
28767.3 29371.2 lineto
stroke
newpath
31073.3 30608.6 moveto
30060.9 29090 lineto
stroke
newpath
32591.8 30552.3 moveto
32704.3 30552.3 lineto
32816.8 30496.1 lineto
32873 30439.8 lineto
32929.3 30327.3 lineto
32985.5 30102.4 lineto
32985.5 29821.2 lineto
32929.3 29596.2 lineto
32873 29483.7 lineto
32816.8 29427.5 lineto
32704.3 29371.2 lineto
32591.8 29371.2 lineto
32479.3 29427.5 lineto
32423.1 29483.7 lineto
32366.9 29596.2 lineto
32310.6 29821.2 lineto
32310.6 30102.4 lineto
32366.9 30327.3 lineto
32423.1 30439.8 lineto
32479.3 30496.1 lineto
32591.8 30552.3 lineto
stroke
newpath
33491.7 29483.7 moveto
33548 29427.5 lineto
33491.7 29371.2 lineto
33435.5 29427.5 lineto
33491.7 29483.7 lineto
33491.7 29371.2 lineto
stroke
newpath
34279.1 30552.3 moveto
34391.6 30552.3 lineto
34504.1 30496.1 lineto
34560.3 30439.8 lineto
34616.6 30327.3 lineto
34672.8 30102.4 lineto
34672.8 29821.2 lineto
34616.6 29596.2 lineto
34560.3 29483.7 lineto
34504.1 29427.5 lineto
34391.6 29371.2 lineto
34279.1 29371.2 lineto
34166.6 29427.5 lineto
34110.4 29483.7 lineto
34054.1 29596.2 lineto
33997.9 29821.2 lineto
33997.9 30102.4 lineto
34054.1 30327.3 lineto
34110.4 30439.8 lineto
34166.6 30496.1 lineto
34279.1 30552.3 lineto
stroke
newpath
35685.2 30158.6 moveto
35685.2 29371.2 lineto
stroke
newpath
35404 30608.6 moveto
35122.8 29764.9 lineto
35853.9 29764.9 lineto
stroke
newpath
36191.4 30552.3 moveto
36922.5 30552.3 lineto
36528.8 30102.4 lineto
36697.6 30102.4 lineto
36810 30046.1 lineto
36866.3 29989.9 lineto
36922.5 29877.4 lineto
36922.5 29596.2 lineto
36866.3 29483.7 lineto
36810 29427.5 lineto
36697.6 29371.2 lineto
36360.1 29371.2 lineto
36247.6 29427.5 lineto
36191.4 29483.7 lineto
stroke
newpath
37316.2 30552.3 moveto
38047.4 30552.3 lineto
37653.7 30102.4 lineto
37822.4 30102.4 lineto
37934.9 30046.1 lineto
37991.2 29989.9 lineto
38047.4 29877.4 lineto
38047.4 29596.2 lineto
37991.2 29483.7 lineto
37934.9 29427.5 lineto
37822.4 29371.2 lineto
37485 29371.2 lineto
37372.5 29427.5 lineto
37316.2 29483.7 lineto
stroke
newpath
38497.3 30552.3 moveto
38497.3 30327.3 lineto
stroke
newpath
38947.3 30552.3 moveto
38947.3 30327.3 lineto
stroke
newpath
40690.8 28921.3 moveto
40634.6 28977.5 lineto
40522.1 29146.2 lineto
40465.8 29258.7 lineto
40409.6 29427.5 lineto
40353.4 29708.7 lineto
40353.4 29933.6 lineto
40409.6 30214.9 lineto
40465.8 30383.6 lineto
40522.1 30496.1 lineto
40634.6 30664.8 lineto
40690.8 30721.1 lineto
stroke
newpath
41084.5 30439.8 moveto
41140.8 30496.1 lineto
41253.2 30552.3 lineto
41534.5 30552.3 lineto
41646.9 30496.1 lineto
41703.2 30439.8 lineto
41759.4 30327.3 lineto
41759.4 30214.9 lineto
41703.2 30046.1 lineto
41028.3 29371.2 lineto
41759.4 29371.2 lineto
stroke
newpath
42884.3 29371.2 moveto
42209.4 29371.2 lineto
stroke
newpath
42546.8 29371.2 moveto
42546.8 30552.3 lineto
42434.3 30383.6 lineto
42321.9 30271.1 lineto
42209.4 30214.9 lineto
stroke
newpath
44290.4 29371.2 moveto
44290.4 30552.3 lineto
stroke
newpath
44796.6 29371.2 moveto
44796.6 29989.9 lineto
44740.3 30102.4 lineto
44627.8 30158.6 lineto
44459.1 30158.6 lineto
44346.6 30102.4 lineto
44290.4 30046.1 lineto
stroke
newpath
45527.7 29371.2 moveto
45415.2 29427.5 lineto
45359 29483.7 lineto
45302.7 29596.2 lineto
45302.7 29933.6 lineto
45359 30046.1 lineto
45415.2 30102.4 lineto
45527.7 30158.6 lineto
45696.4 30158.6 lineto
45808.9 30102.4 lineto
45865.2 30046.1 lineto
45921.4 29933.6 lineto
45921.4 29596.2 lineto
45865.2 29483.7 lineto
45808.9 29427.5 lineto
45696.4 29371.2 lineto
45527.7 29371.2 lineto
stroke
newpath
46596.3 29371.2 moveto
46483.8 29427.5 lineto
46427.6 29539.9 lineto
46427.6 30552.3 lineto
stroke
newpath
47496.2 29427.5 moveto
47383.7 29371.2 lineto
47158.8 29371.2 lineto
47046.3 29427.5 lineto
46990 29539.9 lineto
46990 29989.9 lineto
47046.3 30102.4 lineto
47158.8 30158.6 lineto
47383.7 30158.6 lineto
47496.2 30102.4 lineto
47552.5 29989.9 lineto
47552.5 29877.4 lineto
46990 29764.9 lineto
stroke
newpath
48002.4 29427.5 moveto
48114.9 29371.2 lineto
48339.9 29371.2 lineto
48452.3 29427.5 lineto
48508.6 29539.9 lineto
48508.6 29596.2 lineto
48452.3 29708.7 lineto
48339.9 29764.9 lineto
48171.1 29764.9 lineto
48058.6 29821.2 lineto
48002.4 29933.6 lineto
48002.4 29989.9 lineto
48058.6 30102.4 lineto
48171.1 30158.6 lineto
48339.9 30158.6 lineto
48452.3 30102.4 lineto
stroke
newpath
48902.3 28921.3 moveto
48958.5 28977.5 lineto
49071 29146.2 lineto
49127.3 29258.7 lineto
49183.5 29427.5 lineto
49239.7 29708.7 lineto
49239.7 29933.6 lineto
49183.5 30214.9 lineto
49127.3 30383.6 lineto
49071 30496.1 lineto
48958.5 30664.8 lineto
48902.3 30721.1 lineto
stroke
newpath
18337 28921.3 moveto
19990.6 27267.7 lineto
stroke
newpath
19990.6 28921.3 moveto
18337 27267.7 lineto
stroke
19163.8 28094.5 826.772 cir0
0 0 0 setrgbcolor
0 0 0 setrgbcolor
newpath
21736.9 27560.2 moveto
21062 27560.2 lineto
stroke
newpath
21399.5 27560.2 moveto
21399.5 28741.3 lineto
21287 28572.6 lineto
21174.5 28460.1 lineto
21062 28403.8 lineto
stroke
newpath
22243.1 27672.7 moveto
22299.4 27616.4 lineto
22243.1 27560.2 lineto
22186.9 27616.4 lineto
22243.1 27672.7 lineto
22243.1 27560.2 lineto
stroke
newpath
23311.7 28347.6 moveto
23311.7 27560.2 lineto
stroke
newpath
23030.5 28797.5 moveto
22749.3 27953.9 lineto
23480.5 27953.9 lineto
stroke
newpath
24155.4 28741.3 moveto
24267.9 28741.3 lineto
24380.4 28685.1 lineto
24436.6 28628.8 lineto
24492.8 28516.3 lineto
24549.1 28291.4 lineto
24549.1 28010.1 lineto
24492.8 27785.2 lineto
24436.6 27672.7 lineto
24380.4 27616.4 lineto
24267.9 27560.2 lineto
24155.4 27560.2 lineto
24042.9 27616.4 lineto
23986.7 27672.7 lineto
23930.4 27785.2 lineto
23874.2 28010.1 lineto
23874.2 28291.4 lineto
23930.4 28516.3 lineto
23986.7 28628.8 lineto
24042.9 28685.1 lineto
24155.4 28741.3 lineto
stroke
newpath
25280.2 28741.3 moveto
25392.7 28741.3 lineto
25505.2 28685.1 lineto
25561.5 28628.8 lineto
25617.7 28516.3 lineto
25673.9 28291.4 lineto
25673.9 28010.1 lineto
25617.7 27785.2 lineto
25561.5 27672.7 lineto
25505.2 27616.4 lineto
25392.7 27560.2 lineto
25280.2 27560.2 lineto
25167.8 27616.4 lineto
25111.5 27672.7 lineto
25055.3 27785.2 lineto
24999 28010.1 lineto
24999 28291.4 lineto
25055.3 28516.3 lineto
25111.5 28628.8 lineto
25167.8 28685.1 lineto
25280.2 28741.3 lineto
stroke
newpath
26180.1 27560.2 moveto
26180.1 28347.6 lineto
stroke
newpath
26180.1 28235.1 moveto
26236.4 28291.4 lineto
26348.9 28347.6 lineto
26517.6 28347.6 lineto
26630.1 28291.4 lineto
26686.3 28178.9 lineto
26686.3 27560.2 lineto
stroke
newpath
26686.3 28178.9 moveto
26742.6 28291.4 lineto
26855 28347.6 lineto
27023.8 28347.6 lineto
27136.3 28291.4 lineto
27192.5 28178.9 lineto
27192.5 27560.2 lineto
stroke
newpath
27754.9 27560.2 moveto
27754.9 28347.6 lineto
stroke
newpath
27754.9 28235.1 moveto
27811.2 28291.4 lineto
27923.7 28347.6 lineto
28092.4 28347.6 lineto
28204.9 28291.4 lineto
28261.1 28178.9 lineto
28261.1 27560.2 lineto
stroke
newpath
28261.1 28178.9 moveto
28317.4 28291.4 lineto
28429.8 28347.6 lineto
28598.6 28347.6 lineto
28711.1 28291.4 lineto
28767.3 28178.9 lineto
28767.3 27560.2 lineto
stroke
newpath
31073.3 28797.5 moveto
30060.9 27279 lineto
stroke
newpath
32591.8 28741.3 moveto
32704.3 28741.3 lineto
32816.8 28685.1 lineto
32873 28628.8 lineto
32929.3 28516.3 lineto
32985.5 28291.4 lineto
32985.5 28010.1 lineto
32929.3 27785.2 lineto
32873 27672.7 lineto
32816.8 27616.4 lineto
32704.3 27560.2 lineto
32591.8 27560.2 lineto
32479.3 27616.4 lineto
32423.1 27672.7 lineto
32366.9 27785.2 lineto
32310.6 28010.1 lineto
32310.6 28291.4 lineto
32366.9 28516.3 lineto
32423.1 28628.8 lineto
32479.3 28685.1 lineto
32591.8 28741.3 lineto
stroke
newpath
33491.7 27672.7 moveto
33548 27616.4 lineto
33491.7 27560.2 lineto
33435.5 27616.4 lineto
33491.7 27672.7 lineto
33491.7 27560.2 lineto
stroke
newpath
34279.1 28741.3 moveto
34391.6 28741.3 lineto
34504.1 28685.1 lineto
34560.3 28628.8 lineto
34616.6 28516.3 lineto
34672.8 28291.4 lineto
34672.8 28010.1 lineto
34616.6 27785.2 lineto
34560.3 27672.7 lineto
34504.1 27616.4 lineto
34391.6 27560.2 lineto
34279.1 27560.2 lineto
34166.6 27616.4 lineto
34110.4 27672.7 lineto
34054.1 27785.2 lineto
33997.9 28010.1 lineto
33997.9 28291.4 lineto
34054.1 28516.3 lineto
34110.4 28628.8 lineto
34166.6 28685.1 lineto
34279.1 28741.3 lineto
stroke
newpath
35741.4 28741.3 moveto
35179 28741.3 lineto
35122.8 28178.9 lineto
35179 28235.1 lineto
35291.5 28291.4 lineto
35572.7 28291.4 lineto
35685.2 28235.1 lineto
35741.4 28178.9 lineto
35797.7 28066.4 lineto
35797.7 27785.2 lineto
35741.4 27672.7 lineto
35685.2 27616.4 lineto
35572.7 27560.2 lineto
35291.5 27560.2 lineto
35179 27616.4 lineto
35122.8 27672.7 lineto
stroke
newpath
36866.3 28741.3 moveto
36303.9 28741.3 lineto
36247.6 28178.9 lineto
36303.9 28235.1 lineto
36416.3 28291.4 lineto
36697.6 28291.4 lineto
36810 28235.1 lineto
36866.3 28178.9 lineto
36922.5 28066.4 lineto
36922.5 27785.2 lineto
36866.3 27672.7 lineto
36810 27616.4 lineto
36697.6 27560.2 lineto
36416.3 27560.2 lineto
36303.9 27616.4 lineto
36247.6 27672.7 lineto
stroke
newpath
38047.4 27560.2 moveto
37372.5 27560.2 lineto
stroke
newpath
37709.9 27560.2 moveto
37709.9 28741.3 lineto
37597.5 28572.6 lineto
37485 28460.1 lineto
37372.5 28403.8 lineto
stroke
newpath
38497.3 28741.3 moveto
38497.3 28516.3 lineto
stroke
newpath
38947.3 28741.3 moveto
38947.3 28516.3 lineto
stroke
newpath
40690.8 27110.3 moveto
40634.6 27166.5 lineto
40522.1 27335.2 lineto
40465.8 27447.7 lineto
40409.6 27616.4 lineto
40353.4 27897.7 lineto
40353.4 28122.6 lineto
40409.6 28403.8 lineto
40465.8 28572.6 lineto
40522.1 28685.1 lineto
40634.6 28853.8 lineto
40690.8 28910 lineto
stroke
newpath
41646.9 28347.6 moveto
41646.9 27560.2 lineto
stroke
newpath
41365.7 28797.5 moveto
41084.5 27953.9 lineto
41815.7 27953.9 lineto
stroke
newpath
43165.5 27560.2 moveto
43165.5 28741.3 lineto
stroke
newpath
43671.7 27560.2 moveto
43671.7 28178.9 lineto
43615.4 28291.4 lineto
43503 28347.6 lineto
43334.2 28347.6 lineto
43221.7 28291.4 lineto
43165.5 28235.1 lineto
stroke
newpath
44402.8 27560.2 moveto
44290.4 27616.4 lineto
44234.1 27672.7 lineto
44177.9 27785.2 lineto
44177.9 28122.6 lineto
44234.1 28235.1 lineto
44290.4 28291.4 lineto
44402.8 28347.6 lineto
44571.6 28347.6 lineto
44684.1 28291.4 lineto
44740.3 28235.1 lineto
44796.6 28122.6 lineto
44796.6 27785.2 lineto
44740.3 27672.7 lineto
44684.1 27616.4 lineto
44571.6 27560.2 lineto
44402.8 27560.2 lineto
stroke
newpath
45471.5 27560.2 moveto
45359 27616.4 lineto
45302.7 27728.9 lineto
45302.7 28741.3 lineto
stroke
newpath
46371.4 27616.4 moveto
46258.9 27560.2 lineto
46033.9 27560.2 lineto
45921.4 27616.4 lineto
45865.2 27728.9 lineto
45865.2 28178.9 lineto
45921.4 28291.4 lineto
46033.9 28347.6 lineto
46258.9 28347.6 lineto
46371.4 28291.4 lineto
46427.6 28178.9 lineto
46427.6 28066.4 lineto
45865.2 27953.9 lineto
stroke
newpath
46877.5 27616.4 moveto
46990 27560.2 lineto
47215 27560.2 lineto
47327.5 27616.4 lineto
47383.7 27728.9 lineto
47383.7 27785.2 lineto
47327.5 27897.7 lineto
47215 27953.9 lineto
47046.3 27953.9 lineto
46933.8 28010.1 lineto
46877.5 28122.6 lineto
46877.5 28178.9 lineto
46933.8 28291.4 lineto
47046.3 28347.6 lineto
47215 28347.6 lineto
47327.5 28291.4 lineto
stroke
newpath
47777.4 27110.3 moveto
47833.7 27166.5 lineto
47946.2 27335.2 lineto
48002.4 27447.7 lineto
48058.6 27616.4 lineto
48114.9 27897.7 lineto
48114.9 28122.6 lineto
48058.6 28403.8 lineto
48002.4 28572.6 lineto
47946.2 28685.1 lineto
47833.7 28853.8 lineto
47777.4 28910 lineto
stroke
newpath
17982.7 26933.1 moveto
19990.6 24925.2 lineto
stroke
newpath
19990.6 26933.1 moveto
17982.7 24925.2 lineto
stroke
newpath
18986.7 26933.1 moveto
18986.7 24925.2 lineto
stroke
newpath
17982.7 25929.2 moveto
19990.6 25929.2 lineto
stroke
0 0 0 setrgbcolor
0 0 0 setrgbcolor
newpath
21736.9 25394.8 moveto
21062 25394.8 lineto
stroke
newpath
21399.5 25394.8 moveto
21399.5 26575.9 lineto
21287 26407.2 lineto
21174.5 26294.7 lineto
21062 26238.5 lineto
stroke
newpath
22243.1 25507.3 moveto
22299.4 25451.1 lineto
22243.1 25394.8 lineto
22186.9 25451.1 lineto
22243.1 25507.3 lineto
22243.1 25394.8 lineto
stroke
newpath
22693.1 26575.9 moveto
23480.5 26575.9 lineto
22974.3 25394.8 lineto
stroke
newpath
24155.4 26575.9 moveto
24267.9 26575.9 lineto
24380.4 26519.7 lineto
24436.6 26463.5 lineto
24492.8 26351 lineto
24549.1 26126 lineto
24549.1 25844.8 lineto
24492.8 25619.8 lineto
24436.6 25507.3 lineto
24380.4 25451.1 lineto
24267.9 25394.8 lineto
24155.4 25394.8 lineto
24042.9 25451.1 lineto
23986.7 25507.3 lineto
23930.4 25619.8 lineto
23874.2 25844.8 lineto
23874.2 26126 lineto
23930.4 26351 lineto
23986.7 26463.5 lineto
24042.9 26519.7 lineto
24155.4 26575.9 lineto
stroke
newpath
25280.2 26575.9 moveto
25392.7 26575.9 lineto
25505.2 26519.7 lineto
25561.5 26463.5 lineto
25617.7 26351 lineto
25673.9 26126 lineto
25673.9 25844.8 lineto
25617.7 25619.8 lineto
25561.5 25507.3 lineto
25505.2 25451.1 lineto
25392.7 25394.8 lineto
25280.2 25394.8 lineto
25167.8 25451.1 lineto
25111.5 25507.3 lineto
25055.3 25619.8 lineto
24999 25844.8 lineto
24999 26126 lineto
25055.3 26351 lineto
25111.5 26463.5 lineto
25167.8 26519.7 lineto
25280.2 26575.9 lineto
stroke
newpath
26180.1 25394.8 moveto
26180.1 26182.2 lineto
stroke
newpath
26180.1 26069.8 moveto
26236.4 26126 lineto
26348.9 26182.2 lineto
26517.6 26182.2 lineto
26630.1 26126 lineto
26686.3 26013.5 lineto
26686.3 25394.8 lineto
stroke
newpath
26686.3 26013.5 moveto
26742.6 26126 lineto
26855 26182.2 lineto
27023.8 26182.2 lineto
27136.3 26126 lineto
27192.5 26013.5 lineto
27192.5 25394.8 lineto
stroke
newpath
27754.9 25394.8 moveto
27754.9 26182.2 lineto
stroke
newpath
27754.9 26069.8 moveto
27811.2 26126 lineto
27923.7 26182.2 lineto
28092.4 26182.2 lineto
28204.9 26126 lineto
28261.1 26013.5 lineto
28261.1 25394.8 lineto
stroke
newpath
28261.1 26013.5 moveto
28317.4 26126 lineto
28429.8 26182.2 lineto
28598.6 26182.2 lineto
28711.1 26126 lineto
28767.3 26013.5 lineto
28767.3 25394.8 lineto
stroke
newpath
31073.3 26632.2 moveto
30060.9 25113.6 lineto
stroke
newpath
32591.8 26575.9 moveto
32704.3 26575.9 lineto
32816.8 26519.7 lineto
32873 26463.5 lineto
32929.3 26351 lineto
32985.5 26126 lineto
32985.5 25844.8 lineto
32929.3 25619.8 lineto
32873 25507.3 lineto
32816.8 25451.1 lineto
32704.3 25394.8 lineto
32591.8 25394.8 lineto
32479.3 25451.1 lineto
32423.1 25507.3 lineto
32366.9 25619.8 lineto
32310.6 25844.8 lineto
32310.6 26126 lineto
32366.9 26351 lineto
32423.1 26463.5 lineto
32479.3 26519.7 lineto
32591.8 26575.9 lineto
stroke
newpath
33491.7 25507.3 moveto
33548 25451.1 lineto
33491.7 25394.8 lineto
33435.5 25451.1 lineto
33491.7 25507.3 lineto
33491.7 25394.8 lineto
stroke
newpath
34279.1 26575.9 moveto
34391.6 26575.9 lineto
34504.1 26519.7 lineto
34560.3 26463.5 lineto
34616.6 26351 lineto
34672.8 26126 lineto
34672.8 25844.8 lineto
34616.6 25619.8 lineto
34560.3 25507.3 lineto
34504.1 25451.1 lineto
34391.6 25394.8 lineto
34279.1 25394.8 lineto
34166.6 25451.1 lineto
34110.4 25507.3 lineto
34054.1 25619.8 lineto
33997.9 25844.8 lineto
33997.9 26126 lineto
34054.1 26351 lineto
34110.4 26463.5 lineto
34166.6 26519.7 lineto
34279.1 26575.9 lineto
stroke
newpath
35685.2 26575.9 moveto
35460.2 26575.9 lineto
35347.7 26519.7 lineto
35291.5 26463.5 lineto
35179 26294.7 lineto
35122.8 26069.8 lineto
35122.8 25619.8 lineto
35179 25507.3 lineto
35235.2 25451.1 lineto
35347.7 25394.8 lineto
35572.7 25394.8 lineto
35685.2 25451.1 lineto
35741.4 25507.3 lineto
35797.7 25619.8 lineto
35797.7 25901 lineto
35741.4 26013.5 lineto
35685.2 26069.8 lineto
35572.7 26126 lineto
35347.7 26126 lineto
35235.2 26069.8 lineto
35179 26013.5 lineto
35122.8 25901 lineto
stroke
newpath
36810 26575.9 moveto
36585.1 26575.9 lineto
36472.6 26519.7 lineto
36416.3 26463.5 lineto
36303.9 26294.7 lineto
36247.6 26069.8 lineto
36247.6 25619.8 lineto
36303.9 25507.3 lineto
36360.1 25451.1 lineto
36472.6 25394.8 lineto
36697.6 25394.8 lineto
36810 25451.1 lineto
36866.3 25507.3 lineto
36922.5 25619.8 lineto
36922.5 25901 lineto
36866.3 26013.5 lineto
36810 26069.8 lineto
36697.6 26126 lineto
36472.6 26126 lineto
36360.1 26069.8 lineto
36303.9 26013.5 lineto
36247.6 25901 lineto
stroke
newpath
37485 25394.8 moveto
37709.9 25394.8 lineto
37822.4 25451.1 lineto
37878.7 25507.3 lineto
37991.2 25676.1 lineto
38047.4 25901 lineto
38047.4 26351 lineto
37991.2 26463.5 lineto
37934.9 26519.7 lineto
37822.4 26575.9 lineto
37597.5 26575.9 lineto
37485 26519.7 lineto
37428.7 26463.5 lineto
37372.5 26351 lineto
37372.5 26069.8 lineto
37428.7 25957.3 lineto
37485 25901 lineto
37597.5 25844.8 lineto
37822.4 25844.8 lineto
37934.9 25901 lineto
37991.2 25957.3 lineto
38047.4 26069.8 lineto
stroke
newpath
38497.3 26575.9 moveto
38497.3 26351 lineto
stroke
newpath
38947.3 26575.9 moveto
38947.3 26351 lineto
stroke
newpath
40690.8 24944.9 moveto
40634.6 25001.1 lineto
40522.1 25169.9 lineto
40465.8 25282.4 lineto
40409.6 25451.1 lineto
40353.4 25732.3 lineto
40353.4 25957.3 lineto
40409.6 26238.5 lineto
40465.8 26407.2 lineto
40522.1 26519.7 lineto
40634.6 26688.4 lineto
40690.8 26744.7 lineto
stroke
newpath
41084.5 26463.5 moveto
41140.8 26519.7 lineto
41253.2 26575.9 lineto
41534.5 26575.9 lineto
41646.9 26519.7 lineto
41703.2 26463.5 lineto
41759.4 26351 lineto
41759.4 26238.5 lineto
41703.2 26069.8 lineto
41028.3 25394.8 lineto
41759.4 25394.8 lineto
stroke
newpath
43165.5 25394.8 moveto
43165.5 26575.9 lineto
stroke
newpath
43671.7 25394.8 moveto
43671.7 26013.5 lineto
43615.4 26126 lineto
43503 26182.2 lineto
43334.2 26182.2 lineto
43221.7 26126 lineto
43165.5 26069.8 lineto
stroke
newpath
44402.8 25394.8 moveto
44290.4 25451.1 lineto
44234.1 25507.3 lineto
44177.9 25619.8 lineto
44177.9 25957.3 lineto
44234.1 26069.8 lineto
44290.4 26126 lineto
44402.8 26182.2 lineto
44571.6 26182.2 lineto
44684.1 26126 lineto
44740.3 26069.8 lineto
44796.6 25957.3 lineto
44796.6 25619.8 lineto
44740.3 25507.3 lineto
44684.1 25451.1 lineto
44571.6 25394.8 lineto
44402.8 25394.8 lineto
stroke
newpath
45471.5 25394.8 moveto
45359 25451.1 lineto
45302.7 25563.6 lineto
45302.7 26575.9 lineto
stroke
newpath
46371.4 25451.1 moveto
46258.9 25394.8 lineto
46033.9 25394.8 lineto
45921.4 25451.1 lineto
45865.2 25563.6 lineto
45865.2 26013.5 lineto
45921.4 26126 lineto
46033.9 26182.2 lineto
46258.9 26182.2 lineto
46371.4 26126 lineto
46427.6 26013.5 lineto
46427.6 25901 lineto
45865.2 25788.5 lineto
stroke
newpath
46877.5 25451.1 moveto
46990 25394.8 lineto
47215 25394.8 lineto
47327.5 25451.1 lineto
47383.7 25563.6 lineto
47383.7 25619.8 lineto
47327.5 25732.3 lineto
47215 25788.5 lineto
47046.3 25788.5 lineto
46933.8 25844.8 lineto
46877.5 25957.3 lineto
46877.5 26013.5 lineto
46933.8 26126 lineto
47046.3 26182.2 lineto
47215 26182.2 lineto
47327.5 26126 lineto
stroke
newpath
47777.4 24944.9 moveto
47833.7 25001.1 lineto
47946.2 25169.9 lineto
48002.4 25282.4 lineto
48058.6 25451.1 lineto
48114.9 25732.3 lineto
48114.9 25957.3 lineto
48058.6 26238.5 lineto
48002.4 26407.2 lineto
47946.2 26519.7 lineto
47833.7 26688.4 lineto
47777.4 26744.7 lineto
stroke
showpage
grestore
%%EOF
