%!PS-Adobe-3.0
%%Creator: PCBNEW
%%CreationDate: Sat Jun 12 09:16:52 2021
%%Title: /home/kalm_421/EEE3088F_Group_7_PCB/raspberrypi_zerow_uhat/EEE3088F_Group_7_PCB-NPTH-drl_map.ps
%%Pages: 1
%%PageOrder: Ascend
%%BoundingBox: 0 0 596 842
%%DocumentMedia: A4 595 842 0 () ()
%%Orientation: Landscape
%%EndComments
%%BeginProlog
/line { newpath moveto lineto stroke } bind def
/cir0 { newpath 0 360 arc stroke } bind def
/cir1 { newpath 0 360 arc gsave fill grestore stroke } bind def
/cir2 { newpath 0 360 arc gsave fill grestore stroke } bind def
/arc0 { newpath arc stroke } bind def
/arc1 { newpath 4 index 4 index moveto arc closepath gsave fill
    grestore stroke } bind def
/arc2 { newpath 4 index 4 index moveto arc closepath gsave fill
    grestore stroke } bind def
/poly0 { stroke } bind def
/poly1 { closepath gsave fill grestore stroke } bind def
/poly2 { closepath gsave fill grestore stroke } bind def
/rect0 { rectstroke } bind def
/rect1 { rectfill } bind def
/rect2 { rectfill } bind def
/linemode0 { 0 setlinecap 0 setlinejoin 0 setlinewidth } bind def
/linemode1 { 1 setlinecap 1 setlinejoin } bind def
/dashedline { [200] 100 setdash } bind def
/solidline { [] 0 setdash } bind def
/phantomshow { moveto
    /KicadFont findfont 0.000001 scalefont setfont
    show } bind def
/textshow { gsave
    findfont exch scalefont setfont concat 1 scale 0 0 moveto show
    } bind def
/reencodefont {
  findfont dup length dict begin
  { 1 index /FID ne
    { def }
    { pop pop } ifelse
  } forall
  /Encoding ISOLatin1Encoding def
  currentdict
  end } bind def
/KicadFont /Helvetica reencodefont definefont pop
/KicadFont-Bold /Helvetica-Bold reencodefont definefont pop
/KicadFont-Oblique /Helvetica-Oblique reencodefont definefont pop
/KicadFont-BoldOblique /Helvetica-BoldOblique reencodefont definefont pop
%%EndProlog
%%Page: 1 1
%%BeginPageSetup
gsave
0.0072 0.0072 scale
linemode1
82680 0 translate 90 rotate
150 setlinewidth
%%EndPageSetup
0 0 0 setrgbcolor
177.165 setlinewidth
newpath
24213 40159.5 moveto
23622.5 40159.5 lineto
stroke
0 0 0 setrgbcolor
newpath
92717 40159.5 moveto
93307.5 40159.5 lineto
stroke
0 0 0 setrgbcolor
newpath
96850.8 72049.2 moveto
96850.8 43702.8 lineto
stroke
0 0 0 setrgbcolor
newpath
23622.5 75592.5 moveto
93307.5 75592.5 lineto
stroke
0 0 0 setrgbcolor
newpath
20079.2 43702.8 moveto
20079.2 72049.2 lineto
stroke
0 0 0 setrgbcolor
23622.5 72049.2 3543.31 90 180 arc0
0 0 0 setrgbcolor
23622.5 43702.8 3543.31 180 270 arc0
0 0 0 setrgbcolor
93307.5 43702.8 3543.31 -90 -0 arc0
0 0 0 setrgbcolor
93307.5 72049.2 3543.31 -0 90 arc0
0 0 0 setrgbcolor
newpath
24213 40159.5 moveto
92717 40159.5 lineto
stroke
78.7394 setlinewidth
newpath
22618.5 73053.2 moveto
25807.5 69864.2 lineto
stroke
newpath
25807.5 73053.2 moveto
22618.5 69864.2 lineto
stroke
newpath
22618.5 45887.8 moveto
25807.5 42698.8 lineto
stroke
newpath
25807.5 45887.8 moveto
22618.5 42698.8 lineto
stroke
newpath
91122.5 73053.2 moveto
94311.5 69864.2 lineto
stroke
newpath
94311.5 73053.2 moveto
91122.5 69864.2 lineto
stroke
newpath
91122.5 45887.8 moveto
94311.5 42698.8 lineto
stroke
newpath
94311.5 45887.8 moveto
91122.5 42698.8 lineto
stroke
118.11 setlinewidth
0 0 0 setrgbcolor
0 0 0 setrgbcolor
newpath
21118.3 38237.4 moveto
21118.3 39418.5 lineto
21399.5 39418.5 lineto
21568.2 39362.2 lineto
21680.7 39249.7 lineto
21736.9 39137.2 lineto
21793.2 38912.3 lineto
21793.2 38743.5 lineto
21736.9 38518.6 lineto
21680.7 38406.1 lineto
21568.2 38293.6 lineto
21399.5 38237.4 lineto
21118.3 38237.4 lineto
stroke
newpath
22299.4 38237.4 moveto
22299.4 39024.8 lineto
stroke
newpath
22299.4 38799.8 moveto
22355.6 38912.3 lineto
22411.8 38968.5 lineto
22524.3 39024.8 lineto
22636.8 39024.8 lineto
stroke
newpath
23030.5 38237.4 moveto
23030.5 39024.8 lineto
stroke
newpath
23030.5 39418.5 moveto
22974.3 39362.2 lineto
23030.5 39306 lineto
23086.8 39362.2 lineto
23030.5 39418.5 lineto
23030.5 39306 lineto
stroke
newpath
23761.7 38237.4 moveto
23649.2 38293.6 lineto
23593 38406.1 lineto
23593 39418.5 lineto
stroke
newpath
24380.4 38237.4 moveto
24267.9 38293.6 lineto
24211.6 38406.1 lineto
24211.6 39418.5 lineto
stroke
newpath
25730.2 38237.4 moveto
25730.2 39418.5 lineto
26123.9 38574.8 lineto
26517.6 39418.5 lineto
26517.6 38237.4 lineto
stroke
newpath
27586.2 38237.4 moveto
27586.2 38856 lineto
27530 38968.5 lineto
27417.5 39024.8 lineto
27192.5 39024.8 lineto
27080 38968.5 lineto
stroke
newpath
27586.2 38293.6 moveto
27473.7 38237.4 lineto
27192.5 38237.4 lineto
27080 38293.6 lineto
27023.8 38406.1 lineto
27023.8 38518.6 lineto
27080 38631.1 lineto
27192.5 38687.3 lineto
27473.7 38687.3 lineto
27586.2 38743.5 lineto
stroke
newpath
28148.6 39024.8 moveto
28148.6 37843.7 lineto
stroke
newpath
28148.6 38968.5 moveto
28261.1 39024.8 lineto
28486.1 39024.8 lineto
28598.6 38968.5 lineto
28654.8 38912.3 lineto
28711.1 38799.8 lineto
28711.1 38462.3 lineto
28654.8 38349.8 lineto
28598.6 38293.6 lineto
28486.1 38237.4 lineto
28261.1 38237.4 lineto
28148.6 38293.6 lineto
stroke
newpath
29217.2 38349.8 moveto
29273.5 38293.6 lineto
29217.2 38237.4 lineto
29161 38293.6 lineto
29217.2 38349.8 lineto
29217.2 38237.4 lineto
stroke
newpath
29217.2 38968.5 moveto
29273.5 38912.3 lineto
29217.2 38856 lineto
29161 38912.3 lineto
29217.2 38968.5 lineto
29217.2 38856 lineto
stroke
newpath
16801.6 37885.8 moveto
19990.6 34696.9 lineto
stroke
newpath
19990.6 37885.8 moveto
16801.6 34696.9 lineto
stroke
0 0 0 setrgbcolor
0 0 0 setrgbcolor
newpath
21062 36825.7 moveto
21118.3 36881.9 lineto
21230.7 36938.1 lineto
21512 36938.1 lineto
21624.4 36881.9 lineto
21680.7 36825.7 lineto
21736.9 36713.2 lineto
21736.9 36600.7 lineto
21680.7 36432 lineto
21005.8 35757 lineto
21736.9 35757 lineto
stroke
newpath
22243.1 35869.5 moveto
22299.4 35813.3 lineto
22243.1 35757 lineto
22186.9 35813.3 lineto
22243.1 35869.5 lineto
22243.1 35757 lineto
stroke
newpath
22693.1 36938.1 moveto
23480.5 36938.1 lineto
22974.3 35757 lineto
stroke
newpath
24155.4 36938.1 moveto
24267.9 36938.1 lineto
24380.4 36881.9 lineto
24436.6 36825.7 lineto
24492.8 36713.2 lineto
24549.1 36488.2 lineto
24549.1 36207 lineto
24492.8 35982 lineto
24436.6 35869.5 lineto
24380.4 35813.3 lineto
24267.9 35757 lineto
24155.4 35757 lineto
24042.9 35813.3 lineto
23986.7 35869.5 lineto
23930.4 35982 lineto
23874.2 36207 lineto
23874.2 36488.2 lineto
23930.4 36713.2 lineto
23986.7 36825.7 lineto
24042.9 36881.9 lineto
24155.4 36938.1 lineto
stroke
newpath
25280.2 36938.1 moveto
25392.7 36938.1 lineto
25505.2 36881.9 lineto
25561.5 36825.7 lineto
25617.7 36713.2 lineto
25673.9 36488.2 lineto
25673.9 36207 lineto
25617.7 35982 lineto
25561.5 35869.5 lineto
25505.2 35813.3 lineto
25392.7 35757 lineto
25280.2 35757 lineto
25167.8 35813.3 lineto
25111.5 35869.5 lineto
25055.3 35982 lineto
24999 36207 lineto
24999 36488.2 lineto
25055.3 36713.2 lineto
25111.5 36825.7 lineto
25167.8 36881.9 lineto
25280.2 36938.1 lineto
stroke
newpath
26180.1 35757 moveto
26180.1 36544.4 lineto
stroke
newpath
26180.1 36432 moveto
26236.4 36488.2 lineto
26348.9 36544.4 lineto
26517.6 36544.4 lineto
26630.1 36488.2 lineto
26686.3 36375.7 lineto
26686.3 35757 lineto
stroke
newpath
26686.3 36375.7 moveto
26742.6 36488.2 lineto
26855 36544.4 lineto
27023.8 36544.4 lineto
27136.3 36488.2 lineto
27192.5 36375.7 lineto
27192.5 35757 lineto
stroke
newpath
27754.9 35757 moveto
27754.9 36544.4 lineto
stroke
newpath
27754.9 36432 moveto
27811.2 36488.2 lineto
27923.7 36544.4 lineto
28092.4 36544.4 lineto
28204.9 36488.2 lineto
28261.1 36375.7 lineto
28261.1 35757 lineto
stroke
newpath
28261.1 36375.7 moveto
28317.4 36488.2 lineto
28429.8 36544.4 lineto
28598.6 36544.4 lineto
28711.1 36488.2 lineto
28767.3 36375.7 lineto
28767.3 35757 lineto
stroke
newpath
31073.3 36994.4 moveto
30060.9 35475.8 lineto
stroke
newpath
32591.8 36938.1 moveto
32704.3 36938.1 lineto
32816.8 36881.9 lineto
32873 36825.7 lineto
32929.3 36713.2 lineto
32985.5 36488.2 lineto
32985.5 36207 lineto
32929.3 35982 lineto
32873 35869.5 lineto
32816.8 35813.3 lineto
32704.3 35757 lineto
32591.8 35757 lineto
32479.3 35813.3 lineto
32423.1 35869.5 lineto
32366.9 35982 lineto
32310.6 36207 lineto
32310.6 36488.2 lineto
32366.9 36713.2 lineto
32423.1 36825.7 lineto
32479.3 36881.9 lineto
32591.8 36938.1 lineto
stroke
newpath
33491.7 35869.5 moveto
33548 35813.3 lineto
33491.7 35757 lineto
33435.5 35813.3 lineto
33491.7 35869.5 lineto
33491.7 35757 lineto
stroke
newpath
34672.8 35757 moveto
33997.9 35757 lineto
stroke
newpath
34335.4 35757 moveto
34335.4 36938.1 lineto
34222.9 36769.4 lineto
34110.4 36656.9 lineto
33997.9 36600.7 lineto
stroke
newpath
35404 36938.1 moveto
35516.5 36938.1 lineto
35628.9 36881.9 lineto
35685.2 36825.7 lineto
35741.4 36713.2 lineto
35797.7 36488.2 lineto
35797.7 36207 lineto
35741.4 35982 lineto
35685.2 35869.5 lineto
35628.9 35813.3 lineto
35516.5 35757 lineto
35404 35757 lineto
35291.5 35813.3 lineto
35235.2 35869.5 lineto
35179 35982 lineto
35122.8 36207 lineto
35122.8 36488.2 lineto
35179 36713.2 lineto
35235.2 36825.7 lineto
35291.5 36881.9 lineto
35404 36938.1 lineto
stroke
newpath
36810 36938.1 moveto
36585.1 36938.1 lineto
36472.6 36881.9 lineto
36416.3 36825.7 lineto
36303.9 36656.9 lineto
36247.6 36432 lineto
36247.6 35982 lineto
36303.9 35869.5 lineto
36360.1 35813.3 lineto
36472.6 35757 lineto
36697.6 35757 lineto
36810 35813.3 lineto
36866.3 35869.5 lineto
36922.5 35982 lineto
36922.5 36263.2 lineto
36866.3 36375.7 lineto
36810 36432 lineto
36697.6 36488.2 lineto
36472.6 36488.2 lineto
36360.1 36432 lineto
36303.9 36375.7 lineto
36247.6 36263.2 lineto
stroke
newpath
37316.2 36938.1 moveto
38047.4 36938.1 lineto
37653.7 36488.2 lineto
37822.4 36488.2 lineto
37934.9 36432 lineto
37991.2 36375.7 lineto
38047.4 36263.2 lineto
38047.4 35982 lineto
37991.2 35869.5 lineto
37934.9 35813.3 lineto
37822.4 35757 lineto
37485 35757 lineto
37372.5 35813.3 lineto
37316.2 35869.5 lineto
stroke
newpath
38497.3 36938.1 moveto
38497.3 36713.2 lineto
stroke
newpath
38947.3 36938.1 moveto
38947.3 36713.2 lineto
stroke
newpath
40690.8 35307.1 moveto
40634.6 35363.3 lineto
40522.1 35532.1 lineto
40465.8 35644.6 lineto
40409.6 35813.3 lineto
40353.4 36094.5 lineto
40353.4 36319.5 lineto
40409.6 36600.7 lineto
40465.8 36769.4 lineto
40522.1 36881.9 lineto
40634.6 37050.6 lineto
40690.8 37106.9 lineto
stroke
newpath
41646.9 36544.4 moveto
41646.9 35757 lineto
stroke
newpath
41365.7 36994.4 moveto
41084.5 36150.7 lineto
41815.7 36150.7 lineto
stroke
newpath
43165.5 35757 moveto
43165.5 36938.1 lineto
stroke
newpath
43671.7 35757 moveto
43671.7 36375.7 lineto
43615.4 36488.2 lineto
43503 36544.4 lineto
43334.2 36544.4 lineto
43221.7 36488.2 lineto
43165.5 36432 lineto
stroke
newpath
44402.8 35757 moveto
44290.4 35813.3 lineto
44234.1 35869.5 lineto
44177.9 35982 lineto
44177.9 36319.5 lineto
44234.1 36432 lineto
44290.4 36488.2 lineto
44402.8 36544.4 lineto
44571.6 36544.4 lineto
44684.1 36488.2 lineto
44740.3 36432 lineto
44796.6 36319.5 lineto
44796.6 35982 lineto
44740.3 35869.5 lineto
44684.1 35813.3 lineto
44571.6 35757 lineto
44402.8 35757 lineto
stroke
newpath
45471.5 35757 moveto
45359 35813.3 lineto
45302.7 35925.8 lineto
45302.7 36938.1 lineto
stroke
newpath
46371.4 35813.3 moveto
46258.9 35757 lineto
46033.9 35757 lineto
45921.4 35813.3 lineto
45865.2 35925.8 lineto
45865.2 36375.7 lineto
45921.4 36488.2 lineto
46033.9 36544.4 lineto
46258.9 36544.4 lineto
46371.4 36488.2 lineto
46427.6 36375.7 lineto
46427.6 36263.2 lineto
45865.2 36150.7 lineto
stroke
newpath
46877.5 35813.3 moveto
46990 35757 lineto
47215 35757 lineto
47327.5 35813.3 lineto
47383.7 35925.8 lineto
47383.7 35982 lineto
47327.5 36094.5 lineto
47215 36150.7 lineto
47046.3 36150.7 lineto
46933.8 36207 lineto
46877.5 36319.5 lineto
46877.5 36375.7 lineto
46933.8 36488.2 lineto
47046.3 36544.4 lineto
47215 36544.4 lineto
47327.5 36488.2 lineto
stroke
newpath
47777.4 35307.1 moveto
47833.7 35363.3 lineto
47946.2 35532.1 lineto
48002.4 35644.6 lineto
48058.6 35813.3 lineto
48114.9 36094.5 lineto
48114.9 36319.5 lineto
48058.6 36600.7 lineto
48002.4 36769.4 lineto
47946.2 36881.9 lineto
47833.7 37050.6 lineto
47777.4 37106.9 lineto
stroke
newpath
49914.7 35307.1 moveto
49858.4 35363.3 lineto
49745.9 35532.1 lineto
49689.7 35644.6 lineto
49633.4 35813.3 lineto
49577.2 36094.5 lineto
49577.2 36319.5 lineto
49633.4 36600.7 lineto
49689.7 36769.4 lineto
49745.9 36881.9 lineto
49858.4 37050.6 lineto
49914.7 37106.9 lineto
stroke
newpath
50364.6 36544.4 moveto
50364.6 35757 lineto
stroke
newpath
50364.6 36432 moveto
50420.8 36488.2 lineto
50533.3 36544.4 lineto
50702.1 36544.4 lineto
50814.5 36488.2 lineto
50870.8 36375.7 lineto
50870.8 35757 lineto
stroke
newpath
51602 35757 moveto
51489.5 35813.3 lineto
51433.2 35869.5 lineto
51377 35982 lineto
51377 36319.5 lineto
51433.2 36432 lineto
51489.5 36488.2 lineto
51602 36544.4 lineto
51770.7 36544.4 lineto
51883.2 36488.2 lineto
51939.4 36432 lineto
51995.7 36319.5 lineto
51995.7 35982 lineto
51939.4 35869.5 lineto
51883.2 35813.3 lineto
51770.7 35757 lineto
51602 35757 lineto
stroke
newpath
52333.1 36544.4 moveto
52783.1 36544.4 lineto
stroke
newpath
52501.8 36938.1 moveto
52501.8 35925.8 lineto
52558.1 35813.3 lineto
52670.6 35757 lineto
52783.1 35757 lineto
stroke
newpath
54076.6 36544.4 moveto
54076.6 35363.3 lineto
stroke
newpath
54076.6 36488.2 moveto
54189.1 36544.4 lineto
54414.1 36544.4 lineto
54526.6 36488.2 lineto
54582.8 36432 lineto
54639.1 36319.5 lineto
54639.1 35982 lineto
54582.8 35869.5 lineto
54526.6 35813.3 lineto
54414.1 35757 lineto
54189.1 35757 lineto
54076.6 35813.3 lineto
stroke
newpath
55314 35757 moveto
55201.5 35813.3 lineto
55145.3 35925.8 lineto
55145.3 36938.1 lineto
stroke
newpath
56270.1 35757 moveto
56270.1 36375.7 lineto
56213.9 36488.2 lineto
56101.4 36544.4 lineto
55876.4 36544.4 lineto
55763.9 36488.2 lineto
stroke
newpath
56270.1 35813.3 moveto
56157.6 35757 lineto
55876.4 35757 lineto
55763.9 35813.3 lineto
55707.7 35925.8 lineto
55707.7 36038.3 lineto
55763.9 36150.7 lineto
55876.4 36207 lineto
56157.6 36207 lineto
56270.1 36263.2 lineto
stroke
newpath
56663.8 36544.4 moveto
57113.8 36544.4 lineto
stroke
newpath
56832.5 36938.1 moveto
56832.5 35925.8 lineto
56888.8 35813.3 lineto
57001.3 35757 lineto
57113.8 35757 lineto
stroke
newpath
57957.4 35813.3 moveto
57844.9 35757 lineto
57619.9 35757 lineto
57507.5 35813.3 lineto
57451.2 35925.8 lineto
57451.2 36375.7 lineto
57507.5 36488.2 lineto
57619.9 36544.4 lineto
57844.9 36544.4 lineto
57957.4 36488.2 lineto
58013.6 36375.7 lineto
58013.6 36263.2 lineto
57451.2 36150.7 lineto
stroke
newpath
59026 35757 moveto
59026 36938.1 lineto
stroke
newpath
59026 35813.3 moveto
58913.5 35757 lineto
58688.6 35757 lineto
58576.1 35813.3 lineto
58519.8 35869.5 lineto
58463.6 35982 lineto
58463.6 36319.5 lineto
58519.8 36432 lineto
58576.1 36488.2 lineto
58688.6 36544.4 lineto
58913.5 36544.4 lineto
59026 36488.2 lineto
stroke
newpath
59476 35307.1 moveto
59532.2 35363.3 lineto
59644.7 35532.1 lineto
59700.9 35644.6 lineto
59757.2 35813.3 lineto
59813.4 36094.5 lineto
59813.4 36319.5 lineto
59757.2 36600.7 lineto
59700.9 36769.4 lineto
59644.7 36881.9 lineto
59532.2 37050.6 lineto
59476 37106.9 lineto
stroke
showpage
grestore
%%EOF
