M48
; DRILL file {KiCad 5.1.10} date Sat Jun 12 09:16:50 2021
; FORMAT={-:-/ absolute / inch / decimal}
; #@! TF.CreationDate,2021-06-12T09:16:50+02:00
; #@! TF.GenerationSoftware,Kicad,Pcbnew,5.1.10
; #@! TF.FileFunction,Plated,1,2,PTH
FMAT,2
INCH
T1C0.0276
T2C0.0315
T3C0.0354
T4C0.0394
T5C0.0433
T6C0.0551
T7C0.0669
%
G90
G05
T1
X4.765Y-3.9731
X4.765Y-4.0731
X5.3402Y-3.8731
X5.415Y-3.8731
X5.465Y-4.5231
X5.465Y-4.6231
X5.5402Y-4.1731
X5.565Y-4.5483
X5.565Y-4.6231
X5.5902Y-3.8731
X5.615Y-4.1731
X5.665Y-3.8731
X5.7902Y-3.8731
X5.865Y-3.8731
X5.9402Y-3.8731
X6.015Y-3.8731
X6.165Y-3.8731
X6.165Y-4.1731
X6.2398Y-3.8731
X6.265Y-4.1731
X6.265Y-4.5231
X6.265Y-4.598
X6.365Y-4.5231
X6.365Y-4.6231
X6.465Y-3.8731
X6.465Y-4.5731
X6.465Y-4.648
X6.5398Y-3.8731
X6.565Y-4.5731
X6.565Y-4.6731
X7.065Y-3.9731
X7.065Y-4.0731
T2
X5.0166Y-4.5231
X5.115Y-4.5231
X5.2666Y-4.4231
X5.365Y-4.4231
X5.515Y-4.3731
X5.6135Y-4.3731
X6.2166Y-4.3731
X6.315Y-4.3731
X6.465Y-4.4231
X6.5635Y-4.4231
X6.715Y-4.5231
X6.8135Y-4.5231
T3
X5.715Y-4.5231
X5.715Y-4.6231
X5.915Y-4.5231
X5.915Y-4.6231
X6.115Y-4.5231
X6.115Y-4.6231
T4
X4.9568Y-3.6731
X4.9568Y-3.7731
X5.0568Y-3.6731
X5.0568Y-3.7731
X5.1568Y-3.6731
X5.1568Y-3.7731
X5.2568Y-3.6731
X5.2568Y-3.7731
X5.3568Y-3.6731
X5.3568Y-3.7731
X5.4568Y-3.6731
X5.4568Y-3.7731
X5.5568Y-3.6731
X5.5568Y-3.7731
X5.6568Y-3.6731
X5.6568Y-3.7731
X5.7568Y-3.6731
X5.7568Y-3.7731
X5.8568Y-3.6731
X5.8568Y-3.7731
X5.9568Y-3.6731
X5.9568Y-3.7731
X6.0568Y-3.6731
X6.0568Y-3.7731
X6.1568Y-3.6731
X6.1568Y-3.7731
X6.2568Y-3.6731
X6.2568Y-3.7731
X6.3568Y-3.6731
X6.3568Y-3.7731
X6.4568Y-3.6731
X6.4568Y-3.7731
X6.5568Y-3.6731
X6.5568Y-3.7731
X6.6568Y-3.6731
X6.6568Y-3.7731
X6.7568Y-3.6731
X6.7568Y-3.7731
X6.8568Y-3.6731
X6.8568Y-3.7731
T5
X4.965Y-4.0231
X5.065Y-4.0231
X5.165Y-4.0231
X5.3473Y-3.9731
X5.4143Y-3.9731
X5.4812Y-3.9731
X5.5481Y-3.9731
X5.615Y-3.9731
X5.7973Y-3.9731
X5.8643Y-3.9731
X5.9312Y-3.9731
X5.9981Y-3.9731
X6.065Y-3.9731
X6.2473Y-3.9731
X6.3143Y-3.9731
X6.3812Y-3.9731
X6.4481Y-3.9731
X6.515Y-3.9731
X6.715Y-4.0231
X6.815Y-4.0231
X6.915Y-4.0231
T6
X5.015Y-4.2231
X5.415Y-4.2231
X6.415Y-4.2231
X6.815Y-4.2231
T7
X5.915Y-4.2172
X5.915Y-4.3731
T0
M30
