%TF.GenerationSoftware,KiCad,Pcbnew,5.1.10*%
%TF.CreationDate,2021-06-04T18:53:23+02:00*%
%TF.ProjectId,EEE3088F_Assignment3_Group7,45454533-3038-4384-965f-41737369676e,rev?*%
%TF.SameCoordinates,Original*%
%TF.FileFunction,Copper,L1,Top*%
%TF.FilePolarity,Positive*%
%FSLAX46Y46*%
G04 Gerber Fmt 4.6, Leading zero omitted, Abs format (unit mm)*
G04 Created by KiCad (PCBNEW 5.1.10) date 2021-06-04 18:53:23*
%MOMM*%
%LPD*%
G01*
G04 APERTURE LIST*
%TA.AperFunction,NonConductor*%
%ADD10C,0.300000*%
%TD*%
%TA.AperFunction,ComponentPad*%
%ADD11R,1.600000X1.600000*%
%TD*%
%TA.AperFunction,ComponentPad*%
%ADD12C,1.600000*%
%TD*%
%TA.AperFunction,ComponentPad*%
%ADD13R,2.800000X2.800000*%
%TD*%
%TA.AperFunction,ComponentPad*%
%ADD14O,2.800000X2.800000*%
%TD*%
%TA.AperFunction,ComponentPad*%
%ADD15C,1.400000*%
%TD*%
%TA.AperFunction,ComponentPad*%
%ADD16O,1.400000X1.400000*%
%TD*%
%TA.AperFunction,ComponentPad*%
%ADD17R,1.905000X2.000000*%
%TD*%
%TA.AperFunction,ComponentPad*%
%ADD18O,1.905000X2.000000*%
%TD*%
%TA.AperFunction,Conductor*%
%ADD19C,0.250000*%
%TD*%
G04 APERTURE END LIST*
D10*
X187267142Y-189908571D02*
X187267142Y-188408571D01*
X187838571Y-188408571D01*
X187981428Y-188480000D01*
X188052857Y-188551428D01*
X188124285Y-188694285D01*
X188124285Y-188908571D01*
X188052857Y-189051428D01*
X187981428Y-189122857D01*
X187838571Y-189194285D01*
X187267142Y-189194285D01*
X189052857Y-188408571D02*
X189338571Y-188408571D01*
X189481428Y-188480000D01*
X189624285Y-188622857D01*
X189695714Y-188908571D01*
X189695714Y-189408571D01*
X189624285Y-189694285D01*
X189481428Y-189837142D01*
X189338571Y-189908571D01*
X189052857Y-189908571D01*
X188910000Y-189837142D01*
X188767142Y-189694285D01*
X188695714Y-189408571D01*
X188695714Y-188908571D01*
X188767142Y-188622857D01*
X188910000Y-188480000D01*
X189052857Y-188408571D01*
X190195714Y-188408571D02*
X190552857Y-189908571D01*
X190838571Y-188837142D01*
X191124285Y-189908571D01*
X191481428Y-188408571D01*
X192052857Y-189122857D02*
X192552857Y-189122857D01*
X192767142Y-189908571D02*
X192052857Y-189908571D01*
X192052857Y-188408571D01*
X192767142Y-188408571D01*
X194267142Y-189908571D02*
X193767142Y-189194285D01*
X193410000Y-189908571D02*
X193410000Y-188408571D01*
X193981428Y-188408571D01*
X194124285Y-188480000D01*
X194195714Y-188551428D01*
X194267142Y-188694285D01*
X194267142Y-188908571D01*
X194195714Y-189051428D01*
X194124285Y-189122857D01*
X193981428Y-189194285D01*
X193410000Y-189194285D01*
X195981428Y-189480000D02*
X196695714Y-189480000D01*
X195838571Y-189908571D02*
X196338571Y-188408571D01*
X196838571Y-189908571D01*
X197338571Y-189908571D02*
X197338571Y-188408571D01*
X197838571Y-189480000D01*
X198338571Y-188408571D01*
X198338571Y-189908571D01*
X199052857Y-189908571D02*
X199052857Y-188408571D01*
X199624285Y-188408571D01*
X199767142Y-188480000D01*
X199838571Y-188551428D01*
X199910000Y-188694285D01*
X199910000Y-188908571D01*
X199838571Y-189051428D01*
X199767142Y-189122857D01*
X199624285Y-189194285D01*
X199052857Y-189194285D01*
X201624285Y-189837142D02*
X201767142Y-189908571D01*
X202052857Y-189908571D01*
X202195714Y-189837142D01*
X202267142Y-189694285D01*
X202267142Y-189622857D01*
X202195714Y-189480000D01*
X202052857Y-189408571D01*
X201838571Y-189408571D01*
X201695714Y-189337142D01*
X201624285Y-189194285D01*
X201624285Y-189122857D01*
X201695714Y-188980000D01*
X201838571Y-188908571D01*
X202052857Y-188908571D01*
X202195714Y-188980000D01*
X203552857Y-188908571D02*
X203552857Y-189908571D01*
X202910000Y-188908571D02*
X202910000Y-189694285D01*
X202981428Y-189837142D01*
X203124285Y-189908571D01*
X203338571Y-189908571D01*
X203481428Y-189837142D01*
X203552857Y-189765714D01*
X204267142Y-189908571D02*
X204267142Y-188408571D01*
X204267142Y-188980000D02*
X204410000Y-188908571D01*
X204695714Y-188908571D01*
X204838571Y-188980000D01*
X204910000Y-189051428D01*
X204981428Y-189194285D01*
X204981428Y-189622857D01*
X204910000Y-189765714D01*
X204838571Y-189837142D01*
X204695714Y-189908571D01*
X204410000Y-189908571D01*
X204267142Y-189837142D01*
X205552857Y-189837142D02*
X205695714Y-189908571D01*
X205981428Y-189908571D01*
X206124285Y-189837142D01*
X206195714Y-189694285D01*
X206195714Y-189622857D01*
X206124285Y-189480000D01*
X205981428Y-189408571D01*
X205767142Y-189408571D01*
X205624285Y-189337142D01*
X205552857Y-189194285D01*
X205552857Y-189122857D01*
X205624285Y-188980000D01*
X205767142Y-188908571D01*
X205981428Y-188908571D01*
X206124285Y-188980000D01*
X206695714Y-188908571D02*
X207052857Y-189908571D01*
X207410000Y-188908571D02*
X207052857Y-189908571D01*
X206910000Y-190265714D01*
X206838571Y-190337142D01*
X206695714Y-190408571D01*
X207910000Y-189837142D02*
X208052857Y-189908571D01*
X208338571Y-189908571D01*
X208481428Y-189837142D01*
X208552857Y-189694285D01*
X208552857Y-189622857D01*
X208481428Y-189480000D01*
X208338571Y-189408571D01*
X208124285Y-189408571D01*
X207981428Y-189337142D01*
X207910000Y-189194285D01*
X207910000Y-189122857D01*
X207981428Y-188980000D01*
X208124285Y-188908571D01*
X208338571Y-188908571D01*
X208481428Y-188980000D01*
X208981428Y-188908571D02*
X209552857Y-188908571D01*
X209195714Y-188408571D02*
X209195714Y-189694285D01*
X209267142Y-189837142D01*
X209410000Y-189908571D01*
X209552857Y-189908571D01*
X210624285Y-189837142D02*
X210481428Y-189908571D01*
X210195714Y-189908571D01*
X210052857Y-189837142D01*
X209981428Y-189694285D01*
X209981428Y-189122857D01*
X210052857Y-188980000D01*
X210195714Y-188908571D01*
X210481428Y-188908571D01*
X210624285Y-188980000D01*
X210695714Y-189122857D01*
X210695714Y-189265714D01*
X209981428Y-189408571D01*
X211338571Y-189908571D02*
X211338571Y-188908571D01*
X211338571Y-189051428D02*
X211410000Y-188980000D01*
X211552857Y-188908571D01*
X211767142Y-188908571D01*
X211910000Y-188980000D01*
X211981428Y-189122857D01*
X211981428Y-189908571D01*
X211981428Y-189122857D02*
X212052857Y-188980000D01*
X212195714Y-188908571D01*
X212410000Y-188908571D01*
X212552857Y-188980000D01*
X212624285Y-189122857D01*
X212624285Y-189908571D01*
X213267142Y-188551428D02*
X213338571Y-188480000D01*
X213481428Y-188408571D01*
X213838571Y-188408571D01*
X213981428Y-188480000D01*
X214052857Y-188551428D01*
X214124285Y-188694285D01*
X214124285Y-188837142D01*
X214052857Y-189051428D01*
X213195714Y-189908571D01*
X214124285Y-189908571D01*
X270824285Y-178962857D02*
X271324285Y-178962857D01*
X271538571Y-179748571D02*
X270824285Y-179748571D01*
X270824285Y-178248571D01*
X271538571Y-178248571D01*
X271967142Y-178248571D02*
X272824285Y-178248571D01*
X272395714Y-179748571D02*
X272395714Y-178248571D01*
X273324285Y-179748571D02*
X273324285Y-178248571D01*
X273324285Y-178962857D02*
X274181428Y-178962857D01*
X274181428Y-179748571D02*
X274181428Y-178248571D01*
X274895714Y-178962857D02*
X275395714Y-178962857D01*
X275610000Y-179748571D02*
X274895714Y-179748571D01*
X274895714Y-178248571D01*
X275610000Y-178248571D01*
X276252857Y-179748571D02*
X276252857Y-178248571D01*
X277110000Y-179748571D01*
X277110000Y-178248571D01*
X278610000Y-178320000D02*
X278467142Y-178248571D01*
X278252857Y-178248571D01*
X278038571Y-178320000D01*
X277895714Y-178462857D01*
X277824285Y-178605714D01*
X277752857Y-178891428D01*
X277752857Y-179105714D01*
X277824285Y-179391428D01*
X277895714Y-179534285D01*
X278038571Y-179677142D01*
X278252857Y-179748571D01*
X278395714Y-179748571D01*
X278610000Y-179677142D01*
X278681428Y-179605714D01*
X278681428Y-179105714D01*
X278395714Y-179105714D01*
X279610000Y-178248571D02*
X279752857Y-178248571D01*
X279895714Y-178320000D01*
X279967142Y-178391428D01*
X280038571Y-178534285D01*
X280110000Y-178820000D01*
X280110000Y-179177142D01*
X280038571Y-179462857D01*
X279967142Y-179605714D01*
X279895714Y-179677142D01*
X279752857Y-179748571D01*
X279610000Y-179748571D01*
X279467142Y-179677142D01*
X279395714Y-179605714D01*
X279324285Y-179462857D01*
X279252857Y-179177142D01*
X279252857Y-178820000D01*
X279324285Y-178534285D01*
X279395714Y-178391428D01*
X279467142Y-178320000D01*
X279610000Y-178248571D01*
X281038571Y-178248571D02*
X281181428Y-178248571D01*
X281324285Y-178320000D01*
X281395714Y-178391428D01*
X281467142Y-178534285D01*
X281538571Y-178820000D01*
X281538571Y-179177142D01*
X281467142Y-179462857D01*
X281395714Y-179605714D01*
X281324285Y-179677142D01*
X281181428Y-179748571D01*
X281038571Y-179748571D01*
X280895714Y-179677142D01*
X280824285Y-179605714D01*
X280752857Y-179462857D01*
X280681428Y-179177142D01*
X280681428Y-178820000D01*
X280752857Y-178534285D01*
X280824285Y-178391428D01*
X280895714Y-178320000D01*
X281038571Y-178248571D01*
X282967142Y-179748571D02*
X282110000Y-179748571D01*
X282538571Y-179748571D02*
X282538571Y-178248571D01*
X282395714Y-178462857D01*
X282252857Y-178605714D01*
X282110000Y-178677142D01*
X207987142Y-192218571D02*
X208130000Y-192218571D01*
X208272857Y-192290000D01*
X208344285Y-192361428D01*
X208415714Y-192504285D01*
X208487142Y-192790000D01*
X208487142Y-193147142D01*
X208415714Y-193432857D01*
X208344285Y-193575714D01*
X208272857Y-193647142D01*
X208130000Y-193718571D01*
X207987142Y-193718571D01*
X207844285Y-193647142D01*
X207772857Y-193575714D01*
X207701428Y-193432857D01*
X207630000Y-193147142D01*
X207630000Y-192790000D01*
X207701428Y-192504285D01*
X207772857Y-192361428D01*
X207844285Y-192290000D01*
X207987142Y-192218571D01*
X209772857Y-192718571D02*
X209772857Y-193718571D01*
X209415714Y-192147142D02*
X209058571Y-193218571D01*
X209987142Y-193218571D01*
X211630000Y-192147142D02*
X210344285Y-194075714D01*
X212415714Y-192218571D02*
X212558571Y-192218571D01*
X212701428Y-192290000D01*
X212772857Y-192361428D01*
X212844285Y-192504285D01*
X212915714Y-192790000D01*
X212915714Y-193147142D01*
X212844285Y-193432857D01*
X212772857Y-193575714D01*
X212701428Y-193647142D01*
X212558571Y-193718571D01*
X212415714Y-193718571D01*
X212272857Y-193647142D01*
X212201428Y-193575714D01*
X212130000Y-193432857D01*
X212058571Y-193147142D01*
X212058571Y-192790000D01*
X212130000Y-192504285D01*
X212201428Y-192361428D01*
X212272857Y-192290000D01*
X212415714Y-192218571D01*
X214201428Y-192218571D02*
X213915714Y-192218571D01*
X213772857Y-192290000D01*
X213701428Y-192361428D01*
X213558571Y-192575714D01*
X213487142Y-192861428D01*
X213487142Y-193432857D01*
X213558571Y-193575714D01*
X213630000Y-193647142D01*
X213772857Y-193718571D01*
X214058571Y-193718571D01*
X214201428Y-193647142D01*
X214272857Y-193575714D01*
X214344285Y-193432857D01*
X214344285Y-193075714D01*
X214272857Y-192932857D01*
X214201428Y-192861428D01*
X214058571Y-192790000D01*
X213772857Y-192790000D01*
X213630000Y-192861428D01*
X213558571Y-192932857D01*
X213487142Y-193075714D01*
X216058571Y-192147142D02*
X214772857Y-194075714D01*
X216487142Y-192361428D02*
X216558571Y-192290000D01*
X216701428Y-192218571D01*
X217058571Y-192218571D01*
X217201428Y-192290000D01*
X217272857Y-192361428D01*
X217344285Y-192504285D01*
X217344285Y-192647142D01*
X217272857Y-192861428D01*
X216415714Y-193718571D01*
X217344285Y-193718571D01*
X218272857Y-192218571D02*
X218415714Y-192218571D01*
X218558571Y-192290000D01*
X218630000Y-192361428D01*
X218701428Y-192504285D01*
X218772857Y-192790000D01*
X218772857Y-193147142D01*
X218701428Y-193432857D01*
X218630000Y-193575714D01*
X218558571Y-193647142D01*
X218415714Y-193718571D01*
X218272857Y-193718571D01*
X218130000Y-193647142D01*
X218058571Y-193575714D01*
X217987142Y-193432857D01*
X217915714Y-193147142D01*
X217915714Y-192790000D01*
X217987142Y-192504285D01*
X218058571Y-192361428D01*
X218130000Y-192290000D01*
X218272857Y-192218571D01*
X219344285Y-192361428D02*
X219415714Y-192290000D01*
X219558571Y-192218571D01*
X219915714Y-192218571D01*
X220058571Y-192290000D01*
X220130000Y-192361428D01*
X220201428Y-192504285D01*
X220201428Y-192647142D01*
X220130000Y-192861428D01*
X219272857Y-193718571D01*
X220201428Y-193718571D01*
X221630000Y-193718571D02*
X220772857Y-193718571D01*
X221201428Y-193718571D02*
X221201428Y-192218571D01*
X221058571Y-192432857D01*
X220915714Y-192575714D01*
X220772857Y-192647142D01*
%TO.P,BT1,1*%
%TO.N,Net-(BT1-Pad1)*%
%TA.AperFunction,SMDPad,CuDef*%
G36*
G01*
X218550000Y-146975000D02*
X217150000Y-146975000D01*
G75*
G02*
X217000000Y-146825000I0J150000D01*
G01*
X217000000Y-146525000D01*
G75*
G02*
X217150000Y-146375000I150000J0D01*
G01*
X218550000Y-146375000D01*
G75*
G02*
X218700000Y-146525000I0J-150000D01*
G01*
X218700000Y-146825000D01*
G75*
G02*
X218550000Y-146975000I-150000J0D01*
G01*
G37*
%TD.AperFunction*%
%TO.P,BT1,2*%
%TO.N,GND*%
%TA.AperFunction,SMDPad,CuDef*%
G36*
G01*
X218550000Y-145725000D02*
X217150000Y-145725000D01*
G75*
G02*
X217000000Y-145575000I0J150000D01*
G01*
X217000000Y-145275000D01*
G75*
G02*
X217150000Y-145125000I150000J0D01*
G01*
X218550000Y-145125000D01*
G75*
G02*
X218700000Y-145275000I0J-150000D01*
G01*
X218700000Y-145575000D01*
G75*
G02*
X218550000Y-145725000I-150000J0D01*
G01*
G37*
%TD.AperFunction*%
%TO.P,BT1,MP*%
%TO.N,N/C*%
%TA.AperFunction,SMDPad,CuDef*%
G36*
G01*
X215650000Y-149025000D02*
X213350000Y-149025000D01*
G75*
G02*
X213100000Y-148775000I0J250000D01*
G01*
X213100000Y-148275000D01*
G75*
G02*
X213350000Y-148025000I250000J0D01*
G01*
X215650000Y-148025000D01*
G75*
G02*
X215900000Y-148275000I0J-250000D01*
G01*
X215900000Y-148775000D01*
G75*
G02*
X215650000Y-149025000I-250000J0D01*
G01*
G37*
%TD.AperFunction*%
%TA.AperFunction,SMDPad,CuDef*%
G36*
G01*
X215650000Y-144075000D02*
X213350000Y-144075000D01*
G75*
G02*
X213100000Y-143825000I0J250000D01*
G01*
X213100000Y-143325000D01*
G75*
G02*
X213350000Y-143075000I250000J0D01*
G01*
X215650000Y-143075000D01*
G75*
G02*
X215900000Y-143325000I0J-250000D01*
G01*
X215900000Y-143825000D01*
G75*
G02*
X215650000Y-144075000I-250000J0D01*
G01*
G37*
%TD.AperFunction*%
%TD*%
D11*
%TO.P,C1,1*%
%TO.N,Net-(BT1-Pad1)*%
X223520000Y-147320000D03*
D12*
%TO.P,C1,2*%
%TO.N,GND*%
X223520000Y-144820000D03*
%TD*%
%TO.P,C2,2*%
%TO.N,GND*%
X241300000Y-139740000D03*
D11*
%TO.P,C2,1*%
%TO.N,Net-(C2-Pad1)*%
X241300000Y-142240000D03*
%TD*%
%TO.P,C3,1*%
%TO.N,Vout*%
X241300000Y-148590000D03*
D12*
%TO.P,C3,2*%
%TO.N,GND*%
X243800000Y-148590000D03*
%TD*%
D13*
%TO.P,D1,1*%
%TO.N,Vout*%
X226060000Y-140970000D03*
D14*
%TO.P,D1,2*%
%TO.N,Net-(BT1-Pad1)*%
X236220000Y-140970000D03*
%TD*%
D15*
%TO.P,R1,1*%
%TO.N,Vout*%
X226060000Y-151130000D03*
D16*
%TO.P,R1,2*%
%TO.N,Net-(C2-Pad1)*%
X223520000Y-151130000D03*
%TD*%
%TO.P,R2,2*%
%TO.N,GND*%
X219710000Y-140970000D03*
D15*
%TO.P,R2,1*%
%TO.N,Net-(C2-Pad1)*%
X222250000Y-140970000D03*
%TD*%
D17*
%TO.P,U1,1*%
%TO.N,Net-(C2-Pad1)*%
X229870000Y-147320000D03*
D18*
%TO.P,U1,2*%
%TO.N,Vout*%
X232410000Y-147320000D03*
%TO.P,U1,3*%
%TO.N,Net-(BT1-Pad1)*%
X234950000Y-147320000D03*
%TD*%
D19*
%TO.N,Net-(BT1-Pad1)*%
X236220000Y-146050000D02*
X234950000Y-147320000D01*
X236220000Y-140970000D02*
X236220000Y-146050000D01*
X233624990Y-148645010D02*
X234950000Y-147320000D01*
X224845010Y-148645010D02*
X233624990Y-148645010D01*
X223520000Y-147320000D02*
X224845010Y-148645010D01*
X222875000Y-146675000D02*
X223520000Y-147320000D01*
X217850000Y-146675000D02*
X222875000Y-146675000D01*
%TO.N,GND*%
X219710000Y-143565000D02*
X217850000Y-145425000D01*
X219710000Y-140970000D02*
X219710000Y-143565000D01*
X240174999Y-144964999D02*
X243800000Y-148590000D01*
X240174999Y-140865001D02*
X240174999Y-144964999D01*
X241300000Y-139740000D02*
X240174999Y-140865001D01*
X223520000Y-144780000D02*
X223520000Y-144820000D01*
X219710000Y-140970000D02*
X223520000Y-144780000D01*
%TO.N,Net-(C2-Pad1)*%
X228600000Y-147320000D02*
X229870000Y-147320000D01*
X222250000Y-140970000D02*
X228600000Y-147320000D01*
%TO.N,Vout*%
X226060000Y-140970000D02*
X232410000Y-147320000D01*
%TD*%
M02*
