%TF.GenerationSoftware,KiCad,Pcbnew,(5.1.10)-1*%
%TF.CreationDate,2021-06-04T16:25:08+02:00*%
%TF.ProjectId,3088,33303838-2e6b-4696-9361-645f70636258,V1*%
%TF.SameCoordinates,Original*%
%TF.FileFunction,Soldermask,Bot*%
%TF.FilePolarity,Negative*%
%FSLAX46Y46*%
G04 Gerber Fmt 4.6, Leading zero omitted, Abs format (unit mm)*
G04 Created by KiCad (PCBNEW (5.1.10)-1) date 2021-06-04 16:25:08*
%MOMM*%
%LPD*%
G01*
G04 APERTURE LIST*
%ADD10R,1.800000X1.800000*%
%ADD11C,1.800000*%
%ADD12O,4.100000X3.160000*%
%ADD13O,1.400000X1.400000*%
%ADD14C,1.400000*%
%ADD15R,1.800000X1.275000*%
%ADD16O,1.800000X1.275000*%
G04 APERTURE END LIST*
D10*
%TO.C,D1*%
X132080000Y-120650000D03*
D11*
X134620000Y-120650000D03*
%TD*%
%TO.C,D2*%
X143510000Y-138430000D03*
D10*
X140970000Y-138430000D03*
%TD*%
%TO.C,D3*%
X110490000Y-140970000D03*
D11*
X107950000Y-140970000D03*
%TD*%
%TO.C,J1*%
G36*
G01*
X103610000Y-129230000D02*
X107210000Y-129230000D01*
G75*
G02*
X107460000Y-129480000I0J-250000D01*
G01*
X107460000Y-132140000D01*
G75*
G02*
X107210000Y-132390000I-250000J0D01*
G01*
X103610000Y-132390000D01*
G75*
G02*
X103360000Y-132140000I0J250000D01*
G01*
X103360000Y-129480000D01*
G75*
G02*
X103610000Y-129230000I250000J0D01*
G01*
G37*
D12*
X105410000Y-134770000D03*
%TD*%
D13*
%TO.C,R1*%
X113670000Y-139700000D03*
D14*
X115570000Y-139700000D03*
%TD*%
%TO.C,R2*%
X115570000Y-133350000D03*
D13*
X113670000Y-133350000D03*
%TD*%
D14*
%TO.C,R3*%
X109220000Y-116840000D03*
D13*
X109220000Y-118740000D03*
%TD*%
%TO.C,R4*%
X112390000Y-123190000D03*
D14*
X110490000Y-123190000D03*
%TD*%
D13*
%TO.C,R5*%
X121290000Y-129540000D03*
D14*
X123190000Y-129540000D03*
%TD*%
%TO.C,R6*%
X128270000Y-129540000D03*
D13*
X126370000Y-129540000D03*
%TD*%
D14*
%TO.C,R7*%
X127000000Y-119380000D03*
D13*
X125100000Y-119380000D03*
%TD*%
%TO.C,R8*%
X131450000Y-129540000D03*
D14*
X133350000Y-129540000D03*
%TD*%
%TO.C,R9*%
X138430000Y-133350000D03*
D13*
X136530000Y-133350000D03*
%TD*%
%TO.C,R10*%
X102240000Y-140970000D03*
D14*
X104140000Y-140970000D03*
%TD*%
D15*
%TO.C,U1*%
X124460000Y-140970000D03*
D16*
X124460000Y-139270000D03*
X124460000Y-137570000D03*
X124460000Y-135870000D03*
X124460000Y-134170000D03*
%TD*%
%TO.C,U2*%
X120650000Y-117660000D03*
X120650000Y-119360000D03*
X120650000Y-121060000D03*
X120650000Y-122760000D03*
D15*
X120650000Y-124460000D03*
%TD*%
%TO.C,U3*%
X130810000Y-134620000D03*
D16*
X130810000Y-136320000D03*
X130810000Y-138020000D03*
X130810000Y-139720000D03*
X130810000Y-141420000D03*
%TD*%
M02*
