Version 4
SHEET 1 880 680
WIRE -192 -416 -192 -560
WIRE -96 -416 -192 -416
WIRE 336 -368 336 -480
WIRE 464 -368 464 -480
WIRE -96 -304 -96 -416
WIRE -192 -288 -192 -416
WIRE -128 -288 -192 -288
WIRE 64 -272 -64 -272
WIRE 192 -272 144 -272
WIRE -128 -256 -208 -256
WIRE -576 -240 -640 -240
WIRE -368 -240 -496 -240
WIRE -208 -240 -208 -256
WIRE -208 -240 -368 -240
WIRE 192 -160 192 -272
WIRE 336 -160 336 -288
WIRE 352 -160 336 -160
WIRE 464 -160 464 -288
WIRE -368 -144 -368 -240
WIRE -320 -144 -368 -144
WIRE -576 -80 -640 -80
WIRE -368 -80 -368 -144
WIRE -368 -80 -496 -80
WIRE 192 -48 192 -96
WIRE 352 -48 352 -96
WIRE 464 -48 464 -96
FLAG 192 -48 0
FLAG 352 -48 0
FLAG 464 -48 0
FLAG -192 -640 0
FLAG 464 -480 Vin
FLAG -96 -240 0
FLAG 336 -480 Vmains
FLAG -320 -144 Vin
FLAG -624 -432 0
FLAG -720 -240 0
FLAG -544 -432 Vmains
FLAG -640 -80 Vmains
SYMBOL voltage -192 -544 R180
WINDOW 0 24 96 Left 2
WINDOW 3 24 16 Left 2
SYMATTR InstName V3
SYMATTR Value 4.5
SYMBOL res 160 -288 R90
WINDOW 0 0 56 VBottom 2
WINDOW 3 32 56 VTop 2
SYMATTR InstName R1
SYMATTR Value 1k
SYMBOL res 352 -272 R180
WINDOW 0 36 76 Left 2
WINDOW 3 36 40 Left 2
SYMATTR InstName R2
SYMATTR Value 1k
SYMBOL res 480 -272 R180
WINDOW 0 36 76 Left 2
WINDOW 3 36 40 Left 2
SYMATTR InstName R3
SYMATTR Value 1k
SYMBOL diode 176 -160 R0
SYMATTR InstName Dgreen
SYMATTR Value 1N914
SYMATTR Description Light Emitting Diode
SYMATTR Type led
SYMBOL diode 336 -160 R0
SYMATTR InstName Dblue
SYMATTR Value 1N914
SYMATTR Description Light Emitting Diode
SYMATTR Type led
SYMBOL diode 448 -160 R0
SYMATTR InstName Dred
SYMATTR Value 1N914
SYMATTR Description Light Emitting Diode
SYMATTR Type led
SYMBOL OpAmps\\UniversalOpamp2 -96 -272 R0
SYMATTR InstName U1
SYMBOL voltage -624 -240 R90
WINDOW 0 -32 56 VBottom 2
WINDOW 3 32 56 VTop 2
SYMATTR InstName Vbatt
SYMBOL voltage -528 -432 R90
WINDOW 0 -32 56 VBottom 2
WINDOW 3 32 56 VTop 2
SYMATTR InstName Vmains
SYMBOL res -480 -96 R90
WINDOW 0 0 56 VBottom 2
WINDOW 3 32 56 VTop 2
SYMATTR InstName R4
SYMATTR Value 1k
SYMBOL res -480 -256 R90
WINDOW 0 0 56 VBottom 2
WINDOW 3 32 56 VTop 2
SYMATTR InstName R5
SYMATTR Value 1
TEXT -96 -112 Left 2 !.lib opamp.sub
TEXT -300 -20 Left 2 !.tran 0 5 1 .1
